<?xml version="1.0" encoding="utf-8"?>
<!-- Generator: Adobe Illustrator 23.1.1, SVG Export Plug-In . SVG Version: 6.00 Build 0)  -->
<svg version="1.1" id="Layer_1" xmlns="http://www.w3.org/2000/svg" xmlns:xlink="http://www.w3.org/1999/xlink" x="0px" y="0px"
	 viewBox="0 0 1538.5 1000" style="enable-background:new 0 0 1538.5 1000;" xml:space="preserve">
<g>
	<g>
		<g>
			<path d="M1043.4,103.4c-7-20.3-18.3-38.7-33.9-53.5c-15.7-15-34.2-25.6-54.3-33.4c-37.9-14.7-82.5-15.9-121.2-3.8
				c-45.2,14.1-84.3,45-114.1,81.3c-32.2,39.2-55.6,83.8-75.1,130.4c-42.5,101.3-62.7,213.1-45.8,322.4
				C612.3,633.6,652.3,715,708,782.4C763.7,850,837,902.7,919,933.3c82.2,30.6,172.1,34.9,257.3,14.6
				c84.4-20.1,163.4-63.9,226-123.9c62-59.5,108.4-136.8,126.1-221.3c17.3-82.3,9.5-169.2-19.8-247.9
				c-29.2-78.3-78.1-150.2-144.2-201.8c-36.2-28.3-75.8-50.1-119.3-65.4c-52.6-18.4-108.8-26.7-164.4-28.6
				c-91.8-3-185.3,11.4-268.9,50.6c-38.8,18.2-75.3,42.7-105.5,73.4c-34.1,34.7-58.8,76.9-73.5,123.2
				c-16.1,51.1-20.9,106.2-19.5,159.5c1.3,51.3,9,102.8,22.6,152.3c26.9,97.5,77.3,190.5,148.1,263.1c33.7,34.5,73,65,116.8,85.4
				c22.4,10.4,45.8,18.9,70.2,23.6c28.5,5.6,57.7,7,86.6,4.8c56.3-4.4,111.9-18.9,166-34.7c47-13.7,94.5-32.3,130.3-66.8
				c38.6-37.2,55.2-89.1,70.9-138.9c16-50.6,30.9-101.6,41.8-153.5c21.9-103.8,28.9-215.8-11.9-316.1c-18-44.2-43.8-84.4-77.2-118.7
				c-31.5-32.4-69.2-59.6-110.1-78.9c-41.6-19.5-85.6-31.5-131.4-35c-12.1-0.9-23.7,11.3-23.2,23.2c0.6,13.3,10.2,22.2,23.2,23.2
				c5.5,0.4,10.9,1,16.4,1.6c3.9,0.4-1.8-0.2-2.1-0.3c1.3,0.2,2.7,0.4,4.1,0.6c3.2,0.5,6.3,1,9.4,1.6c10.3,1.9,20.6,4.2,30.7,7
				c10.3,2.9,20.5,6.2,30.5,10.1c2.3,0.9,4.7,1.8,7,2.8c1.4,0.6,5.8,2.7-0.5-0.2c1.2,0.6,2.5,1.1,3.8,1.6c5,2.2,10,4.5,14.9,6.9
				c19.1,9.4,37.3,20.5,54.4,33.1c2,1.5,4,3.1,6,4.5c-6.1-4.3,1.4,1.2,2.8,2.3c4.3,3.5,8.4,7,12.5,10.7c7.8,7,15.4,14.3,22.6,22
				c7.5,8,14,16.9,21.4,24.9c-0.3-0.3-3.4-4.5-1.1-1.4c0.8,1.1,1.7,2.2,2.5,3.3c1.6,2.2,3.2,4.4,4.8,6.7c3.1,4.5,6.2,9,9.1,13.6
				c5.6,8.9,10.8,18,15.6,27.4c2.3,4.5,4.4,9,6.5,13.6c0.6,1.4,1.3,2.8,1.9,4.2c2.3,5.2-1.9-4.8,0.2,0.5c1.4,3.5,2.8,7,4.2,10.6
				c8.7,23,15,47,19,71.2c0.5,3.1,1,6.3,1.5,9.5c0.1,0.5,0.2,1,0.2,1.6c0.4,2.6,0.3,2.1-0.2-1.4c0.4,1.2,0.3,2.7,0.5,4
				c0.8,6.6,1.5,13.3,1.9,19.9c0.9,12.3,1.4,24.6,1.4,37c0,25.6-1.8,51.1-5,76.5c-0.2,1.4-0.4,2.7-0.5,4.1c-0.4,3.6,0.8-5.9,0.1-0.4
				c-0.5,3.3-0.9,6.5-1.4,9.8c-1,6.6-2.1,13.1-3.2,19.6c-2.2,12.6-4.7,25.1-7.4,37.6c-11.1,51-25.9,101.2-41.7,150.9
				c-3.7,11.6-7.3,23.2-11.4,34.7c-1.9,5.5-3.9,10.9-6.1,16.3c-0.6,1.5-1.2,2.9-1.8,4.4c-2,5.1,2.1-4.8-0.1,0.3
				c-1.3,2.9-2.5,5.7-3.9,8.6c-5.3,11.3-11.5,22.2-18.7,32.4c-0.8,1.1-1.7,3-2.8,3.8c0.4-0.3,3.4-4.2,0.7-1
				c-1.9,2.3-3.8,4.6-5.9,6.9c-3.8,4.3-7.9,8.3-12.2,12.2c-2.1,1.9-4.3,3.8-6.5,5.6c-1.6,1.3-4.9,2.5,0.2-0.1
				c-0.8,0.4-1.6,1.2-2.3,1.7c-4.8,3.5-9.7,6.8-14.8,10c-9.6,5.9-19.7,11.1-30,15.6c-1.2,0.5-3,1-4,1.7c3.2-2.4,3.5-1.4,1.5-0.6
				c-2.7,1.1-5.4,2.2-8.1,3.2c-5.5,2.1-11,4.1-16.6,6c-10.9,3.7-21.9,7-33,10.2c-25.1,7.1-50.5,13.7-75.9,19.5
				c-14,3.2-28.2,6-42.4,8.2c-2.9,0.5-5.9,1-8.9,1.3c6.3-0.7,0.2,0-0.9,0.1c-1.8,0.2-3.6,0.4-5.3,0.6c-7.1,0.8-14.2,1.4-21.3,1.7
				c-13.6,0.7-27.3,0.7-40.9-0.4c-3.6-0.3-7.1-0.6-10.7-1c-1.4-0.2-6.7-1.6-0.9-0.1c-0.9-0.2-2-0.3-2.9-0.4
				c-6.3-1-12.5-2.2-18.6-3.6c-10.8-2.5-21.5-5.7-32-9.5c-2.7-1-5.4-2-8.1-3.1c-0.9-0.4-1.8-0.7-2.7-1.1c-4.8-1.9,5,2.2,0.2,0.1
				c-5.3-2.3-10.6-4.8-15.8-7.3c-10.4-5.2-20.6-11-30.4-17.3c-4.5-2.9-9-5.9-13.4-9c-2-1.4-4-2.8-6-4.3c-1.2-0.9-2.4-1.7-3.6-2.6
				c-0.8-0.6-1.6-1.2-2.3-1.8c-2-1.5-1.6-1.2,1.2,0.9c-0.6-1.7-5.5-4.3-6.9-5.5c-1.9-1.5-3.8-3.1-5.7-4.7c-4.5-3.8-9-7.7-13.3-11.7
				c-8.7-8-17.2-16.3-25.3-25c-7.8-8.3-15.2-16.8-22.4-25.5c-1.9-2.3-3.7-4.6-5.5-6.9c-1-1.3-6.5-7.3-2-2.5
				c-4.2-4.5-7.6-10.1-11.1-15c-14.2-19.9-27.2-40.6-38.9-62c-5.7-10.5-11.1-21.2-16.2-32c-2.7-5.7-5.2-11.3-7.7-17.1
				c-0.4-1-0.8-1.9-1.2-2.9c-2.2-5,2,4.9-0.1-0.2c-1.4-3.4-2.8-6.7-4.1-10.1c-8.8-22.2-16.3-45-22.4-68.1
				c-6.3-23.6-11-47.6-14.5-71.8c-0.8-5.5,0.7,5.5,0,0c-0.2-1.5-0.4-3.1-0.6-4.6c-0.3-2.6-0.6-5.2-0.9-7.8
				c-0.7-6.5-1.3-12.9-1.8-19.4c-0.9-12.2-1.5-24.4-1.7-36.6c-0.4-24.8,0.8-49.7,3.7-74.3c0.2-1.4,0.3-2.8,0.5-4.2
				c0.7-5.8-0.8,5.3,0.1-0.5c0.5-3.3,1-6.6,1.5-9.9c1.1-6.6,2.3-13.2,3.7-19.7c2.7-12.5,6-24.9,10.1-37.1c1.9-5.8,4-11.5,6.3-17.2
				c0.4-1.1,2.3-6.5,0.2-0.6c0.6-1.6,1.3-3.1,2-4.6c1.6-3.6,3.3-7.1,5-10.6c4.6-9.2,9.7-18.1,15.4-26.7c2.6-4,5.3-7.9,8.1-11.7
				c1.1-1.5,6.9-8.3,1.8-2.5c1.7-1.9,3.2-4,4.8-6c6.5-7.9,13.5-15.5,20.9-22.6c7.1-6.9,14.5-13.4,22.1-19.6c1-0.8,2-1.6,3-2.4
				c3.8-3-4.4,3.3-0.6,0.5c1.7-1.3,3.4-2.6,5.2-3.9c4.2-3.1,8.4-6,12.8-8.9c17.1-11.3,35.2-21.2,53.9-29.6c2.4-1.1,4.8-2.2,7.3-3.2
				c0.8-0.4,1.6-0.7,2.4-1c-6.5,2.8-2,0.9-0.6,0.3c4.9-2,9.9-4,14.9-5.8c10.1-3.7,20.2-7.1,30.5-10.1c19.8-5.9,40-10.6,60.3-14.2
				c5.3-0.9,10.6-1.8,16-2.6c2.2-0.3,4.4-0.6,6.7-0.9c-7.3,1.1-2.4,0.3-0.8,0.1c1.8-0.2,3.6-0.4,5.3-0.6c10.2-1.2,20.4-2.1,30.7-2.8
				c24.3-1.6,48.8-1.9,73.2-0.8c13,0.5,26.1,1.4,39,2.8c3.4,0.4,6.8,0.7,10.1,1.1c1.4,0.2,2.8,0.4,4.2,0.5c3.6,0.4-5.9-0.8-0.3,0
				c6.7,1,13.4,2,20.1,3.2c26.1,4.6,51.9,11.3,76.9,20.3c5.9,2.1,11.6,4.4,17.4,6.7c5.4,2.2-4.5-1.9-0.1,0c1.2,0.5,2.3,1,3.5,1.5
				c2.5,1.1,5,2.2,7.5,3.4c8.9,4.2,17.7,8.7,26.3,13.6c8.4,4.8,16.5,9.9,24.5,15.3c3.8,2.6,7.6,5.2,11.3,7.9c2,1.5,4,3,6,4.5
				c3.8,2.8-4.4-3.5-0.7-0.6c1.1,0.9,2.3,1.8,3.4,2.7c15.2,12.1,29.5,25.4,42.8,39.5c6.9,7.3,13.5,14.9,19.8,22.7
				c1.3,1.6,2.6,3.3,3.9,4.9c0.8,1,1.5,2,2.3,3c-4.4-5.5-1.5-1.9-0.6-0.7c3,4,6,8.1,8.9,12.2c11.4,16.2,21.7,33.1,30.8,50.6
				c4.5,8.6,8.7,17.3,12.6,26.2c1,2.3,2,4.7,3,7c-0.1-0.2-2.3-5.5-0.9-2c0.5,1.2,1,2.3,1.4,3.5c1.9,4.7,3.7,9.4,5.5,14.2
				c6.8,18.6,12.4,37.6,16.8,57c2.1,9.4,3.9,19,5.4,28.5c0.4,2.5,0.7,5,1.1,7.5c-1.4-8.3,0.1,0.6,0.3,2.6c0.6,5,1.1,10,1.5,15.1
				c1.6,19.2,1.9,38.6,0.8,57.8c-0.3,5-0.7,10-1.1,15.1c-0.2,2.1-0.4,4.2-0.6,6.3c-0.1,1.3-0.3,2.5-0.4,3.8c-0.2,1.7-1.2,8,0,0.1
				c-1.5,9.6-3,19.1-5,28.5c-4.2,19.7-10,39-17.2,57.8c-0.8,2-1.6,4.1-2.4,6.1c-0.5,1.2-1,2.4-1.5,3.6c2.5-6.6,0.9-2.2,0.3-0.7
				c-2.1,4.8-4.2,9.5-6.5,14.2c-4.3,9-9,17.8-14,26.5c-5.2,9-10.7,17.8-16.6,26.4c-2.7,4-5.4,7.8-8.2,11.7c-1.5,2.1-3.1,4.2-4.7,6.3
				c-0.5,0.7-1.1,1.4-1.6,2.1c4.3-6,0.6-0.8-0.4,0.4c-12.7,16-26.5,31.1-41.2,45.3c-7.2,6.9-14.7,13.6-22.4,20.1
				c-3.7,3.1-7.4,6.1-11.1,9.1c-1,0.8-2.1,1.6-3.1,2.4c5.4-4.4,1.7-1.3,0.5-0.4c-2.3,1.7-4.5,3.4-6.8,5.1
				c-16.4,12-33.6,22.9-51.3,32.7c-9.2,5.1-18.5,9.8-28,14.3c-4.4,2-8.7,4-13.2,5.9c-1.4,0.6-5.9,2.2,0.7-0.3
				c-0.8,0.3-1.6,0.7-2.4,1c-2.8,1.2-5.7,2.3-8.5,3.4c-19.1,7.4-38.7,13.6-58.6,18.4c-9.7,2.3-19.6,4.4-29.4,6.1
				c-4.7,0.8-9.5,1.4-14.2,2.2c8.2-1.3-1,0.1-2.9,0.3c-2.6,0.3-5.2,0.6-7.8,0.8c-20.4,2-40.9,2.5-61.3,1.5c-10-0.5-20-1.4-30-2.6
				c-4.9-0.6,5.8,0.8,0.9,0.1c-1.3-0.2-2.6-0.4-3.9-0.6c-2.6-0.4-5.2-0.8-7.8-1.3c-5.2-0.9-10.4-1.9-15.6-2.9
				c-19.7-4.1-39.2-9.7-58.1-16.5c-4.9-1.8-9.8-3.7-14.7-5.6c-1.7-0.7-8.7-3.8-1.7-0.7c-2.8-1.3-5.6-2.4-8.4-3.7
				c-9.2-4.1-18.2-8.6-27.1-13.3c-18.2-9.7-35.8-20.6-52.6-32.5c-3.9-2.8-7.8-5.7-11.7-8.6c-1.2-0.9-4.9-4,0.5,0.4
				c-1-0.8-2.1-1.6-3.1-2.4c-2.1-1.6-4.1-3.3-6.2-5c-7.8-6.4-15.5-13-22.9-19.9c-15.2-14-29.6-29.1-42.9-44.9
				c-3.1-3.7-6.2-7.5-9.2-11.3c-0.8-1-1.6-2.1-2.5-3.1c-3-3.8,3.3,4.4,0.4,0.5c-1.7-2.3-3.5-4.6-5.2-6.9c-6.1-8.3-12-16.9-17.6-25.6
				c-11.2-17.4-21.3-35.5-30.2-54.2c-2.1-4.4-4.1-8.8-6-13.2c-0.7-1.6-3.5-8.8-0.8-1.7c-1.1-2.9-2.3-5.7-3.5-8.6
				c-3.7-9.4-7.1-18.9-10.2-28.6c-6.3-19.7-11.2-39.8-14.7-60.2c-0.4-2.4-0.8-4.8-1.2-7.2c-0.3-1.9-1.3-10.5-0.4-2.4
				c-0.7-6.2-1.5-12.5-2.1-18.7c-1.2-13.4-1.9-26.9-2-40.4c-0.1-12.9,0.3-25.9,1.1-38.8c0.4-6.2,0.9-12.3,1.5-18.5
				c0.3-3.4,0.7-6.7,1.1-10.1c0.2-1.7,0.4-3.4,0.6-5c0.6-4.9-0.7,4.7,0.1-0.5c7.7-52.6,22-104,42-153.3c1.1-2.6,2.1-5.3,3.2-7.8
				c-2.5,5.6-0.1,0.3,0.3-0.7c0.7-1.6,1.3-3.1,2-4.7c2.6-5.9,5.2-11.7,8-17.6c4.7-10,9.7-19.9,15-29.6c5.5-10.2,11.4-20.2,17.7-29.9
				c2.9-4.4,5.8-8.8,8.9-13.2c1.7-2.4,3.4-4.7,5.1-7c0.6-0.8,1.1-1.5,1.7-2.3c0.6-0.8,1.2-1.5,1.7-2.3c-2.2,2.8-2.5,3.2-1,1.3
				c6.8-8.6,13.9-16.9,21.6-24.7c4-4.1,8-8,12.2-11.8c1.7-1.6,3.5-3.1,5.3-4.6c2.4-2,5.6-3.9,7.6-6.2c-3.8,4.3-1.9,1.5-0.2,0.2
				c0.8-0.6,1.5-1.1,2.3-1.7c2.3-1.7,4.6-3.3,6.9-4.8c4.7-3.1,9.5-6.1,14.4-8.8c4.5-2.5,9.2-4.9,13.9-7.1c1.3-0.6,2.6-1.2,3.9-1.7
				c4.7-2.1-5,1.9-0.7,0.3c2.2-0.8,4.4-1.7,6.6-2.5c8.9-3.1,18.1-5.3,27.4-6.8c1.8-0.3,6.1-0.4-1.5,0.2c0.8-0.1,1.6-0.2,2.4-0.3
				c2.4-0.3,4.7-0.5,7.1-0.6c4.7-0.3,9.5-0.4,14.2-0.4c4.4,0.1,8.7,0.3,13,0.7c2.1,0.2,10.6,1.6,2.1,0.1c2.5,0.4,5.1,0.8,7.6,1.3
				c9,1.7,17.9,4.1,26.5,7.3c1.8,0.7,3.6,1.5,5.4,2.1c-7.8-2.9,0,0.1,1.8,1c3.8,1.8,7.5,3.8,11.1,5.9c3.7,2.2,7.3,4.7,10.9,7.2
				c1.4,1,3.5,3.2-1.6-1.2c0.8,0.7,1.8,1.4,2.6,2.1c1.7,1.4,3.4,2.9,5,4.4c3,2.8,5.9,5.8,8.5,8.9c0.7,0.8,1.4,1.7,2.1,2.6
				c2.7,3.2-2.9-4-1.2-1.6c1.2,1.7,2.4,3.3,3.6,5c2.3,3.4,4.4,7,6.3,10.7c0.9,1.8,3.9,9.5,1,1.7c0.8,2.2,1.7,4.3,2.5,6.5
				c4,11.4,16.1,20.2,28.5,16.2C1038.5,128.3,1047.6,115.7,1043.4,103.4L1043.4,103.4z"/>
		</g>
	</g>
	<g>
		<g>
			<path d="M856.4,566.4c7.5-2.5,13.9-6.2,19.7-11.6c4.1-3.8,7.8-8.6,10.1-13.7c3.4-7.4,5.5-14.2,5.7-22.5c0.2-8-2-15.1-5.3-22.2
				c-0.8-1.8-1.9-3.5-3.1-5.1c-2.3-3.2-4.7-6.5-7.7-9.1c-6.1-5.3-12-8.8-19.6-11.4c-3.7-1.3-7.7-1.6-11.5-2.1
				c-5.7-0.6-12,0.1-16.9,3.3c-5.3,3.4-10.3,8-13.1,13.8c-2.9,6-4.8,12.4-4.4,19.2c0.5,7.4,2.1,12.5,5.1,19.1
				c4.7,10.4,14.3,18,24.9,21.6c6.2,2.1,13.8,1.9,20.1,0.3c6.3-1.7,12-5.1,16.7-9.6c2.3-2.2,4.2-4.9,5.9-7.5
				c1.8-2.8,3.1-6.1,4.2-9.2c1.6-4.4,2.2-9.4,2.3-14c0.3-11.7-4.1-22.7-11.7-31.4c-4.5-5.2-10.3-8.2-16.6-10.6
				c-7-2.6-14.4-2.2-21.5-1c-5.3,0.9-10.7,3.3-15,6.4c-6.2,4.4-10.8,8.9-15,15.4c-3,4.6-5.3,10-6.1,15.4c-1.2,7.3-1.7,14.7,1,21.8
				c2.5,6.9,5.7,12.8,11,18c3.5,3.5,7.8,6.7,12.4,8.8c3.1,1.4,6.4,2.9,9.8,3.8c3.6,1,7.4,1.4,11.1,1.7c5.2,0.5,10.6-0.3,15.6-1.4
				c12-2.8,22.3-10.7,28.8-21c2.7-4.2,4.7-9.2,5.8-14.1c1.1-5,1.8-10.4,1.4-15.5c-0.4-5.2-1.1-10.5-3-15.3c-1.2-3.1-2.5-6.4-4.1-9.3
				c-1.7-3.1-4.1-5.9-6.3-8.7c-3.1-3.9-7.3-7.2-11.6-9.7c-6.6-3.9-13.2-5.5-20.7-6.3c-1.8-0.2-3.6-0.2-5.4-0.1
				c-3.7,0.4-7.5,0.7-11,1.7c-5.3,1.5-10.9,3.9-15.4,7.2c-2.9,2.1-6,4.3-8.5,6.9c-2.6,2.5-4.8,5.6-6.9,8.5
				c-3.3,4.5-5.7,9.9-7.1,15.3c-0.9,3.6-1.4,7.3-1.6,11c-0.2,3.7,0.6,7.6,1.1,11.2c0.7,3,2.1,5.6,4.1,7.9c1.6,2.5,3.8,4.5,6.5,6
				c5,2.9,12.3,4.1,17.8,2.3c5.6-1.8,11-5.3,13.8-10.6c0.8-1.8,1.6-3.7,2.3-5.5c1.1-4.1,1.1-8.2,0-12.3c0-0.2,0-0.3-0.1-0.5
				c0.3,2.1,0.6,4.1,0.8,6.2c-0.3-2.2-0.3-4.3,0-6.5c-0.3,2.1-0.6,4.1-0.8,6.2c0.3-2.3,1-4.5,1.8-6.7c-0.8,1.8-1.6,3.7-2.3,5.5
				c1-2.3,2.3-4.4,3.8-6.5c-1.2,1.6-2.4,3.1-3.6,4.7c1.8-2.3,3.8-4.3,6-6.1c-1.6,1.2-3.1,2.4-4.7,3.6c2.3-1.7,4.7-3.2,7.4-4.3
				c-1.8,0.8-3.7,1.6-5.5,2.3c2.3-0.9,4.7-1.6,7.2-2c-2.1,0.3-4.1,0.6-6.2,0.8c2.1-0.3,4.3-0.3,6.4,0c-2.1-0.3-4.1-0.6-6.2-0.8
				c2.1,0.3,4.2,0.8,6.1,1.6c-1.8-0.8-3.7-1.6-5.5-2.3c1.9,0.8,3.6,1.8,5.2,3.1c-1.6-1.2-3.1-2.4-4.7-3.6c1.8,1.4,3.4,3.1,4.8,4.9
				c-1.2-1.6-2.4-3.1-3.6-4.7c1.6,2.1,2.9,4.4,3.9,6.8c-0.8-1.8-1.6-3.7-2.3-5.5c1.1,2.7,1.9,5.6,2.3,8.5c-0.3-2.1-0.6-4.1-0.8-6.2
				c0.3,2.8,0.3,5.5,0,8.3c0.3-2.1,0.6-4.1,0.8-6.2c-0.3,2.4-1,4.8-1.9,7.1c0.8-1.8,1.6-3.7,2.3-5.5c-0.8,2-1.9,3.9-3.2,5.6
				c1.2-1.6,2.4-3.1,3.6-4.7c-1.2,1.5-2.5,2.9-4,4.1c1.6-1.2,3.1-2.4,4.7-3.6c-1.7,1.3-3.5,2.3-5.4,3.2c1.8-0.8,3.7-1.6,5.5-2.3
				c-2.2,0.9-4.6,1.5-6.9,1.9c2.1-0.3,4.1-0.6,6.2-0.8c-2.6,0.3-5.1,0.3-7.7,0c2.1,0.3,4.1,0.6,6.2,0.8c-2.7-0.4-5.3-1.1-7.8-2.1
				c1.8,0.8,3.7,1.6,5.5,2.3c-2.1-0.9-4-2-5.8-3.3c1.6,1.2,3.1,2.4,4.7,3.6c-1.6-1.3-3.1-2.7-4.4-4.3c1.2,1.6,2.4,3.1,3.6,4.7
				c-1.1-1.4-2-3-2.7-4.6c0.8,1.8,1.6,3.7,2.3,5.5c-0.6-1.5-1-3-1.3-4.6c0.3,2.1,0.6,4.1,0.8,6.2c-0.3-1.9-0.2-3.8,0-5.7
				c-0.3,2.1-0.6,4.1-0.8,6.2c0.3-2.1,0.9-4.1,1.7-6c-0.8,1.8-1.6,3.7-2.3,5.5c0.9-2.1,2.1-4,3.5-5.9c-1.2,1.6-2.4,3.1-3.6,4.7
				c1.4-1.8,3-3.4,4.8-4.8c-1.6,1.2-3.1,2.4-4.7,3.6c1.7-1.3,3.4-2.3,5.4-3.1c-1.8,0.8-3.7,1.6-5.5,2.3c1.6-0.6,3.3-1.1,5-1.3
				c-2.1,0.3-4.1,0.6-6.2,0.8c1.6-0.2,3.1-0.2,4.7,0c-2.1-0.3-4.1-0.6-6.2-0.8c1.5,0.2,3,0.6,4.4,1.2c-1.8-0.8-3.7-1.6-5.5-2.3
				c1.3,0.6,2.5,1.3,3.6,2.1c-1.6-1.2-3.1-2.4-4.7-3.6c1.1,0.9,2,1.8,2.9,2.9c-1.2-1.6-2.4-3.1-3.6-4.7c1.1,1.4,1.9,2.9,2.6,4.6
				c-0.8-1.8-1.6-3.7-2.3-5.5c0.8,1.9,1.3,3.9,1.6,6c-0.3-2.1-0.6-4.1-0.8-6.2c0.3,2.2,0.3,4.4,0,6.6c0.3-2.1,0.6-4.1,0.8-6.2
				c-0.3,2-0.8,4-1.6,5.9c0.8-1.8,1.6-3.7,2.3-5.5c-0.6,1.5-1.5,2.9-2.4,4.1c1.2-1.6,2.4-3.1,3.6-4.7c-0.8,1-1.6,1.8-2.6,2.6
				c1.6-1.2,3.1-2.4,4.7-3.6c-1.1,0.8-2.3,1.5-3.5,2.1c1.8-0.8,3.7-1.6,5.5-2.3c-1.1,0.4-2.2,0.8-3.4,0.9c2.1-0.3,4.1-0.6,6.2-0.8
				c-1.3,0.2-2.5,0.2-3.8,0c2.1,0.3,4.1,0.6,6.2,0.8c-1.2-0.2-2.4-0.5-3.5-1c1.8,0.8,3.7,1.6,5.5,2.3c-1.3-0.6-2.4-1.3-3.5-2.1
				c1.6,1.2,3.1,2.4,4.7,3.6c-1.4-1.1-2.7-2.4-3.8-3.8c1.2,1.6,2.4,3.1,3.6,4.7c-1.2-1.6-2.2-3.3-2.9-5.1c0.8,1.8,1.6,3.7,2.3,5.5
				c-0.8-1.9-1.4-3.9-1.6-5.9c0.3,2.1,0.6,4.1,0.8,6.2c-0.2-1.6-0.2-3.2,0-4.8c-0.3,2.1-0.6,4.1-0.8,6.2c0.2-1.2,0.5-2.3,0.9-3.5
				c-0.8,1.8-1.6,3.7-2.3,5.5c0.4-1,1-1.9,1.6-2.8c-1.2,1.6-2.4,3.1-3.6,4.7c0.7-0.9,1.5-1.7,2.4-2.4c-1.6,1.2-3.1,2.4-4.7,3.6
				c0.4-0.3,0.9-0.6,1.3-0.9c-3.9,1-7.8,2.1-11.7,3.2c1.8-0.1,3.6-0.1,5.4,0.2c-2.1-0.3-4.1-0.6-6.2-0.8c2.2,0.3,4.3,0.9,6.3,1.7
				c-1.8-0.8-3.7-1.6-5.5-2.3c2.4,1,4.6,2.3,6.6,3.8c-1.6-1.2-3.1-2.4-4.7-3.6c1.9,1.5,3.6,3.1,5,5c-1.2-1.6-2.4-3.1-3.6-4.7
				c1.5,1.9,2.7,3.9,3.6,6.1c-0.8-1.8-1.6-3.7-2.3-5.5c0.8,2,1.4,4.1,1.7,6.3c-0.3-2.1-0.6-4.1-0.8-6.2c0.2,2.1,0.2,4.2,0,6.3
				c0.3-2.1,0.6-4.1,0.8-6.2c-0.3,2.5-1,4.8-1.9,7.2c0.8-1.8,1.6-3.7,2.3-5.5c-1,2.3-2.2,4.4-3.7,6.5c1.2-1.6,2.4-3.1,3.6-4.7
				c-1.5,2-3.3,3.7-5.2,5.3c1.6-1.2,3.1-2.4,4.7-3.6c-1.7,1.3-3.5,2.3-5.5,3.2c1.8-0.8,3.7-1.6,5.5-2.3c-0.7,0.3-1.3,0.5-2,0.7
				c-5.7,1.9-10.7,5.3-13.8,10.6c-2.9,5-4.1,12.3-2.3,17.8c1.8,5.6,5.3,11,10.6,13.8C843.9,566.9,850.5,568.4,856.4,566.4
				L856.4,566.4z"/>
		</g>
	</g>
	<g>
		<g>
			<path d="M1225.2,344.8c-3.3-1.1-6.9-1.6-10.3-1.3c-2.5,0.2-5.3,0.4-7.8,1.2c-2.4,0.8-4.9,1.8-7.1,3.1c-4.8,3-7.5,6.1-10.8,10.7
				c-1.9,2.7-3.1,6.1-4.2,9c-1.2,3.2-1.5,6.9-1.9,10.3c-0.2,1.6-0.2,3.2-0.1,4.8c0.3,3.3,0.6,7.1,1.8,10.3c2.2,5.9,3.8,8.7,7.7,13.5
				c2.1,2.5,4.8,4.6,7.6,6.2c5.2,2.9,9.6,3.9,15.4,4.3c3.8,0.3,7.8-0.2,11.4-1.3c4.8-1.5,8.3-3.4,12.1-6.3c1.4-1.1,2.9-2.1,4.2-3.4
				c1.9-2,3.6-4.3,5.2-6.6c2.2-3.1,3.6-6.9,4.9-10.3c0.7-1.8,1.1-3.6,1.4-5.4c0.6-3.9,1.3-7.8,0.9-11.8c-0.4-3.8-0.7-7.8-2.1-11.4
				c-2.4-6.2-4.2-9.5-8.5-14.5c-3-3.6-7.2-6.1-11.7-7.5c-4.7-1.5-10.4-0.6-15.1,0.4c-3.9,0.8-7.8,2.5-11.3,4.6
				c-1.7,1-3.2,2.3-4.8,3.5c-1.6,1.3-3.3,2.5-4.7,4c-2,2.1-3.7,4.5-5.4,6.8c-0.7,0.9-1.3,1.9-1.9,2.9c-3.9,6.9-6.6,15.6-6,23.7
				c0.5,6.9,1.7,10.9,4.4,17.2c1.6,3.5,4.1,6.7,6.8,9.5c1.9,2,4.3,3.6,6.5,5.2c0.8,0.6,1.6,1.1,2.5,1.5c3.3,1.6,6.9,3.3,10.6,4
				c3.8,0.7,7.8,1.4,11.7,1.1c3.8-0.3,7.8-0.7,11.5-1.9c3.5-1.2,7.2-2.6,10.3-4.6c5.3-3.6,8.2-6.6,12-11.7c0.5-0.7,1-1.4,1.4-2.1
				c1.3-2.5,2.5-5.2,3.3-7.9c1.1-3.7,1.7-7.8,1.3-11.7c-0.7-6.3-1.6-10.6-4.7-16.3c-0.9-1.6-2.1-3-3.2-4.5c-1.2-1.5-2.3-3.1-3.7-4.4
				c-5.4-5.2-12.5-9.5-19.9-11.2c-2.7-0.6-5.6-0.9-8.4-1.2c-1-0.1-2-0.1-3,0c-6.5,0.5-10.4,1.5-16.3,4.4c-1.6,0.8-3,2-4.4,3.1
				c-1.6,1.2-3.1,2.3-4.3,3.8c-2.3,2.1-3.9,4.6-4.8,7.5c-1.5,2.8-2.1,5.7-2,8.9c0,5.7,2.5,12.5,6.8,16.4c4.4,4,10.2,7.1,16.4,6.8
				c5.8-0.3,12.6-2.1,16.4-6.8c0.6-0.7,1.2-1.4,2-2c-1.6,1.2-3.1,2.4-4.7,3.6c0.9-0.7,1.8-1.2,2.9-1.7c-1.8,0.8-3.7,1.6-5.5,2.3
				c1-0.4,2.1-0.7,3.2-0.8c-2.1,0.3-4.1,0.6-6.2,0.8c1.5-0.2,2.9-0.2,4.4,0c-2.1-0.3-4.1-0.6-6.2-0.8c1.7,0.3,3.4,0.7,5,1.4
				c-1.8-0.8-3.7-1.6-5.5-2.3c1.6,0.7,3.1,1.6,4.6,2.7c-1.6-1.2-3.1-2.4-4.7-3.6c1.3,1,2.4,2.1,3.4,3.4c-1.2-1.6-2.4-3.1-3.6-4.7
				c0.8,1.1,1.5,2.3,2,3.5c-0.8-1.8-1.6-3.7-2.3-5.5c0.4,1,0.7,2.1,0.9,3.2c-0.3-2.1-0.6-4.1-0.8-6.2c0.1,1.2,0.1,2.3,0,3.4
				c0.3-2.1,0.6-4.1,0.8-6.2c-0.2,1.2-0.5,2.3-0.9,3.4c0.8-1.8,1.6-3.7,2.3-5.5c-0.5,1.1-1.1,2.2-1.9,3.2c1.2-1.6,2.4-3.1,3.6-4.7
				c-0.8,1-1.8,2-2.8,2.8c1.6-1.2,3.1-2.4,4.7-3.6c-1.3,1-2.7,1.7-4.1,2.4c1.8-0.8,3.7-1.6,5.5-2.3c-1.7,0.7-3.5,1.2-5.4,1.5
				c2.1-0.3,4.1-0.6,6.2-0.8c-2,0.3-4,0.3-5.9,0c2.1,0.3,4.1,0.6,6.2,0.8c-1.7-0.2-3.4-0.7-5-1.3c1.8,0.8,3.7,1.6,5.5,2.3
				c-1.4-0.6-2.6-1.3-3.8-2.2c1.6,1.2,3.1,2.4,4.7,3.6c-1-0.8-1.9-1.7-2.7-2.7c1.2,1.6,2.4,3.1,3.6,4.7c-0.8-1.1-1.5-2.3-2.1-3.6
				c0.8,1.8,1.6,3.7,2.3,5.5c-0.5-1.3-0.9-2.7-1.1-4.1c0.3,2.1,0.6,4.1,0.8,6.2c-0.2-1.7-0.2-3.4,0-5c-0.3,2.1-0.6,4.1-0.8,6.2
				c0.3-2,0.8-3.9,1.6-5.7c-0.8,1.8-1.6,3.7-2.3,5.5c0.9-2,1.9-3.8,3.3-5.5c-1.2,1.6-2.4,3.1-3.6,4.7c1.2-1.5,2.5-2.8,4-4
				c-1.6,1.2-3.1,2.4-4.7,3.6c1.5-1.1,3.1-2.1,4.8-2.8c-1.8,0.8-3.7,1.6-5.5,2.3c1.5-0.6,3-1,4.6-1.3c-2.1,0.3-4.1,0.6-6.2,0.8
				c0.5-0.1,1.1-0.1,1.6-0.1c-5.5-2.3-10.9-4.5-16.4-6.8c0.6,0.6,1.1,1.2,1.7,1.8c-1.2-1.6-2.4-3.1-3.6-4.7c0.9,1.2,1.7,2.5,2.2,3.9
				c-0.8-1.8-1.6-3.7-2.3-5.5c0.6,1.6,1.1,3.3,1.3,5c-0.3-2.1-0.6-4.1-0.8-6.2c0.2,2,0.2,4,0,6c0.3-2.1,0.6-4.1,0.8-6.2
				c-0.3,2.1-0.8,4.1-1.7,6.1c0.8-1.8,1.6-3.7,2.3-5.5c-0.7,1.7-1.6,3.2-2.7,4.7c1.2-1.6,2.4-3.1,3.6-4.7c-0.9,1.1-1.9,2.1-3,3
				c1.6-1.2,3.1-2.4,4.7-3.6c-1,0.7-1.9,1.3-3,1.8c1.8-0.8,3.7-1.6,5.5-2.3c-1,0.4-2,0.7-3.1,0.9c2.1-0.3,4.1-0.6,6.2-0.8
				c-1.2,0.2-2.4,0.2-3.7,0c2.1,0.3,4.1,0.6,6.2,0.8c-0.8-0.1-1.6-0.3-2.4-0.6c1.8,0.8,3.7,1.6,5.5,2.3c-0.8-0.3-1.5-0.8-2.2-1.3
				c1.6,1.2,3.1,2.4,4.7,3.6c-0.7-0.5-1.2-1.1-1.8-1.8c1.2,1.6,2.4,3.1,3.6,4.7c-0.6-0.8-1.1-1.7-1.5-2.7c0.8,1.8,1.6,3.7,2.3,5.5
				c-0.6-1.4-0.9-2.7-1.1-4.2c0.3,2.1,0.6,4.1,0.8,6.2c-0.2-1.8-0.2-3.6,0-5.3c-0.3,2.1-0.6,4.1-0.8,6.2c0.2-1.6,0.6-3.2,1.3-4.7
				c-0.8,1.8-1.6,3.7-2.3,5.5c0.5-1.1,1-2.1,1.8-3.1c-1.2,1.6-2.4,3.1-3.6,4.7c0.5-0.7,1.2-1.3,1.9-1.8c-1.6,1.2-3.1,2.4-4.7,3.6
				c0.5-0.4,1-0.7,1.6-0.9c-1.8,0.8-3.7,1.6-5.5,2.3c0.6-0.3,1.3-0.5,2-0.6c-2.1,0.3-4.1,0.6-6.2,0.8c0.7-0.1,1.3-0.1,2,0
				c-2.1-0.3-4.1-0.6-6.2-0.8c0.7,0.1,1.5,0.3,2.2,0.5c3.1,1,6.2,1.1,9.2,0.4c3.1-0.1,6-1,8.6-2.7c4.8-2.8,9.4-8.3,10.6-13.8
				c1.3-5.9,1.1-12.6-2.3-17.8c-1.2-1.6-2.4-3.1-3.6-4.7C1232.5,347.9,1229.1,345.9,1225.2,344.8L1225.2,344.8z"/>
		</g>
	</g>
	<g>
		<g>
			<path d="M1002.6,731.4c35.2-25.1,72.5-47.2,111.5-66c10.9-5.2,21.9-10.2,33-14.9c-1.8,0.8-3.7,1.6-5.5,2.3
				c27.1-11.5,54.9-21.3,83.2-29.5c8-2.3,16-4.5,24-6.5c5.6-1.4,11-5.7,13.8-10.6c2.9-5,4.1-12.3,2.3-17.8
				c-1.8-5.6-5.3-11-10.6-13.8c-5.6-2.9-11.6-3.9-17.8-2.3c-35.3,9-69.9,20.5-103.5,34.5c-35.3,14.7-69.6,31.5-102.4,51.1
				c-17.6,10.5-34.7,21.7-51.4,33.6c-2.7,1.5-4.9,3.4-6.5,6c-2.1,2.2-3.4,4.9-4.1,7.9c-1.5,5.5-0.8,12.9,2.3,17.8
				c3.2,4.9,7.9,9.3,13.8,10.6C990.5,735,997.6,734.9,1002.6,731.4L1002.6,731.4z"/>
		</g>
	</g>
	<g>
		<g>
			<path d="M493.4,687.7c-10.7,9.8-20.3,20.5-29.1,32c-8.8,11.4-16.8,23.5-23.5,36.3c-4,7.6-7.4,15.5-10.7,23.5
				c-2.9,6.9-5.3,13.9-7.2,21.1c-2.2,8.8-3.6,17.9-3.9,27c-0.1,3.6,0,7.2,0.5,10.8c0.6,5.2,1.3,10.6,2.7,15.7
				c1.3,4.6,3.3,9,5.3,13.3c1.2,2.6,2.7,5.1,4.4,7.5c2.7,3.8,5.5,7.6,8.7,11c3.3,3.4,7.1,6.3,10.9,9.1c5.9,4.4,13,7.6,20,9.4
				c9.3,2.3,18,2.2,27.3,0.4c2.2-0.4,4.4-1,6.6-1.9c3.8-1.5,7.6-3,11.1-5.2c5.3-3.3,10.5-7.5,14.6-12.4c4.2-5,8.1-10.3,11-16.2
				c3-6.2,5.7-12.7,7.5-19.3c1.8-6.8,2.8-13.8,3.6-20.8c0.6-5.1,0.7-10.3,0.4-15.5c-0.8-15.4-4.3-30.6-6.9-45.8
				c-0.6-3.5-1.2-7.1-1.6-10.6c0.3,2.1,0.6,4.1,0.8,6.2c-1.4-10.5-2.1-21.1-0.7-31.6c-0.3,2.1-0.6,4.1-0.8,6.2
				c0.8-5.9,2.3-11.7,4.6-17.3c-0.8,1.8-1.6,3.7-2.3,5.5c0.3-0.6,0.5-1.3,0.8-1.9c1.7-2.7,2.6-5.5,2.7-8.6c0.7-3.1,0.6-6.2-0.4-9.2
				c-1.5-5.4-5.6-11.2-10.6-13.8c-5.4-2.8-11.9-4.3-17.8-2.3c-5.4,1.7-11.4,5.2-13.8,10.6c-3.3,7.3-6.1,14.5-7.4,22.4
				c-1.3,7.8-2.1,15.5-1.9,23.4c0.4,14.4,3,28.6,5.5,42.7c1.3,7.1,2.5,14.1,3.5,21.2c-0.3-2.1-0.6-4.1-0.8-6.2
				c1.2,9.1,1.4,18.2,0.2,27.3c0.3-2.1,0.6-4.1,0.8-6.2c-1,7.6-3,15.1-5.9,22.2c0.8-1.8,1.6-3.7,2.3-5.5c-2.1,4.8-4.6,9.4-7.8,13.6
				c1.2-1.6,2.4-3.1,3.6-4.7c-2.3,3-5,5.7-8,8.1c1.6-1.2,3.1-2.4,4.7-3.6c-2.4,1.8-5,3.4-7.8,4.6c1.8-0.8,3.7-1.6,5.5-2.3
				c-3,1.3-6.1,2.1-9.4,2.5c2.1-0.3,4.1-0.6,6.2-0.8c-3.1,0.4-6.2,0.4-9.3,0c2.1,0.3,4.1,0.6,6.2,0.8c-3.2-0.5-6.3-1.3-9.3-2.6
				c1.8,0.8,3.7,1.6,5.5,2.3c-3.3-1.4-6.4-3.3-9.3-5.5c1.6,1.2,3.1,2.4,4.7,3.6c-3.4-2.6-6.4-5.6-9-9c1.2,1.6,2.4,3.1,3.6,4.7
				c-2.9-3.7-5.2-7.7-7.1-12c0.8,1.8,1.6,3.7,2.3,5.5c-1.9-4.6-3.1-9.3-3.8-14.2c0.3,2.1,0.6,4.1,0.8,6.2
				c-0.9-6.9-0.8-13.9,0.1-20.9c-0.3,2.1-0.6,4.1-0.8,6.2c1.6-11.7,5.3-22.9,9.8-33.8c-0.8,1.8-1.6,3.7-2.3,5.5
				c7.7-18.2,17.7-35.4,29.7-51c-1.2,1.6-2.4,3.1-3.6,4.7c8.2-10.6,17.4-20.6,27.3-29.6c4.3-3.9,6.8-10.7,6.8-16.4
				c0-5.7-2.5-12.5-6.8-16.4c-4.4-4-10.2-7.1-16.4-6.8C503.5,681.2,498.1,683.4,493.4,687.7L493.4,687.7z"/>
		</g>
	</g>
	<g>
		<g>
			<path d="M210.2,642.3c-40.7,7.7-80.1,20.6-118,37.4c-9,4-18,8.3-26.8,12.9c-7.4,3.8-14.7,7.9-21.6,12.7
				c-17.1,11.9-32.5,27.1-38.7,47.6c-0.5,1.7-0.9,3.4-1.2,5.1c-0.6,3.8-1.2,7.6-1.3,11.5c-0.1,5.4,0.6,11,2.1,16.2
				c2.7,10,8.4,19.2,15.5,26.7c13.7,14.3,33.3,21.9,52.9,23.1c5.5,0.3,10.8-0.4,16.3-1.2c4.3-0.6,8.4-1.6,12.5-2.9
				c9.9-3.3,19.5-7.9,28.1-13.7c16.3-11,30.2-24.9,43.2-39.7c25.9-29.7,48.2-62.6,65.3-98.1c2.1-4.2,4-8.5,5.9-12.9
				c1.7-2.7,2.6-5.5,2.7-8.6c0.7-3.1,0.6-6.2-0.4-9.2c-1.5-5.4-5.6-11.2-10.6-13.8c-5.4-2.8-11.9-4.3-17.8-2.3
				c-5.4,1.7-11.5,5.2-13.8,10.6c-10.6,24.1-23.5,47.1-38.4,68.7c-4.2,6.1-8.6,12.1-13.1,18c1.2-1.6,2.4-3.1,3.6-4.7
				c-7.3,9.5-15.1,18.7-23.2,27.6c-7.7,8.3-15.7,16.3-24.7,23.2c1.6-1.2,3.1-2.4,4.7-3.6c-7.2,5.6-15,10.5-23.4,14
				c1.8-0.8,3.7-1.6,5.5-2.3c-5.9,2.4-12,4.2-18.3,5.1c2.1-0.3,4.1-0.6,6.2-0.8c-4.7,0.6-9.4,0.6-14.2,0c2.1,0.3,4.1,0.6,6.2,0.8
				c-5.1-0.7-10-2-14.8-4c1.8,0.8,3.7,1.6,5.5,2.3c-4.5-1.9-8.7-4.3-12.6-7.3c1.6,1.2,3.1,2.4,4.7,3.6c-2.9-2.3-5.6-4.9-8-7.9
				c1.2,1.6,2.4,3.1,3.6,4.7c-2.1-2.7-3.8-5.5-5.1-8.6c0.8,1.8,1.6,3.7,2.3,5.5c-1.2-2.8-2-5.8-2.5-8.8c0.3,2.1,0.6,4.1,0.8,6.2
				c-0.4-3.3-0.4-6.7,0-10c-0.3,2.1-0.6,4.1-0.8,6.2c0.5-3.7,1.5-7.2,2.9-10.6c-0.8,1.8-1.6,3.7-2.3,5.5c1.7-3.9,3.9-7.6,6.5-11
				c-1.2,1.6-2.4,3.1-3.6,4.7c4.4-5.7,9.6-10.5,15.3-14.9c-1.6,1.2-3.1,2.4-4.7,3.6c8.6-6.6,17.9-11.8,27.5-16.8
				c11.3-5.8,22.9-11.2,34.6-16.1c-1.8,0.8-3.7,1.6-5.5,2.3c25.8-10.9,52.6-19.7,79.8-26.2c7.8-1.9,15.6-3.5,23.5-5
				c5.4-1,11.1-6,13.8-10.6c2.9-5,4.1-12.3,2.3-17.8c-1.8-5.6-5.3-11-10.6-13.8c-1.8-0.8-3.7-1.6-5.5-2.3
				C218.5,641.2,214.4,641.2,210.2,642.3L210.2,642.3z"/>
		</g>
	</g>
</g>
</svg>
