<?xml version="1.0" encoding="utf-8"?>
<!-- Generator: Adobe Illustrator 23.1.1, SVG Export Plug-In . SVG Version: 6.00 Build 0)  -->
<svg version="1.1" id="Layer_1" xmlns="http://www.w3.org/2000/svg" xmlns:xlink="http://www.w3.org/1999/xlink" x="0px" y="0px"
	 viewBox="0 0 1000 1000" style="enable-background:new 0 0 1000 1000;" xml:space="preserve">
<g>
	<g>
		<g>
			<path d="M512.69,58.44c-52.39-25.32-113.17-25.57-168.03-7.97c-54.27,17.42-101.41,51.59-141.48,91.47
				c-38.84,38.65-73.18,82.63-102.54,128.86C71.34,316.93,47,366.62,30.37,418.74C14.3,469.09,5.58,522.61,8.65,575.52
				c3.09,53.2,17.98,105.1,44.54,151.37c25.51,44.45,60.68,83.15,100.5,115.2c41.16,33.13,86.86,60.11,135.37,80.99
				c52.92,22.79,108.35,38.67,165.49,46.34c56.77,7.63,114.21,7.05,170.68-2.87c51.9-9.12,102.38-26.71,148.31-52.62
				C816,890,854.92,859.07,887.69,822.98c33.1-36.46,59.91-77.97,78.92-123.4c20.51-49,29.8-101.74,28.93-154.8
				c-0.99-60.85-13.38-121.66-29.93-180.06c-13.88-48.94-32.08-97.08-56.66-141.7c-23.79-43.19-54.2-83.65-92.16-115.4
				c-41.08-34.35-89.92-58.12-142.33-69.24C619.95,26.83,564.12,28.1,509.2,35.8c-55.61,7.8-110.05,22.56-163.41,39.77
				c-25.62,8.26-51.04,17.14-76.37,26.25c-7.36,2.65-13.1,10.33-10.48,18.45c2.35,7.25,10.55,13.32,18.45,10.48
				C328.88,112.23,380.8,94.63,433.9,81.3c26.19-6.57,52.66-12.1,79.38-16.01c1.55-0.23,3.11-0.45,4.66-0.67
				c3.11-0.44,1.35-0.18,0.67-0.09c0.78-0.1,1.55-0.2,2.33-0.3c3.36-0.43,6.72-0.83,10.08-1.2c6.69-0.74,13.4-1.37,20.11-1.88
				c13.03-0.98,26.09-1.49,39.15-1.44c12.89,0.05,25.78,0.64,38.61,1.85c3.25,0.31,6.49,0.66,9.73,1.05
				c0.75,0.09,1.49,0.18,2.24,0.28c0.07,0.01,2.52,0.33,0.99,0.12c-1.54-0.21,0.91,0.13,0.98,0.14c0.99,0.14,1.98,0.29,2.97,0.44
				c6.43,0.97,12.83,2.11,19.19,3.43c12.49,2.59,24.83,5.88,36.94,9.89c6.21,2.06,12.36,4.31,18.42,6.76
				c3.71,1.49,2.55,1.01,6.21,2.63c3.26,1.45,6.5,2.95,9.7,4.51c11.3,5.49,22.26,11.67,32.78,18.52c5.05,3.29,10,6.73,14.85,10.31
				c1.11,0.82,2.22,1.66,3.33,2.49c2.2,1.67-0.82-0.67,1.34,1.05c2.34,1.87,4.68,3.74,6.97,5.67c18.2,15.22,34.66,32.47,49.39,51.07
				c0.46,0.58,2.53,3.23,1.07,1.34c0.85,1.1,1.69,2.21,2.53,3.32c1.95,2.6,3.88,5.21,5.77,7.86c3.39,4.73,6.68,9.54,9.87,14.4
				c6.69,10.19,12.96,20.66,18.84,31.34c5.82,10.56,11.26,21.33,16.36,32.26c2.61,5.6,5.14,11.24,7.58,16.92
				c0.28,0.66,1.63,3.86,0.72,1.68c0.55,1.32,1.1,2.64,1.64,3.96c1.27,3.09,2.51,6.18,3.73,9.29
				c19.04,48.43,32.83,99.13,42.48,150.24c2.77,14.67,5.11,29.38,6.69,43.12c1.77,15.43,2.91,30.94,3.26,46.47
				c0.34,15.21-0.09,30.43-1.43,45.58c-0.34,3.87-0.74,7.73-1.21,11.59c-0.16,1.35-0.33,2.7-0.51,4.05
				c0.39-2.87-0.18,1.14-0.32,2.07c-0.87,5.81-1.89,11.6-3.06,17.35c-4.55,22.49-11.3,44.51-19.99,65.74
				c-0.32,0.78-1.95,4.61-0.83,2.01c-0.53,1.24-1.07,2.48-1.61,3.71c-1.18,2.67-2.39,5.33-3.62,7.98
				c-2.48,5.3-5.08,10.54-7.79,15.72c-5.33,10.18-11.11,20.13-17.29,29.81c-6.32,9.91-13.08,19.53-20.2,28.88
				c-1.69,2.22,0.75-0.93-0.98,1.26c-0.84,1.07-1.68,2.13-2.53,3.2c-1.84,2.3-3.7,4.58-5.59,6.84c-3.78,4.53-7.65,8.98-11.6,13.35
				c-15.72,17.37-32.84,33.48-51.1,48.15c-1.07,0.86-2.13,1.71-3.21,2.55c-0.62,0.49-3.2,2.5-1.28,1.01
				c-2.35,1.81-4.71,3.59-7.1,5.35c-4.77,3.52-9.6,6.94-14.5,10.27c-9.61,6.52-19.48,12.67-29.57,18.43
				c-10.28,5.86-20.79,11.31-31.51,16.32c-2.47,1.15-4.95,2.29-7.45,3.39c-1.25,0.55-2.49,1.1-3.75,1.64
				c-0.63,0.27-1.25,0.54-1.88,0.81c-2.32,0.99,3.22-1.32-0.81,0.34c-5.25,2.16-10.53,4.24-15.86,6.2
				c-25.49,9.38-51.83,16.47-78.55,21.34c-6.76,1.23-13.54,2.32-20.35,3.28c0.02,0-2.56,0.35-1.15,0.16
				c1.41-0.19-1.17,0.15-1.15,0.14c-1.57,0.2-3.15,0.39-4.72,0.58c-3.41,0.4-6.83,0.77-10.25,1.1c-13.69,1.33-27.44,2.11-41.2,2.37
				c-27.08,0.5-54.19-1.05-81.05-4.48c-0.3-0.04-3.55-0.47-1.97-0.25c1.39,0.19-1.2-0.17-1.17-0.16c-1.58-0.22-3.16-0.45-4.74-0.68
				c-3.43-0.51-6.85-1.05-10.26-1.62c-6.84-1.14-13.66-2.4-20.45-3.78c-13.34-2.71-26.59-5.86-39.72-9.46
				c-52.29-14.32-99.11-33.91-145.84-61.37c-10.63-6.25-21.06-12.84-31.26-19.77c-5.2-3.54-10.34-7.17-15.41-10.89
				c-2.34-1.72-4.66-3.45-6.97-5.21c-0.58-0.44-1.15-0.88-1.73-1.32c0.24,0.19,1.52,1.18,0.17,0.13c-1.33-1.04-2.66-2.08-3.99-3.14
				c-19.37-15.4-37.6-32.27-54.18-50.66c-4.16-4.61-8.21-9.31-12.14-14.11c-1.81-2.21-3.6-4.45-5.37-6.69
				c-1.06-1.34-0.03-0.02,0.15,0.21c-0.44-0.57-0.87-1.13-1.3-1.7c-1.15-1.52-2.29-3.04-3.42-4.57
				c-7.18-9.76-13.89-19.88-20.03-30.33c-6.15-10.47-11.75-21.26-16.71-32.35c-0.68-1.53-1.35-3.06-2.01-4.6
				c0.93,2.16-0.44-1.06-0.7-1.72c-1.2-2.94-2.35-5.9-3.46-8.87c-2.26-6.08-4.34-12.22-6.23-18.43c-3.66-12.02-6.6-24.25-8.84-36.61
				c-0.52-2.89-1.01-5.79-1.45-8.69c-0.15-0.97-0.29-1.93-0.43-2.9c-0.02-0.11-0.36-2.5-0.14-0.91c0.22,1.59-0.1-0.8-0.12-0.91
				c-0.12-0.97-0.24-1.94-0.36-2.91c-0.74-6.3-1.31-12.62-1.7-18.96c-0.77-12.44-0.88-24.91-0.38-37.36
				c0.26-6.37,0.67-12.74,1.24-19.09c0.26-2.94,0.56-5.88,0.89-8.81c0.16-1.47,0.34-2.94,0.52-4.4c0.09-0.76,0.68-5.11,0.33-2.62
				c3.56-25.46,9.39-50.56,17.06-75.09c3.86-12.33,8.17-24.52,12.9-36.54c1.21-3.08,2.45-6.15,3.71-9.21
				c0.29-0.71,0.59-1.41,0.88-2.12c-0.01,0.01,0.97-2.3,0.43-1.03c-0.54,1.27,0.45-1.04,0.44-1.03c0.41-0.94,0.81-1.88,1.22-2.81
				c2.66-6.1,5.41-12.15,8.27-18.17c11.35-23.9,24.19-47.09,38.26-69.5c6.95-11.07,14.19-21.94,21.71-32.63
				c3.81-5.42,7.7-10.78,11.65-16.09c1.82-2.44,3.65-4.87,5.5-7.3c0.33-0.44,2.57-3.35,1.36-1.78c1.08-1.4,2.17-2.79,3.27-4.18
				c16.62-21.13,34.19-41.59,53.09-60.72c9.39-9.5,19.12-18.67,29.26-27.37c10.81-9.28,18.63-15.38,30.38-23.44
				c10.95-7.51,22.34-14.4,34.13-20.52c12.84-6.65,21.96-10.55,35.56-15.05c12.76-4.22,25.84-7.47,39.11-9.61
				c1.56-0.25,3.12-0.49,4.68-0.71c1.78-0.25,0.26-0.03-0.08,0.01c0.78-0.1,1.56-0.19,2.35-0.28c3.64-0.42,7.3-0.75,10.96-0.99
				c6.51-0.43,13.04-0.59,19.56-0.45c6.49,0.14,12.97,0.58,19.42,1.34c0.77,0.09,1.54,0.18,2.31,0.28c-0.34-0.05-1.91-0.27-0.14,0
				c1.53,0.24,3.07,0.48,4.6,0.74c3.31,0.58,6.61,1.24,9.89,1.99c6.05,1.39,12.03,3.08,17.91,5.08c3.19,1.09,6.35,2.27,9.48,3.54
				c1.6,0.65,0.33,0.13,0.02,0c0.72,0.31,1.43,0.63,2.14,0.95c1.67,0.75,3.32,1.53,4.96,2.33c7.05,3.41,16.54,2.16,20.52-5.38
				C521.62,72.24,520.23,62.08,512.69,58.44L512.69,58.44z"/>
		</g>
	</g>
	<g>
		<g>
			<path d="M334.39,508.18c-12.75-13.81-25.49-27.62-38.24-41.43c-12.68-13.74-25.36-27.47-38.04-41.21
				c-5.94-6.44-11.82-12.94-17.19-19.86c0.78,1.01,1.56,2.02,2.35,3.04c-5.56-7.2-10.56-14.86-14.15-23.25
				c0.5,1.19,1.01,2.39,1.51,3.58c-2.29-5.44-3.94-11.11-4.73-16.97c0.18,1.33,0.36,2.66,0.54,3.99c-0.48-3.76-0.48-7.51,0.02-11.26
				c-0.18,1.33-0.36,2.66-0.54,3.99c0.59-4.17,1.73-8.22,3.36-12.1c-0.5,1.19-1.01,2.39-1.51,3.58c1.64-3.84,3.74-7.45,6.29-10.76
				c-0.78,1.01-1.56,2.02-2.35,3.04c2.16-2.75,4.6-5.25,7.36-7.41c-1.01,0.78-2.02,1.56-3.04,2.35c2.34-1.8,4.87-3.31,7.58-4.46
				c-1.19,0.5-2.39,1.01-3.58,1.51c2.3-0.95,4.68-1.61,7.15-1.95c-1.33,0.18-2.66,0.36-3.99,0.54c2.31-0.29,4.62-0.3,6.93-0.01
				c-1.33-0.18-2.66-0.36-3.99-0.54c2.64,0.36,5.2,1.08,7.66,2.11c-1.19-0.5-2.39-1.01-3.58-1.51c2.93,1.25,5.64,2.92,8.17,4.86
				c-1.01-0.78-2.02-1.56-3.04-2.35c10.71,8.32,17.64,20.4,27.61,29.48c3.65,3.33,7.63,6.46,11.95,8.88
				c4.23,2.37,8.92,2.63,13.35,0.76c4.3-1.81,7.36-5.19,8.68-9.72c2.81-9.64,5.91-19.22,9.81-28.49c-0.5,1.19-1.01,2.39-1.51,3.58
				c3.71-8.76,8.16-17.28,13.97-24.84c-0.78,1.01-1.56,2.02-2.35,3.04c3.34-4.31,7.12-8.27,11.42-11.63
				c-1.01,0.78-2.02,1.56-3.04,2.35c3.52-2.72,7.34-4.99,11.44-6.73c-1.19,0.5-2.39,1.01-3.58,1.51c3.82-1.59,7.81-2.72,11.91-3.29
				c-1.33,0.18-2.66,0.36-3.99,0.54c3.98-0.52,7.98-0.5,11.95,0.03c-1.33-0.18-2.66-0.36-3.99-0.54c4.4,0.62,8.67,1.84,12.76,3.57
				c-1.19-0.5-2.39-1.01-3.58-1.51c4.72,2.03,9.12,4.68,13.2,7.8c-1.01-0.78-2.02-1.56-3.04-2.35c4.96,3.85,9.37,8.34,13.21,13.3
				c-0.78-1.01-1.56-2.02-2.35-3.04c4.11,5.36,7.52,11.22,10.15,17.44c-0.5-1.19-1.01-2.39-1.51-3.58
				c2.39,5.74,4.09,11.74,4.95,17.9c-0.18-1.33-0.36-2.66-0.54-3.99c1.12,8.4,0.87,16.99-0.24,25.38c0.18-1.33,0.36-2.66,0.54-3.99
				c-1.77,12.96-5.74,25.49-10.79,37.53c0.5-1.19,1.01-2.39,1.51-3.58c-4.71,11.16-10.33,21.9-16.26,32.46
				c-5.17,9.21-10.46,18.36-16.25,27.19c-3.09,4.72-6.34,9.35-9.79,13.82c0.78-1.01,1.56-2.02,2.35-3.04
				c-6.36,8.21-13.43,15.9-21.65,22.28c1.01-0.78,2.02-1.56,3.04-2.35c-5.23,4.03-10.89,7.47-16.98,10.05
				c1.19-0.5,2.39-1.01,3.58-1.51c-4.74,1.97-9.67,3.39-14.74,4.21c-1.95,0.46-3.65,1.36-5.1,2.68c-1.63,1.06-2.92,2.46-3.86,4.21
				c-1.88,3.22-2.68,7.95-1.51,11.56c1.17,3.63,3.42,7.13,6.89,8.96c1.19,0.5,2.39,1.01,3.58,1.51c2.66,0.71,5.32,0.71,7.98,0
				c15.34-2.46,29.04-10.32,40.85-20.13c11.26-9.35,20.45-21.17,28.65-33.21c8.27-12.14,15.6-24.96,22.6-37.87
				c8.4-15.5,16.09-31.7,20.97-48.68c5.02-17.44,6.84-35.87,3.74-53.82c-1.34-7.79-4.15-15.22-7.53-22.34
				c-3.39-7.16-7.94-13.64-13.02-19.71c-4.94-5.91-10.82-10.95-17.16-15.31c-6.14-4.23-13.19-7.5-20.37-9.49
				c-15.73-4.36-32.54-2.05-46.72,5.91c-3.57,2-6.8,4.49-9.99,7.03c-2.33,1.85-4.51,3.89-6.54,6.07
				c-4.97,5.32-9.34,11.32-13.02,17.59c-3.85,6.55-6.9,13.49-9.79,20.5c-2.44,5.93-4.56,11.99-6.5,18.1
				c-0.94,2.96-1.83,5.94-2.7,8.92c7.35-2.99,14.69-5.98,22.03-8.96c-1.87-1.04-3.64-2.23-5.34-3.53c1.01,0.78,2.02,1.56,3.04,2.35
				c-6.94-5.37-12.37-12.34-17.97-19.02c-2.77-3.31-5.6-6.58-8.72-9.57c-2.36-2.27-4.92-4.25-7.53-6.24
				c-1.63-1.25-3.33-2.4-5.13-3.38c-2.84-1.56-5.88-2.85-8.95-3.86c-3.22-1.06-6.6-1.49-9.96-1.84c-2.1-0.22-4.2-0.17-6.29,0.09
				c-3.31,0.4-6.55,0.8-9.69,1.93c-3.05,1.09-6.13,2.38-8.94,4.04c-2.83,1.67-5.46,3.74-7.96,5.86c-4.23,3.57-7.79,8.09-10.78,12.71
				c-3.08,4.76-5.43,10.14-7.13,15.54c-0.68,2.16-1.2,4.37-1.56,6.61c-0.55,3.42-1.05,6.9-1.08,10.37
				c-0.03,3.59,0.51,7.14,1.03,10.68c0.39,2.66,0.95,5.29,1.68,7.87c1.76,6.24,4.37,12.32,7.39,18.05
				c5.63,10.69,13.32,20.31,21.21,29.4c8.06,9.28,16.56,18.19,24.9,27.22c18.05,19.55,36.1,39.1,54.14,58.66
				c2.26,2.44,4.51,4.89,6.77,7.33c2.54,2.76,6.92,4.39,10.61,4.39c3.68,0,8.07-1.63,10.61-4.39c2.62-2.86,4.57-6.61,4.39-10.61
				C338.61,514.71,337.18,511.2,334.39,508.18L334.39,508.18z"/>
		</g>
	</g>
	<g>
		<g>
			<path d="M725.8,494.57c-1.13-0.86-2.26-1.72-3.39-2.59c1.01,0.78,2.02,1.56,3.04,2.35c-21.71-16.8-41.73-35.75-59.69-56.51
				c-5.03-5.81-9.89-11.75-14.59-17.83c0.78,1.01,1.56,2.02,2.35,3.04c-5.47-7.09-10.73-14.35-15.73-21.78
				c-4.82-7.16-9.57-14.43-13.76-21.98c-2.1-3.78-4-7.66-5.69-11.64c0.5,1.19,1.01,2.39,1.51,3.58c-3.02-7.16-5.36-14.64-6.43-22.36
				c0.18,1.33,0.36,2.66,0.54,3.99c-0.61-4.54-0.75-9.14-0.17-13.69c-0.18,1.33-0.36,2.66-0.54,3.99c0.44-3.27,1.25-6.46,2.53-9.5
				c-0.5,1.19-1.01,2.39-1.51,3.58c1.05-2.44,2.39-4.73,4.01-6.84c-0.78,1.01-1.56,2.02-2.35,3.04c1.6-2.04,3.43-3.87,5.47-5.48
				c-1.01,0.78-2.02,1.56-3.04,2.35c2.05-1.58,4.28-2.88,6.65-3.91c-1.19,0.5-2.39,1.01-3.58,1.51c2.81-1.18,5.74-1.96,8.75-2.38
				c-1.33,0.18-2.66,0.36-3.99,0.54c3.68-0.48,7.38-0.43,11.05,0.05c-1.33-0.18-2.66-0.36-3.99-0.54c4.24,0.59,8.37,1.74,12.32,3.38
				c-1.19-0.5-2.39-1.01-3.58-1.51c3.95,1.67,7.66,3.81,11.06,6.42c-1.01-0.78-2.02-1.56-3.04-2.35c4.93,3.83,9.24,8.34,13.07,13.26
				c-0.78-1.01-1.56-2.02-2.35-3.04c7.29,9.46,12.75,20.13,18.12,30.76c1.33,2.25,3.13,4.05,5.38,5.38c1.72,1.1,3.58,1.69,5.58,1.78
				c1.99,0.45,3.99,0.36,5.98-0.27c2.54-0.71,4.75-2,6.62-3.86c13.72-14.56,22.5-32.45,32.99-49.26c2.8-4.49,5.76-8.89,9-13.09
				c-0.78,1.01-1.56,2.02-2.35,3.04c4.11-5.27,8.85-10.02,14.12-14.13c-1.01,0.78-2.02,1.56-3.04,2.35
				c4.66-3.59,9.7-6.66,15.12-8.95c-1.19,0.5-2.39,1.01-3.58,1.51c3.97-1.65,8.1-2.86,12.36-3.46c-1.33,0.18-2.66,0.36-3.99,0.54
				c3.45-0.46,6.92-0.51,10.37-0.07c-1.33-0.18-2.66-0.36-3.99-0.54c3.14,0.43,6.19,1.26,9.12,2.48c-1.19-0.5-2.39-1.01-3.58-1.51
				c2.83,1.21,5.47,2.76,7.91,4.63c-1.01-0.78-2.02-1.56-3.04-2.35c2.63,2.06,4.96,4.44,7.01,7.07c-0.78-1.01-1.56-2.02-2.35-3.04
				c2.63,3.43,4.74,7.2,6.43,11.16c-0.5-1.19-1.01-2.39-1.51-3.58c2.36,5.63,3.87,11.57,4.7,17.6c-0.18-1.33-0.36-2.66-0.54-3.99
				c1.14,8.55,0.82,17.22-0.31,25.76c0.18-1.33,0.36-2.66,0.54-3.99c-1.56,11.47-4.79,22.62-9.28,33.28
				c0.5-1.19,1.01-2.39,1.51-3.58c-5.07,11.95-11.65,23.2-19.1,33.81c-2.16,3.07-4.4,6.09-6.69,9.07c0.78-1.01,1.56-2.02,2.35-3.04
				c-12.9,16.68-27.63,31.86-42.83,46.46c-4.24,4.07-8.52,8.11-12.83,12.12c-2.75,2.57-4.39,6.9-4.39,10.61
				c0,3.68,1.63,8.07,4.39,10.61c2.86,2.62,6.61,4.57,10.61,4.39c4.06-0.18,7.6-1.59,10.61-4.39
				c18.82-17.56,37.42-35.55,53.45-55.76c8.52-10.74,16.54-21.87,23.14-33.91c6.47-11.79,11.85-24.43,15.21-37.47
				c1.83-7.1,2.97-14.36,3.73-21.65c0.62-5.89,0.84-11.85,0.38-17.76c-0.53-6.82-1.55-13.71-3.58-20.26
				c-1.95-6.33-4.63-12.67-8.33-18.19c-4.38-6.53-9.52-11.86-16.05-16.27c-3.28-2.22-6.95-3.77-10.63-5.19
				c-3.96-1.53-8.05-2.11-12.25-2.62c-2.91-0.35-5.84-0.38-8.76-0.08c-4.11,0.42-8.21,1.01-12.18,2.17
				c-6.87,2.02-13.59,5.16-19.58,9.09c-6.11,4.01-11.91,8.73-16.93,14.06c-5.18,5.5-9.68,11.71-13.82,18.03
				c-7.35,11.22-13.44,23.2-20.85,34.38c-1.84,2.77-3.76,5.49-5.79,8.13c0.78-1.01,1.56-2.02,2.35-3.04
				c-2.04,2.63-4.19,5.18-6.48,7.6c7.85,1.01,15.71,2.02,23.56,3.04c-2.72-5.39-5.47-10.78-8.46-16.03
				c-3.56-6.25-7.58-12.09-12-17.76c-3.66-4.7-7.75-9.06-12.42-12.76c-3.04-2.41-6.09-4.78-9.47-6.69
				c-3.36-1.9-6.96-3.41-10.56-4.77c-6.09-2.3-12.78-3.44-19.27-3.62c-3.83-0.11-7.65,0.4-11.41,1.02
				c-2.53,0.42-5.01,1.12-7.38,2.09c-3.51,1.43-6.94,2.86-9.99,5.13c-2.96,2.2-5.86,4.42-8.25,7.25
				c-4.63,5.47-8.06,11.4-10.06,18.33c-3.39,11.75-2.25,24.61,0.83,36.29c1.66,6.3,4.1,12.33,6.71,18.29
				c2.1,4.79,4.52,9.44,7.2,13.92c13.41,22.43,29.05,43.62,46.29,63.26c16.42,18.7,34.52,35.92,54.04,51.36
				c3.34,2.65,6.72,5.25,10.12,7.83c1.72,1.1,3.58,1.69,5.58,1.78c1.99,0.45,3.99,0.36,5.98-0.27c3.48-0.96,7.25-3.65,8.96-6.89
				c1.84-3.48,2.76-7.7,1.51-11.56c-0.5-1.19-1.01-2.39-1.51-3.58C729.85,497.7,728.06,495.9,725.8,494.57L725.8,494.57z"/>
		</g>
	</g>
	<g>
		<g>
			<path d="M393.23,638.39c-1.67,8.21-2.46,16.66-1.8,25.02c0.66,8.28,2.14,16.53,4.75,24.42c5.38,16.24,14.11,30.73,25.03,43.82
				c9.86,11.81,21.89,21.9,34.84,30.17c12.68,8.1,26.73,14.41,41.17,18.64c7.31,2.14,14.74,3.6,22.28,4.61
				c7.42,1,14.85,1.6,22.34,1.41c8.08-0.2,16.21-1.18,24.13-2.78c6.71-1.36,13.3-3.34,19.64-5.95c6.9-2.84,13.55-5.95,19.77-10.09
				c6.07-4.04,11.87-8.64,17.1-13.72c5.23-5.07,9.83-10.73,14.11-16.62c3.62-4.98,6.81-10.28,9.52-15.81
				c3.18-6.48,5.94-13.26,7.96-20.2c2.03-6.99,3.21-14.21,3.91-21.45c0.57-5.91,0.55-11.88-0.11-17.77
				c-0.8-7.16-2.01-14.21-4.39-21.03c-1.37-3.94-3.01-7.8-4.82-11.56c-1.55-3.23-5.62-5.97-8.96-6.89
				c-3.59-0.99-8.37-0.54-11.56,1.51c-3.2,2.06-6.02,5.14-6.89,8.96c-0.18,1.33-0.36,2.66-0.54,3.99c0.01,2.71,0.69,5.23,2.05,7.57
				c0.53,1.1,1.04,2.22,1.52,3.34c-0.5-1.19-1.01-2.39-1.51-3.58c2.69,6.37,4.49,13.06,5.42,19.9c-0.18-1.33-0.36-2.66-0.54-3.99
				c1.02,7.68,0.94,15.46-0.08,23.14c0.18-1.33,0.36-2.66,0.54-3.99c-1.19,8.66-3.58,17.11-6.97,25.17c0.5-1.19,1.01-2.39,1.51-3.58
				c-3.59,8.46-8.26,16.42-13.87,23.69c0.78-1.01,1.56-2.02,2.35-3.04c-5.36,6.91-11.55,13.15-18.47,18.5
				c1.01-0.78,2.02-1.56,3.04-2.35c-6.39,4.9-13.34,8.97-20.76,12.11c1.19-0.5,2.39-1.01,3.58-1.51
				c-8.93,3.75-18.32,6.25-27.92,7.56c1.33-0.18,2.66-0.36,3.99-0.54c-10.98,1.45-22.11,1.34-33.08-0.13
				c1.33,0.18,2.66,0.36,3.99,0.54c-12.38-1.7-24.47-5.1-35.98-9.95c1.19,0.5,2.39,1.01,3.58,1.51
				c-11.55-4.9-22.45-11.25-32.39-18.9c1.01,0.78,2.02,1.56,3.04,2.35c-9.09-7.03-17.29-15.14-24.34-24.23
				c0.78,1.01,1.56,2.02,2.35,3.04c-6.13-7.95-11.34-16.59-15.28-25.84c0.5,1.19,1.01,2.39,1.51,3.58
				c-3.21-7.61-5.51-15.57-6.62-23.76c0.18,1.33,0.36,2.66,0.54,3.99c-0.88-6.72-0.93-13.5-0.05-20.22
				c-0.18,1.33-0.36,2.66-0.54,3.99c0.23-1.7,0.52-3.39,0.86-5.07c0.81-3.98,0.59-7.97-1.51-11.56c-1.82-3.11-5.39-6.08-8.96-6.89
				c-3.84-0.87-8.15-0.69-11.56,1.51C396.97,631.46,394.01,634.58,393.23,638.39L393.23,638.39z"/>
		</g>
	</g>
</g>
</svg>
