<?xml version="1.0" encoding="utf-8"?>
<!-- Generator: Adobe Illustrator 23.1.1, SVG Export Plug-In . SVG Version: 6.00 Build 0)  -->
<svg version="1.1" id="Layer_1" xmlns="http://www.w3.org/2000/svg" xmlns:xlink="http://www.w3.org/1999/xlink" x="0px" y="0px"
	 viewBox="0 0 1000 1000" style="enable-background:new 0 0 1000 1000;" xml:space="preserve">
<style type="text/css">
	.st0{display:none;}
	.st1{display:inline;}
</style>
<g class="st0">
	<g class="st1">
		<g>
			<path d="M643.7,33.57C588.41,8.43,527.22-0.51,466.93,6.42c-61.18,7.03-120.2,27.99-172.87,59.81
				c-53.82,32.51-100.08,75.75-136.46,126.98c-39.43,55.54-67.33,118.93-85.39,184.46c-18.35,66.56-26.85,135.84-28.38,204.77
				c-0.77,34.46,0.19,68.99,2.83,103.35c2.98,38.74,8.91,77.47,25.77,112.83c26.93,56.45,80.23,94.48,135.77,119.75
				c28.87,13.14,58.81,23.7,89.13,32.94c36.86,11.24,74.13,21.38,111.9,29.1c77.14,15.75,157.86,21.35,234.73,0.97
				c58.77-15.58,112.52-46.8,157.32-87.62c44.45-40.51,80.33-90.82,105.53-145.34c26.61-57.57,41.69-119.36,44.38-182.74
				c3-70.49-8.56-141.53-30.76-208.37c-22.48-67.68-55.45-131.82-96.06-190.37c-20.27-29.23-42.13-57.91-66.74-83.64
				c-24.96-26.1-53.79-48.32-87.67-61.39c-70.41-27.17-148.37-6.96-215.22,20.78C421.41,56.52,389,72.45,356.73,88.6
				c-28.85,14.43-57.46,29.38-85.25,45.79C216.88,166.62,164.1,205.02,124.38,255c-21.68,27.27-38.97,56.93-51.68,89.39
				c-13.5,34.49-21,70.81-25.64,107.46c-4.59,36.25-5.9,72.83-6.18,109.34c-0.31,40.7,0.4,81.41,2.06,122.07
				c1.62,39.72,4.16,79.4,7.61,119.01c0.68,7.8,6.41,15.38,15,15c7.54-0.34,15.73-6.63,15-15c-6.92-79.61-10.22-159.54-9.68-239.45
				c0.24-35.69,1.44-71.45,5.69-106.92c0.23-1.89,0.46-3.78,0.71-5.66c0.41-3.15,0.21-1.55,0.11-0.86c0.15-1.08,0.3-2.15,0.45-3.22
				c0.7-4.83,1.45-9.65,2.28-14.45c1.46-8.51,3.14-16.99,5.07-25.41c3.96-17.28,8.97-34.34,15.28-50.91
				c3.05-8.02,5.27-13.25,9.3-21.63c3.59-7.45,7.47-14.76,11.64-21.91c3.9-6.67,8.04-13.2,12.41-19.58
				c2.11-3.07,4.27-6.11,6.48-9.11c0.97-1.31,1.94-2.61,2.93-3.91c0.22-0.29,2-2.58,0.95-1.25c-1.05,1.34,1.21-1.52,1.41-1.77
				c19.04-23.93,41.18-45.26,65-64.39c1.47-1.18,2.95-2.35,4.43-3.52c0.74-0.58,1.49-1.16,2.23-1.74c1.91-1.48-1.6,1.22,0.33-0.25
				c3.2-2.44,6.42-4.85,9.66-7.23c6.33-4.63,12.76-9.13,19.26-13.52c12.9-8.71,26.11-16.98,39.51-24.9
				c27.16-16.06,55.11-30.72,83.3-44.86c14.29-7.17,28.63-14.25,43.02-21.21c8.22-3.97,16.48-7.88,24.78-11.69
				c4.06-1.86,8.13-3.7,12.22-5.5c1.79-0.79,3.59-1.58,5.38-2.36c1.03-0.45,2.06-0.89,3.09-1.33c-0.11,0.05,4.09-1.74,2.61-1.11
				c32.97-13.86,67.29-25.58,102.74-31c1.06-0.16,2.12-0.32,3.18-0.47c-2.14,0.3,0.51-0.06,0.78-0.1c2.12-0.25,4.23-0.5,6.35-0.71
				c4.48-0.45,8.97-0.78,13.47-0.98c8.65-0.39,17.33-0.31,25.97,0.33c2.09,0.15,4.17,0.34,6.25,0.56c1.04,0.11,2.08,0.23,3.12,0.35
				c0.33,0.04,2.93,0.42,0.68,0.09c4.41,0.65,8.79,1.44,13.14,2.4c8.55,1.88,16.96,4.38,25.14,7.49c6.13,2.33,13.28,5.74,20.38,9.75
				c7.32,4.13,14.37,8.75,21.13,13.75c0.82,0.61,1.64,1.22,2.45,1.84c2.03,1.55-1.4-1.12,0.6,0.47c1.4,1.11,2.8,2.23,4.18,3.38
				c3.56,2.94,7.04,5.98,10.45,9.09c6.09,5.57,11.94,11.39,17.6,17.38c23.93,25.33,42.78,50.18,62.24,78.49
				c19.58,28.47,37.33,58.2,52.94,89.02c3.81,7.52,7.49,15.1,11.03,22.75c1.77,3.82,3.51,7.65,5.21,11.5
				c0.85,1.92,1.69,3.85,2.53,5.78c0.42,0.97,0.83,1.93,1.24,2.9c1.99,4.67-0.49-1.18,0.63,1.5c6.65,15.98,12.73,32.19,18.15,48.63
				c10.69,32.43,18.83,65.72,23.95,99.48c0.31,2.06,0.61,4.11,0.9,6.17c0,0.01,0.35,2.55,0.15,1.1c-0.22-1.64,0.2,1.55,0.24,1.87
				c0.56,4.38,1.07,8.77,1.52,13.16c0.88,8.53,1.57,17.07,2.05,25.63c0.95,16.88,1.1,33.82,0.4,50.71
				c-0.35,8.61-0.92,17.22-1.72,25.81c-0.35,3.74-0.73,7.48-1.17,11.22c-0.18,1.55-0.38,3.1-0.57,4.64
				c-0.37,2.95-0.07,0.58,0.01-0.01c-0.18,1.33-0.37,2.65-0.56,3.97c-2.11,14.37-4.93,28.63-8.41,42.73
				c-3.5,14.14-7.67,28.1-12.48,41.85c-2.45,6.98-5.06,13.91-7.83,20.77c-0.67,1.66-1.36,3.32-2.05,4.98
				c-0.9,2.18,0.89-2.02-0.06,0.13c-0.36,0.82-0.71,1.65-1.07,2.47c-1.52,3.5-3.08,6.97-4.69,10.43
				c-12.33,26.57-27.14,51.99-44.29,75.75c-1.95,2.71-3.94,5.39-5.95,8.06c-0.54,0.71-1.08,1.42-1.62,2.12
				c1.62-2.13,0.21-0.27-0.1,0.13c-1.37,1.75-2.75,3.49-4.14,5.23c-4.45,5.53-9.04,10.95-13.75,16.26
				c-9.69,10.89-19.93,21.3-30.71,31.12c-5.2,4.74-10.53,9.35-15.98,13.81c-1.36,1.11-2.73,2.22-4.1,3.31
				c-0.52,0.41-4.55,3.57-2.15,1.72c-2.95,2.28-5.94,4.51-8.97,6.7c-11.53,8.35-23.53,16.07-35.95,23.04
				c-6.31,3.54-12.72,6.89-19.22,10.05c-3.16,1.53-6.34,3.01-9.55,4.45c-1.6,0.72-3.22,1.4-4.83,2.12
				c-2.13,0.94,2.09-0.85-0.06,0.03c-1.02,0.41-2.03,0.84-3.05,1.25c-13.32,5.4-26.98,9.95-40.88,13.61
				c-9.17,2.41-18.43,4.46-27.75,6.15c-4.53,0.82-9.08,1.54-13.64,2.22c-0.07,0.01-2.88,0.41-1.14,0.17
				c-1.14,0.15-2.28,0.29-3.42,0.43c-2.57,0.31-5.14,0.6-7.71,0.86c-18.6,1.91-37.32,2.53-56,2.1c-38.5-0.9-73.58-5.83-111.05-13.6
				c-36.88-7.65-73.29-17.58-109.31-28.56c-14.27-4.35-28.46-8.97-42.49-14.04c-7.18-2.59-14.32-5.3-21.4-8.14
				c-1.72-0.69-3.43-1.39-5.14-2.09c-0.85-0.35-1.71-0.71-2.56-1.07c0.57,0.24,2.46,1.06-0.24-0.11c-3.39-1.46-6.77-2.94-10.12-4.47
				c-13.71-6.24-27.14-13.12-40.06-20.87c-6.36-3.81-12.59-7.83-18.65-12.09c-2.74-1.92-5.43-3.89-8.1-5.9
				c-2.31-1.73-0.6-0.46-0.13-0.09c-0.7-0.55-1.39-1.09-2.09-1.65c-1.73-1.38-3.44-2.78-5.13-4.2
				c-10.92-9.18-21.05-19.33-29.99-30.46c-0.25-0.32-1.97-2.48-0.86-1.07c1.11,1.41-0.58-0.77-0.83-1.1
				c-0.92-1.23-1.83-2.47-2.73-3.73c-2.31-3.24-4.51-6.54-6.61-9.92c-3.89-6.26-7.42-12.75-10.53-19.43
				c-14.4-30.92-18.99-67.67-21.39-102.03c-2.34-33.46-3.18-67.04-2.33-100.58c0.43-16.87,1.29-33.74,2.61-50.56
				c0.64-8.15,1.4-16.29,2.27-24.42c0.43-4.06,0.9-8.12,1.39-12.17c0.25-2.03,0.5-4.05,0.76-6.08c0.13-1.01,0.26-2.02,0.4-3.03
				c-0.28,2.13,0.07-0.48,0.18-1.32c4.57-32.92,11.14-65.58,20.03-97.6c4.38-15.77,9.33-31.38,14.89-46.77
				c2.81-7.79,5.78-15.52,8.91-23.19c0.76-1.86,1.52-3.71,2.3-5.56c-0.95,2.25,1.27-2.93,1.44-3.33c1.6-3.68,3.24-7.34,4.91-10.98
				c13.74-29.86,30.07-58.54,49.07-85.38c2.34-3.3,4.71-6.57,7.12-9.81c1.21-1.62,2.44-3.23,3.66-4.85
				c1.55-2.07-1.29,1.65,0.16-0.21c0.69-0.88,1.38-1.76,2.07-2.63c4.58-5.78,9.33-11.44,14.21-16.96
				c9.67-10.93,19.9-21.36,30.64-31.24c5.47-5.03,11.06-9.93,16.78-14.68c2.6-2.16,5.22-4.29,7.87-6.4c0.47-0.37,4.62-3.6,2.3-1.82
				c1.79-1.38,3.59-2.74,5.4-4.08c11.75-8.76,23.94-16.94,36.5-24.5c12.53-7.54,25.43-14.47,38.65-20.73
				c3.24-1.54,6.51-3.03,9.79-4.49c1.64-0.73,3.28-1.44,4.93-2.15c0.49-0.21,2.66-1.1,0.13-0.06c1.03-0.43,2.07-0.86,3.1-1.28
				c6.82-2.79,13.72-5.4,20.68-7.82c13.63-4.75,27.51-8.79,41.57-12.05c7.09-1.64,14.23-3.09,21.41-4.33
				c3.47-0.6,6.94-1.15,10.43-1.65c0.87-0.13,1.74-0.25,2.61-0.37c-0.58,0.08-3.01,0.38-0.07,0.02c1.74-0.21,3.48-0.43,5.23-0.62
				c14.33-1.59,28.75-2.33,43.17-2.14c7.18,0.09,14.36,0.42,21.52,0.98c3.25,0.25,6.5,0.56,9.74,0.91c1.73,0.19,3.46,0.4,5.18,0.61
				c2.93,0.35,0.46,0.05-0.11-0.02c1.29,0.18,2.58,0.36,3.87,0.56c13.37,2.01,26.61,4.89,39.59,8.65
				c6.75,1.96,13.43,4.15,20.03,6.57c3.11,1.14,6.2,2.34,9.27,3.59c0.38,0.16,2.97,1.21,1.28,0.52c-1.69-0.7,0.89,0.38,1.27,0.55
				c1.84,0.8,3.67,1.61,5.49,2.44c7.13,3.24,16.48,2.28,20.52-5.38C652.55,47.52,651.32,37.04,643.7,33.57L643.7,33.57z"/>
		</g>
	</g>
	<g class="st1">
		<g>
			<path d="M323.13,668.16c-0.45,9.87,2.93,20.05,8.59,28.08c5.98,8.48,13.26,15.06,21.46,21.32c6.86,5.24,14.15,9.98,21.43,14.62
				c7.73,4.93,15.61,9.62,23.66,14.01c33.67,18.36,70.61,31.66,109.22,33.19c31.98,1.27,63.81-7.19,91.7-22.69
				c27.62-15.35,51.22-37.64,68.8-63.84c17.57-26.18,28.34-56.83,30.39-88.32c0.23-3.56,0.33-7.13,0.31-10.71
				c-0.02-3.86-1.66-7.87-4.39-10.61c-2.6-2.6-6.87-4.56-10.61-4.39c-8.09,0.36-15.05,6.59-15,15c0.04,6.97-0.4,13.92-1.31,20.83
				c0.18-1.33,0.36-2.66,0.54-3.99c-1.9,14.05-5.74,27.77-11.22,40.85c0.5-1.19,1.01-2.39,1.51-3.58
				c-5.98,14.16-13.84,27.46-23.21,39.64c0.78-1.01,1.56-2.02,2.35-3.04c-9.74,12.59-21.05,23.9-33.64,33.64
				c1.01-0.78,2.02-1.56,3.04-2.35c-12.17,9.37-25.47,17.23-39.63,23.21c1.19-0.5,2.39-1.01,3.58-1.51
				c-13.07,5.48-26.79,9.32-40.85,11.21c1.33-0.18,2.66-0.36,3.99-0.54c-14.26,1.88-28.67,1.61-42.92-0.27
				c1.33,0.18,2.66,0.36,3.99,0.54c-19.71-2.66-38.85-8.43-57.15-16.15c1.19,0.5,2.39,1.01,3.58,1.51
				c-20.66-8.77-40.21-19.93-58.89-32.32c-4.92-3.27-9.84-6.57-14.52-10.18c1.01,0.78,2.02,1.56,3.04,2.35
				c-5.3-4.12-10.31-8.64-14.44-13.96c0.78,1.01,1.56,2.02,2.35,3.04c-2.14-2.82-3.99-5.81-5.39-9.06c0.5,1.19,1.01,2.39,1.51,3.58
				c-1.01-2.44-1.74-4.95-2.13-7.56c0.18,1.33,0.36,2.66,0.54,3.99c-0.25-1.84-0.33-3.68-0.24-5.54c0.36-7.85-7.16-15.35-15-15
				C329.69,653.54,323.52,659.75,323.13,668.16L323.13,668.16z"/>
		</g>
	</g>
	<g class="st1">
		<g>
			<path d="M337.21,372.25c-1.77,3.81-3.28,7.56-3.88,11.72c-0.36,2.49-0.76,5-0.79,7.52c-0.03,2.78,0.4,5.5,0.78,8.24
				c0.4,2.84,1.14,5.56,2.23,8.21c0.95,2.29,1.86,4.61,3.1,6.76c1.34,2.33,3.06,4.47,4.74,6.55c0.89,1.11,1.86,2.15,2.91,3.11
				c1.02,0.93,2.28,1.98,3.3,2.58c3.53,2.07,7.62,2.5,11.56,1.51c0.8-0.2,1.6-0.45,2.37-0.74c2.41-0.89,4.86-1.88,7.12-3.15
				c2.24-1.26,4.28-2.91,6.28-4.51c3.15-2.51,5.65-5.65,7.96-8.94c2.29-3.26,3.93-7.09,5.14-10.87c0.43-1.35,0.73-2.74,0.94-4.14
				c0.28-1.85,0.59-3.84,0.71-5.75c0.2-3.33-0.93-6.22-2.42-9.11c-1.65-3.18-3.94-6.11-6.34-8.74c-5-5.47-11.31-8.96-18.08-11.67
				c-2.27-0.91-4.64-1.57-7.05-1.98c-3.6-0.6-7.29-1.13-10.95-0.95c-7.23,0.35-14.43,2.13-20.66,5.92
				c-5.98,3.65-11.36,9.03-14.46,15.37c-3.12,6.4-4.89,13.16-4.88,20.33c0,3.54,0.5,7.14,1.23,10.58c0.73,3.43,2.11,6.66,3.56,9.84
				c1.45,3.19,3.52,5.86,5.7,8.59c2.16,2.72,4.86,4.78,7.65,6.83c2.87,2.1,6.35,3.57,9.7,4.66c3.57,1.15,7.52,1.66,11.26,1.54
				c7.43-0.23,14.98-2.46,21.24-6.51c6.17-3.99,11.76-9.41,15.23-15.95c1.69-3.18,3.21-6.69,3.86-10.27
				c0.44-2.41,0.83-4.9,0.86-7.37c0.03-2.48-0.4-5.01-0.79-7.43c-1.05-6.47-4.92-12.91-9.57-17.44c-4.75-4.63-10.63-7.89-16.95-9.85
				c-3.21-0.99-6.64-1.42-9.97-1.71c-3.38-0.3-6.66,0.18-10.01,0.67c-6.53,0.96-12.28,4.2-17.3,8.36c-2.5,2.07-4.55,4.81-6.24,7.55
				c-2.02,3.26-2.52,7.9-1.51,11.56c0.96,3.48,3.65,7.25,6.89,8.96c3.48,1.84,7.7,2.76,11.56,1.51c3.78-1.22,6.85-3.48,8.96-6.89
				c0.37-0.6,0.78-1.18,1.21-1.75c-0.78,1.01-1.56,2.02-2.35,3.04c0.91-1.15,1.94-2.17,3.09-3.08c-1.01,0.78-2.02,1.56-3.04,2.35
				c1.34-1.04,2.8-1.88,4.35-2.56c-1.19,0.5-2.39,1.01-3.58,1.51c1.9-0.8,3.89-1.33,5.93-1.62c-1.33,0.18-2.66,0.36-3.99,0.54
				c2.44-0.32,4.9-0.31,7.34,0.01c-1.33-0.18-2.66-0.36-3.99-0.54c2.55,0.35,5.03,1.03,7.4,2.03c-1.19-0.5-2.39-1.01-3.58-1.51
				c2.01,0.87,3.9,1.96,5.64,3.29c-1.01-0.78-2.02-1.56-3.04-2.35c1.42,1.12,2.71,2.38,3.84,3.79c-0.78-1.01-1.56-2.02-2.35-3.04
				c1.06,1.37,1.93,2.84,2.61,4.43c-0.5-1.19-1.01-2.39-1.51-3.58c0.65,1.58,1.08,3.22,1.31,4.91c-0.18-1.33-0.36-2.66-0.54-3.99
				c0.21,1.76,0.21,3.52-0.02,5.28c0.18-1.33,0.36-2.66,0.54-3.99c-0.28,1.94-0.81,3.82-1.56,5.63c0.5-1.19,1.01-2.39,1.51-3.58
				c-0.87,2.02-1.98,3.9-3.31,5.66c0.78-1.01,1.56-2.02,2.35-3.04c-1.56,2.02-3.37,3.82-5.39,5.4c1.01-0.78,2.02-1.56,3.04-2.35
				c-2.04,1.56-4.24,2.86-6.6,3.87c1.19-0.5,2.39-1.01,3.58-1.51c-2.15,0.89-4.37,1.53-6.67,1.86c1.33-0.18,2.66-0.36,3.99-0.54
				c-2.08,0.27-4.15,0.29-6.23,0.01c1.33,0.18,2.66,0.36,3.99,0.54c-1.79-0.26-3.52-0.74-5.19-1.42c1.19,0.5,2.39,1.01,3.58,1.51
				c-1.76-0.75-3.39-1.71-4.92-2.87c1.01,0.78,2.02,1.56,3.04,2.35c-1.63-1.27-3.07-2.74-4.34-4.37c0.78,1.01,1.56,2.02,2.35,3.04
				c-1.43-1.89-2.6-3.94-3.52-6.11c0.5,1.19,1.01,2.39,1.51,3.58c-1.03-2.49-1.72-5.08-2.1-7.75c0.18,1.33,0.36,2.66,0.54,3.99
				c-0.38-2.87-0.39-5.76,0-8.63c-0.18,1.33-0.36,2.66-0.54,3.99c0.35-2.46,0.99-4.86,1.95-7.15c-0.5,1.19-1.01,2.39-1.51,3.58
				c0.86-2.01,1.95-3.9,3.29-5.63c-0.78,1.01-1.56,2.02-2.35,3.04c1.21-1.54,2.6-2.9,4.14-4.11c-1.01,0.78-2.02,1.56-3.04,2.35
				c1.76-1.34,3.67-2.44,5.71-3.3c-1.19,0.5-2.39,1.01-3.58,1.51c2.22-0.91,4.54-1.52,6.92-1.86c-1.33,0.18-2.66,0.36-3.99,0.54
				c2.81-0.37,5.64-0.36,8.46-0.01c-1.33-0.18-2.66-0.36-3.99-0.54c3.04,0.41,6,1.21,8.83,2.39c-1.19-0.5-2.39-1.01-3.58-1.51
				c2.53,1.08,4.91,2.45,7.1,4.11c-1.01-0.78-2.02-1.56-3.04-2.35c2,1.55,3.8,3.32,5.34,5.33c-0.78-1.01-1.56-2.02-2.35-3.04
				c1.1,1.46,2.06,3.02,2.85,4.67c-0.68-2.52-1.37-5.05-2.05-7.57c-0.03,0.83-0.1,1.65-0.21,2.48c0.18-1.33,0.36-2.66,0.54-3.99
				c-0.32,2.23-0.93,4.39-1.8,6.47c0.5-1.19,1.01-2.39,1.51-3.58c-0.95,2.18-2.16,4.22-3.61,6.1c0.78-1.01,1.56-2.02,2.35-3.04
				c-1.4,1.77-2.99,3.36-4.76,4.76c1.01-0.78,2.02-1.56,3.04-2.35c-1.79,1.37-3.71,2.52-5.79,3.41c1.19-0.5,2.39-1.01,3.58-1.51
				c-1.1,0.45-2.21,0.83-3.36,1.13c4.86,1.29,9.73,2.57,14.59,3.86c-1.24-1.11-2.36-2.32-3.39-3.62c0.78,1.01,1.56,2.02,2.35,3.04
				c-1.52-1.98-2.77-4.12-3.76-6.4c0.5,1.19,1.01,2.39,1.51,3.58c-1.11-2.63-1.85-5.38-2.23-8.21c0.18,1.33,0.36,2.66,0.54,3.99
				c-0.32-2.6-0.32-5.2,0-7.79c-0.18,1.33-0.36,2.66-0.54,3.99c0.34-2.47,0.98-4.86,1.94-7.17c-0.5,1.19-1.01,2.39-1.51,3.58
				c0.14-0.33,0.29-0.65,0.44-0.97c1.1-1.72,1.69-3.58,1.78-5.58c0.45-1.99,0.36-3.99-0.27-5.98c-0.96-3.48-3.65-7.25-6.89-8.96
				c-3.48-1.84-7.7-2.76-11.56-1.51C342.66,366.49,338.83,368.76,337.21,372.25L337.21,372.25z"/>
		</g>
	</g>
	<g class="st1">
		<g>
			<path d="M680.91,305.39c-0.15-0.06-0.3-0.12-0.45-0.19c1.19,0.5,2.39,1.01,3.58,1.51c-1-0.44-1.93-0.98-2.81-1.64
				c1.01,0.78,2.02,1.56,3.04,2.35c-0.87-0.68-1.64-1.46-2.32-2.33c0.78,1.01,1.56,2.02,2.35,3.04c-0.7-0.93-1.27-1.94-1.74-3.01
				c0.5,1.19,1.01,2.39,1.51,3.58c-0.57-1.38-0.94-2.82-1.16-4.29c0.18,1.33,0.36,2.66,0.54,3.99c-0.25-1.93-0.23-3.86,0.02-5.79
				c-0.18,1.33-0.36,2.66-0.54,3.99c0.3-2.12,0.86-4.19,1.67-6.17c-0.5,1.19-1.01,2.39-1.51,3.58c0.76-1.8,1.72-3.49,2.91-5.04
				c-0.78,1.01-1.56,2.02-2.35,3.04c0.93-1.18,1.97-2.25,3.16-3.17c-1.01,0.78-2.02,1.56-3.04,2.35c0.99-0.75,2.05-1.38,3.19-1.86
				c-1.19,0.5-2.39,1.01-3.58,1.51c1.02-0.41,2.07-0.7,3.17-0.85c-1.33,0.18-2.66,0.36-3.99,0.54c1.15-0.14,2.3-0.13,3.45,0.01
				c-1.33-0.18-2.66-0.36-3.99-0.54c1.16,0.17,2.28,0.46,3.37,0.9c-1.19-0.5-2.39-1.01-3.58-1.51c1,0.42,1.94,0.96,2.81,1.61
				c-1.01-0.78-2.02-1.56-3.04-2.35c0.95,0.74,1.79,1.59,2.53,2.54c-0.78-1.01-1.56-2.02-2.35-3.04c0.82,1.09,1.48,2.28,2.02,3.54
				c-0.5-1.19-1.01-2.39-1.51-3.58c0.68,1.66,1.12,3.4,1.35,5.17c-0.18-1.33-0.36-2.66-0.54-3.99c0.26,2.06,0.25,4.14-0.01,6.2
				c0.18-1.33,0.36-2.66,0.54-3.99c-0.28,2.05-0.79,4.05-1.58,5.96c0.5-1.19,1.01-2.39,1.51-3.58c-0.63,1.5-1.42,2.91-2.4,4.2
				c0.78-1.01,1.56-2.02,2.35-3.04c-0.79,1.02-1.68,1.93-2.69,2.73c1.01-0.78,2.02-1.56,3.04-2.35c-0.9,0.69-1.87,1.26-2.92,1.71
				c1.19-0.5,2.39-1.01,3.58-1.51c-1.02,0.42-2.08,0.7-3.17,0.87c1.33-0.18,2.66-0.36,3.99-0.54c-0.62,0.08-1.24,0.12-1.86,0.13
				c0,10,0,20,0,30c4.05-0.12,6.97-0.98,10.57-2.64c0.47-0.22,0.91-0.46,1.34-0.75c1.37-0.94,2.87-1.97,4.01-3.22
				c2.69-2.95,3.91-5.23,5.28-8.94c0.81-2.19,1.03-4.65,1.22-6.93c0.15-1.82-0.09-3.54-0.34-5.35c-0.25-1.85-0.47-3.65-1.06-5.42
				c-1.6-4.74-3.81-8.76-7.22-12.44c-1.6-1.73-3.55-3.24-5.59-4.42c-1.5-0.87-3.2-1.51-4.81-2.11c-0.56-0.21-1.11-0.36-1.7-0.47
				c-4.11-0.8-6.94-0.75-11.07,0.05c-2.56,0.5-5.11,1.65-7.35,2.95c-9.45,5.49-14.28,16.13-14.51,26.77
				c-0.13,6.08,1.46,11.6,3.92,17.06c2.44,5.42,6.73,9.67,11.55,13c4.08,2.82,11.06,2.82,15.14,0c4.89-3.38,9.07-7.44,12.01-12.66
				c3.01-5.35,4.46-10.93,4.94-17.01c0.23-2.97-0.26-5.92-0.71-8.85c-0.66-4.32-3.61-8.09-7.3-10.31c-0.88-0.53-1.82-0.99-2.76-1.42
				c-2.92-1.33-5.92-2.63-9.04-3.44c-3.09-0.8-6.32-1.2-9.49-1.5c-2.27-0.21-4.56-0.2-6.82,0.05c-3.53,0.38-7.06,0.84-10.46,1.9
				c-3.68,1.15-6.99,3.52-8.96,6.89c-1.88,3.22-2.68,7.95-1.51,11.56c1.17,3.63,3.42,7.13,6.89,8.96c3.5,1.85,7.67,2.73,11.56,1.51
				c1.85-0.58,3.73-1,5.65-1.26c-1.33,0.18-2.66,0.36-3.99,0.54c3.02-0.38,6.06-0.37,9.08,0.02c-1.33-0.18-2.66-0.36-3.99-0.54
				c3.02,0.43,5.94,1.22,8.76,2.4c-1.19-0.5-2.39-1.01-3.58-1.51c1.27,0.55,2.5,1.17,3.7,1.86c-2.3-2.99-4.6-5.98-6.89-8.96
				c0.12,0.59,0.23,1.18,0.31,1.78c-0.18-1.33-0.36-2.66-0.54-3.99c0.21,1.8,0.2,3.6-0.01,5.4c0.18-1.33,0.36-2.66,0.54-3.99
				c-0.28,2.04-0.81,4.02-1.59,5.92c0.5-1.19,1.01-2.39,1.51-3.58c-0.81,1.89-1.84,3.66-3.1,5.29c0.78-1.01,1.56-2.02,2.35-3.04
				c-1.13,1.42-2.41,2.68-3.84,3.8c1.01-0.78,2.02-1.56,3.04-2.35c-0.29,0.22-0.58,0.43-0.88,0.63c5.05,0,10.09,0,15.14,0
				c-0.3-0.2-0.59-0.42-0.87-0.64c1.01,0.78,2.02,1.56,3.04,2.35c-1.12-0.89-2.11-1.91-2.99-3.05c0.78,1.01,1.56,2.02,2.35,3.04
				c-0.97-1.3-1.77-2.7-2.41-4.18c0.5,1.19,1.01,2.39,1.51,3.58c-0.77-1.84-1.29-3.76-1.56-5.74c0.18,1.33,0.36,2.66,0.54,3.99
				c-0.25-1.96-0.26-3.92-0.02-5.88c-0.18,1.33-0.36,2.66-0.54,3.99c0.23-1.63,0.63-3.21,1.25-4.74c-0.5,1.19-1.01,2.39-1.51,3.58
				c0.52-1.23,1.17-2.38,1.98-3.45c-0.78,1.01-1.56,2.02-2.35,3.04c0.71-0.91,1.51-1.71,2.43-2.42c-1.01,0.78-2.02,1.56-3.04,2.35
				c0.81-0.6,1.68-1.1,2.61-1.51c-1.19,0.5-2.39,1.01-3.58,1.51c0.98-0.41,1.99-0.71,3.04-0.85c-1.33,0.18-2.66,0.36-3.99,0.54
				c0.75-0.08,1.5-0.08,2.25,0.02c-1.33-0.18-2.66-0.36-3.99-0.54c0.72,0.11,1.4,0.3,2.07,0.58c-1.19-0.5-2.39-1.01-3.58-1.51
				c0.79,0.34,1.51,0.78,2.19,1.3c-1.01-0.78-2.02-1.56-3.04-2.35c0.8,0.64,1.51,1.36,2.14,2.16c-0.78-1.01-1.56-2.02-2.35-3.04
				c0.87,1.13,1.57,2.35,2.13,3.65c-0.5-1.19-1.01-2.39-1.51-3.58c0.64,1.52,1.07,3.1,1.29,4.73c-0.18-1.33-0.36-2.66-0.54-3.99
				c0.16,1.28,0.18,2.56,0.01,3.84c0.18-1.33,0.36-2.66,0.54-3.99c-0.13,0.93-0.37,1.84-0.73,2.71c0.5-1.19,1.01-2.39,1.51-3.58
				c-0.27,0.6-0.59,1.15-0.98,1.68c0.78-1.01,1.56-2.02,2.35-3.04c-0.33,0.41-0.69,0.78-1.1,1.11c1.01-0.78,2.02-1.56,3.04-2.35
				c-0.48,0.37-0.99,0.67-1.55,0.91c1.19-0.5,2.39-1.01,3.58-1.51c-0.62,0.25-1.25,0.41-1.91,0.5c1.33-0.18,2.66-0.36,3.99-0.54
				c-0.36,0.04-0.73,0.07-1.09,0.08c-3.92,0.12-7.8,1.59-10.61,4.39c-2.6,2.6-4.56,6.87-4.39,10.61c0.17,3.88,1.45,7.9,4.39,10.61
				c2.92,2.68,6.56,4.43,10.61,4.39c2.95-0.03,6.05-0.39,8.82-1.45c4.21-1.6,6.79-3.12,10.23-6.05c4.32-3.69,7.05-9.05,8.9-14.31
				c1-2.83,1.32-5.83,1.67-8.78c0.2-1.69,0.27-3.37,0.13-5.07c-0.46-5.78-1.7-11.62-4.92-16.55c-3.85-5.9-9.07-10-15.76-12.23
				c-2.79-0.93-5.91-1.36-8.85-1.23c-4.65,0.2-7.9,1.19-12.06,3.08c-5.17,2.36-9.22,6.82-12.34,11.44
				c-1.66,2.46-2.77,5.32-3.83,8.05c-0.65,1.66-1.1,3.39-1.39,5.15c-0.5,3.13-1.03,6.38-0.7,9.57c0.22,2.15,0.44,4.33,0.95,6.44
				c0.5,2.1,1.47,4.16,2.34,6.1c0.36,0.8,0.75,1.57,1.23,2.3c1.17,1.76,2.49,3.55,4,5.05c3.36,3.32,6.75,4.98,11.05,6.71
				c1.99,0.63,3.99,0.71,5.98,0.27c2-0.09,3.86-0.68,5.58-1.78c3.11-1.82,6.08-5.39,6.89-8.96c0.87-3.84,0.69-8.15-1.51-11.56
				c-0.78-1.01-1.56-2.02-2.35-3.04C685.66,307.39,683.45,306.1,680.91,305.39L680.91,305.39z"/>
		</g>
	</g>
</g>
<g>
	<g>
		<g>
			<path d="M247.32,513.93c-12.36,58.94,20.05,119.62,70.62,149.91c56.86,34.05,130.19,27.26,187.47-1.88
				c27.56-14.02,53.47-35.18,63.91-65.21c10.71-30.82-0.64-63.57-20.35-87.94c-20.55-25.41-51.77-39.46-82.82-47.23
				c-15.58-3.9-31.48-6.38-47.36-8.66c-19.18-2.75-38.39-5.29-57.63-7.61c-18.11-2.18-36.24-4.16-54.39-5.93
				c-9.18-0.89-18.36-1.74-27.55-2.53c-4.45-0.38-8.9-0.74-13.35-1.11c-1.83-0.15-3.65-0.35-5.48-0.5
				c-3.78-0.32,3.36,0.61-0.38-0.04c-1.08-0.19-2.16-0.37-3.23-0.59c-1.44-0.3-5.26-0.68-6.26-1.79c1.04,1.15,2.09,1.04,0.59,0.23
				c-0.78-0.42-1.57-0.81-2.33-1.26c-0.66-0.39-1.28-0.83-1.93-1.24c-2.33-1.47,2.28,2.09,0.96,0.77c-1.12-1.11-2.34-2.08-3.39-3.27
				c-2.5-2.82,1.86,2.83-0.26-0.35c-0.73-1.09-1.38-2.22-1.98-3.38c-0.27-0.53-0.48-1.1-0.78-1.62c2.15,3.75,0.89,2.19,0.43,0.9
				c-0.5-1.39-0.93-2.8-1.28-4.23c-0.34-1.35-0.58-2.71-0.84-4.07c-0.24-1.26,0.02-2.99,0.16,1.32c-0.02-0.77-0.17-1.56-0.23-2.33
				c-0.25-3.21-0.27-6.43-0.11-9.64c0.07-1.37,0.16-2.75,0.29-4.12c0.12-1.26,0.95-6.07,0.04-0.99c0.6-3.33,1.07-6.65,1.8-9.96
				c1.3-5.9,2.97-11.71,4.89-17.44c-1.29,2.21-2.57,4.41-3.86,6.62c6.15-6.35,12.58-12.41,19.34-18.09c1.55-1.3,3.11-2.58,4.69-3.84
				c0.38-0.3,3.36-2.63,1.39-1.11c-1.73,1.33-0.42,0.32-0.06,0.05c0.61-0.46,1.22-0.92,1.83-1.38c3.26-2.43,6.59-4.78,9.98-7.03
				c6.83-4.54,13.91-8.71,21.21-12.46c3.44-1.76,6.92-3.44,10.45-5.01c0.91-0.41,1.82-0.8,2.73-1.2c2.46-1.07-2.94,1.19-0.45,0.2
				c1.96-0.79,3.92-1.58,5.9-2.32c14.29-5.38,29.15-9.2,44.25-11.48c0.95-0.14,1.92-0.25,2.86-0.41c0.23-0.04-3.61,0.45-1.94,0.26
				c0.41-0.05,0.82-0.11,1.23-0.16c1.92-0.24,3.83-0.45,5.75-0.64c3.84-0.38,7.7-0.66,11.55-0.85c7.61-0.38,15.23-0.4,22.84-0.1
				c7.67,0.31,15.33,0.95,22.96,1.89c0.71,0.09,4.04,0.52,1.35,0.16c-2.68-0.36,0.31,0.05,0.93,0.14c2.09,0.3,4.18,0.63,6.27,0.98
				c3.77,0.63,7.53,1.32,11.27,2.09c15.62,3.18,30.99,7.51,46.04,12.74c7.57,2.63,15.06,5.49,22.46,8.56
				c0.54,0.22,3.36,1.41,1.04,0.43c-2.44-1.03,0.89,0.39,1.44,0.62c1.89,0.81,3.76,1.64,5.64,2.48c3.76,1.68,7.49,3.42,11.2,5.2
				c14.61,7.02,28.86,14.8,42.73,23.19c13.78,8.34,27.18,17.3,40.18,26.8c3.27,2.39,6.51,4.81,9.73,7.27
				c0.69,0.52,1.37,1.05,2.06,1.58c-3.57-2.72-0.79-0.61,0.03,0.03c1.58,1.23,3.15,2.48,4.72,3.73c6.08,4.86,12.07,9.84,17.95,14.94
				c2.94,2.55,5.86,5.14,8.75,7.75c5.58,5.04,13.62,5.87,19.7,1.17c6.14-4.74,7.23-12.56,3.86-19.35
				c-16.81-33.88-33.64-67.78-52.15-100.77c-18.81-33.53-39.47-65.9-63.05-96.29c-11.39-14.68-23.72-28.5-36.12-42.33
				c-6.09-6.79-12.12-13.64-17.84-20.75c-0.67-0.83-1.33-1.67-2-2.51c-1.78-2.23,1.45,1.93-0.27-0.34c-1.39-1.85-2.77-3.7-4.12-5.58
				c-2.68-3.76-5.25-7.61-7.64-11.56c-2.26-3.72-4.38-7.53-6.29-11.44c-0.44-0.9-0.86-1.8-1.28-2.71c-0.21-0.45-0.4-0.92-0.61-1.37
				c-0.86-1.84,1.08,2.71,0.33,0.82c-0.8-2.03-1.6-4.05-2.32-6.11c-1.38-3.96-2.54-7.99-3.47-12.08c-0.44-1.96-0.83-3.92-1.16-5.9
				c-0.08-0.49-0.16-0.99-0.24-1.48c-0.43-2.64,0.13,0.69,0.13,1.02c0-1.14-0.26-2.33-0.36-3.46c-0.35-4.09-0.43-8.21-0.21-12.32
				c0.05-0.98,0.12-1.95,0.21-2.93c0.04-0.48,0.11-0.97,0.15-1.46c0.11-1.7-0.25,1.63-0.23,1.57c0.46-2.22,0.73-4.46,1.26-6.68
				c0.45-1.88,0.97-3.75,1.57-5.59c0.3-0.92,0.62-1.84,0.96-2.74c0.17-0.45,0.36-0.9,0.53-1.36c0.69-1.85-1.27,2.66-0.36,0.9
				c1.76-3.42,3.5-6.7,5.65-9.89c1.39-2.07-2.27,2.66-0.23,0.31c0.5-0.58,1-1.17,1.52-1.73c1.13-1.23,2.31-2.4,3.55-3.52
				c0.57-0.52,1.17-1,1.75-1.51c1.9-1.68-2.68,1.9-0.6,0.45c1.38-0.96,2.74-1.92,4.18-2.8c1.43-0.87,2.91-1.68,4.41-2.43
				c0.69-0.34,1.4-0.66,2.1-0.99c2.12-1.01-3.36,1.25-0.37,0.18c3.03-1.09,6.07-2.04,9.23-2.68c0.75-0.15,1.5-0.27,2.25-0.41
				c2.56-0.49-3.56,0.34-0.97,0.13c1.76-0.14,3.5-0.29,5.27-0.3c1.49-0.01,2.99,0.04,4.47,0.17c0.37,0.03,0.74,0.09,1.11,0.11
				c1.67,0.05-2.52-0.27-2.15-0.31c0.76-0.08,1.79,0.29,2.54,0.44c1.43,0.29,2.85,0.65,4.25,1.09c0.81,0.25,1.6,0.56,2.41,0.83
				c2.15,0.74-3.32-1.62-0.58-0.22c1.3,0.67,2.59,1.33,3.83,2.11c0.62,0.39,1.2,0.86,1.83,1.22c1.28,0.74-1.68-1.36-1.56-1.24
				c0.35,0.34,0.77,0.63,1.14,0.95c1.14,0.98,2.23,2.04,3.24,3.15c0.29,0.31,0.55,0.66,0.84,0.96c1.12,1.16-0.7-0.95-0.74-1.04
				c0.57,1.18,1.62,2.25,2.31,3.36c1.09,1.73,2.08,3.53,2.99,5.36c0.46,0.92,0.88,1.86,1.32,2.79c0.17,0.37,0.84,2.03,0.07,0.1
				c-0.81-2.03,0.08,0.2,0.24,0.6c3.59,8.89,6.69,17.92,10.6,26.68c6.74,15.05,15.36,29.2,25.07,42.5
				c20.28,27.79,44.52,52.13,68.57,76.61c11.79,12.01,23.52,24.09,34.63,36.75c5.8,6.61,11.39,13.39,16.82,20.31
				c1.75,2.23-1.52-2,0.2,0.25c0.63,0.83,1.26,1.65,1.89,2.48c1.36,1.8,2.7,3.61,4.03,5.42c2.66,3.64,5.27,7.31,7.82,11.02
				c10.02,14.56,19.21,29.7,27.51,45.3c4.15,7.8,8.09,15.72,11.8,23.74c1.82,3.93,3.58,7.89,5.29,11.87
				c0.2,0.47,0.38,0.97,0.61,1.43c-0.01-0.01-1.15-2.75-0.5-1.19c0.4,0.96,0.8,1.92,1.2,2.88c0.92,2.24,1.83,4.5,2.72,6.75
				c12.88,32.73,22.11,66.91,27.33,101.7c0.31,2.06,0.55,4.12,0.88,6.18c0,0.02-0.41-3.14-0.19-1.41c0.06,0.52,0.13,1.03,0.2,1.55
				c0.15,1.2,0.3,2.41,0.44,3.61c0.51,4.3,0.96,8.61,1.35,12.93c10,0,20,0,30,0c-8.46-75.3-21.96-150-40.85-223.38
				c-4.41-17.13-9.23-34.22-17.25-50.08c-7.66-15.15-19-28.1-31.96-38.95c-13.16-11.02-27.51-20.48-41.29-30.68
				c-3.39-2.51-6.78-5.02-10.09-7.62c2.65,2.08,1,0.77,0.43,0.32c-0.87-0.68-1.73-1.35-2.6-2.03c-2.02-1.59-4.02-3.19-6.02-4.8
				c-6.56-5.29-13.02-10.72-19.37-16.26c-28.72-25.08-55.19-52.71-79.08-82.43c-4.94-6.14-16.14-5.53-21.21,0
				c-5.99,6.52-5.27,14.66,0,21.21c21.13,26.29,44.28,50.95,69.23,73.65c12.47,11.35,25.39,22.2,38.71,32.55
				c13.38,10.39,27.29,20.01,40.9,30.09c0.83,0.62,1.67,1.24,2.49,1.86c0.62,0.47,3.55,2.55,0.26,0.17c1.39,1,2.72,2.13,4.05,3.21
				c3.2,2.59,6.32,5.28,9.33,8.1c2.74,2.57,5.38,5.24,7.88,8.04c1.17,1.31,3.29,3.07,3.96,4.7c-0.11-0.27-2.05-2.79-0.47-0.59
				c0.81,1.13,1.64,2.25,2.42,3.4c2.22,3.29,4.23,6.71,6.05,10.23c0.83,1.6,1.62,3.22,2.37,4.85c0.44,0.95,1.02,1.96,1.32,2.96
				c-1.21-3.97,0.23,0.62,0.54,1.43c3.03,7.79,5.45,15.8,7.64,23.86c9.54,34.99,17.41,70.5,24.28,106.11
				c3.88,20.14,7.38,40.36,10.48,60.64c0.79,5.17,1.56,10.34,2.3,15.52c0.37,2.59,0.73,5.18,1.09,7.77c0.14,1,0.27,1.99,0.41,2.99
				c0.23,1.73,0.22,1.59-0.05-0.4c0.11,0.8,0.21,1.59,0.32,2.39c1.37,10.37,2.63,20.75,3.8,31.14c0.46,4.1,1.37,7.58,4.39,10.61
				c2.6,2.6,6.87,4.56,10.61,4.39c7.52-0.34,15.76-6.63,15-15c-3.37-37.08-10.78-73.74-22.57-109.07
				c-11.75-35.22-27.44-69.27-46.86-100.93c-19.19-31.29-42.17-59.88-67.48-86.41c-23.78-24.93-48.97-48.62-70.8-75.33
				c-1.34-1.64-2.66-3.29-3.97-4.95c-0.34-0.43-2.32-2.98-0.93-1.17c1.38,1.79-0.81-1.07-1.19-1.57c-2.63-3.49-5.19-7.03-7.66-10.63
				c-4.75-6.91-9.18-14.05-13.19-21.42c-2.01-3.69-3.91-7.45-5.7-11.26c-0.31-0.67-2.89-5.44-2.6-5.78
				c0.02-0.02,1.18,2.86,0.56,1.33c-0.18-0.45-0.37-0.91-0.56-1.36c-0.43-1.07-0.86-2.14-1.27-3.22
				c-3.55-9.22-6.58-18.78-11.47-27.4c-4.72-8.31-11.28-15.5-19.44-20.52c-7.38-4.54-15.52-6.68-24.02-7.72
				c-15.03-1.84-31.28,2.5-44.08,10.4c-33.55,20.7-40.21,63.57-29.9,99.11c10.97,37.8,39.08,66.27,64.5,94.94
				c6.32,7.12,12.47,14.39,18.4,21.83c1.24,1.55,3.83,3.8,4.45,5.65c-0.02-0.06-1.68-2.19-0.65-0.85c0.34,0.44,0.67,0.88,1.01,1.32
				c0.78,1.03,1.57,2.05,2.34,3.09c2.89,3.83,5.73,7.69,8.52,11.59c11.3,15.75,21.86,32.03,31.86,48.63
				c20.01,33.19,37.81,67.64,55.14,102.28c4.23,8.45,8.43,16.91,12.62,25.38c7.85-6.06,15.71-12.12,23.56-18.18
				c-31.55-28.5-66.19-53.92-103.22-74.84c-37.26-21.04-77.5-38.08-119.39-47.24c-41.26-9.03-84.31-10.53-125.53-0.39
				c-20.7,5.09-40.84,13.26-59.3,23.9c-19.88,11.46-38.9,26.06-54.59,42.85c-4.72,5.05-6.35,12.47-8.06,19.05
				c-1.27,4.89-2.32,9.84-3.06,14.84c-1.73,11.8-2.33,23.39,0.22,35.15c2.23,10.26,7.67,20.44,15.89,27.12
				c5.95,4.83,12.55,8.34,20.05,10.19c7.44,1.83,15.2,2.28,22.81,2.91c29.41,2.41,58.78,5.37,88.08,8.86
				c7.33,0.87,14.65,1.78,21.97,2.72c3.46,0.44,6.91,0.9,10.36,1.35c0.81,0.11,1.63,0.21,2.44,0.33c-3.42-0.47-0.58-0.08,0.28,0.04
				c2.03,0.28,4.06,0.55,6.09,0.83c13.22,1.83,26.45,3.67,39.57,6.12c12.58,2.34,25.09,5.27,37.21,9.4c2.84,0.97,5.65,2,8.44,3.1
				c0.56,0.22,1.42,0.46,1.96,0.79c-2.96-1.81-1.18-0.5-0.18-0.07c1.61,0.71,3.21,1.44,4.79,2.2c5.7,2.74,11.24,5.84,16.5,9.36
				c1.17,0.78,2.32,1.58,3.45,2.41c0.5,0.36,0.99,0.8,1.51,1.12c-0.26-0.16-2.77-2.22-0.81-0.61c2.32,1.9,4.59,3.84,6.76,5.9
				c1.95,1.85,3.82,3.77,5.62,5.77c0.85,0.94,1.68,1.89,2.49,2.86c0.51,0.6,0.99,1.23,1.5,1.83c0.9,1.07-2.06-2.77-0.03-0.04
				c3.36,4.52,6.35,9.33,8.87,14.37c0.63,1.25,1.2,2.52,1.79,3.78c0.71,1.52-0.39,0.83-0.43-1.03c0.01,0.4,0.56,1.43,0.68,1.72
				c0.98,2.58,1.84,5.2,2.55,7.86c0.71,2.65,1.07,5.36,1.69,8.03c-1.02-4.41-0.11-0.82,0.01,0.52c0.13,1.51,0.22,3.02,0.25,4.53
				c0.06,2.74-0.1,5.46-0.34,8.18c-0.22,2.56,0.13-1.01,0.19-1.26c-0.14,0.58-0.19,1.22-0.3,1.82c-0.27,1.52-0.6,3.03-0.98,4.53
				c-0.69,2.71-1.59,5.35-2.59,7.97c-0.9,2.38,0.29-0.79,0.44-1.03c-0.3,0.49-0.52,1.14-0.77,1.68c-0.66,1.39-1.36,2.75-2.11,4.09
				c-1.34,2.42-2.83,4.76-4.42,7.03c-0.36,0.5-0.73,1-1.08,1.5c-1.49,2.11,0.43-0.72,0.66-0.82c-0.94,0.42-2.26,2.76-2.98,3.58
				c-3.73,4.26-7.83,8.18-12.17,11.8c-0.61,0.51-1.22,1.01-1.84,1.5c-0.44,0.35-2.09,1.72-0.36,0.3c1.97-1.62-0.49,0.36-0.76,0.56
				c-0.51,0.38-1.03,0.75-1.54,1.12c-2.33,1.67-4.71,3.27-7.12,4.81c-4.88,3.1-9.93,5.94-15.08,8.56c-2.78,1.42-5.6,2.77-8.44,4.06
				c-1.27,0.58-2.54,1.13-3.81,1.69c-2.46,1.08,0.39-0.1,0.7-0.29c-0.86,0.52-1.96,0.8-2.9,1.18c-11.66,4.62-23.72,8.23-36.02,10.7
				c-3.07,0.62-6.15,1.16-9.24,1.64c-0.69,0.11-1.37,0.2-2.06,0.3c-2.7,0.4,0.53-0.11,0.89-0.12c-1.71,0.04-3.47,0.41-5.17,0.58
				c-6.19,0.61-12.41,0.93-18.63,0.93c-6.19,0-12.38-0.32-18.54-0.97c-0.68-0.07-1.36-0.15-2.05-0.23c-0.4-0.05-3.56-0.76-1.07-0.13
				c2.2,0.56,0.06,0-0.55-0.1c-0.85-0.13-1.69-0.26-2.54-0.41c-3.04-0.51-6.07-1.11-9.07-1.8c-6.02-1.38-11.95-3.1-17.76-5.18
				c-1.46-0.52-2.9-1.07-4.34-1.64c-0.64-0.25-1.28-0.52-1.92-0.77c-2.08-0.82,3.4,1.54,0.25,0.1c-2.63-1.2-5.25-2.39-7.81-3.72
				c-4.81-2.49-9.46-5.28-13.93-8.35c-1.12-0.77-2.23-1.55-3.32-2.35c-0.49-0.36-0.97-0.71-1.45-1.08c-1.16-0.87-1.5-2.06,0.52,0.42
				c-1.62-1.97-4.32-3.52-6.25-5.23c-4.07-3.61-7.93-7.45-11.55-11.5c-1.81-2.03-3.54-4.12-5.26-6.23c-0.65-0.79-1.14-2.1,0.67,0.9
				c-0.3-0.49-0.75-0.99-1.09-1.44c-0.9-1.21-1.78-2.43-2.64-3.67c-3.09-4.44-5.93-9.05-8.48-13.82c-1.27-2.37-2.47-4.78-3.6-7.23
				c-0.5-1.08-0.96-2.19-1.45-3.27c1.97,4.3-0.07-0.27-0.5-1.39c-1.9-4.99-3.48-10.1-4.72-15.29c-0.58-2.44-1.09-4.9-1.52-7.38
				c-0.2-1.16-0.72-5.76-0.19-0.82c-0.16-1.47-0.35-2.93-0.48-4.4c-0.45-5-0.56-10.02-0.32-15.04c0.13-2.67,0.51-5.31,0.69-7.98
				c-0.01,0.22-0.58,3.86-0.17,1.33c0.1-0.59,0.18-1.18,0.28-1.77c0.25-1.48,0.54-2.95,0.85-4.41c1.61-7.66-2.24-16.58-10.48-18.45
				C258.25,501.74,249.04,505.72,247.32,513.93L247.32,513.93z"/>
		</g>
	</g>
	<g>
		<g>
			<path d="M492.5,113.76c-7.96-1.81-16.1-1.75-24,0.33c-3.91,1.03-7.72,2.65-11.31,4.47c-3.57,1.81-6.68,4.19-9.83,6.65
				c-5.43,4.25-10.04,9.75-13.57,15.65c-2.05,3.42-3.64,7.17-4.99,10.91c-1.47,4.08-2.05,8.28-2.6,12.57
				c-0.96,7.42-0.21,15.05,1.44,22.32c1.63,7.16,4.57,14.19,8.2,20.56c7.67,13.46,19.27,24.36,32.51,32.25
				c7.55,4.5,15.76,8.02,24.04,10.9c7.28,2.53,14.76,4.42,22.32,5.89c4,0.78,7.94,0.6,11.56-1.51c3.11-1.82,6.08-5.39,6.89-8.96
				c0.87-3.84,0.69-8.15-1.51-11.56c-2.03-3.14-5.16-6.15-8.96-6.89c-10.17-1.98-20.19-4.73-29.76-8.73
				c1.19,0.5,2.39,1.01,3.58,1.51c-7.67-3.24-14.99-7.29-21.61-12.36c1.01,0.78,2.02,1.56,3.04,2.35
				c-4.98-3.85-9.47-8.23-13.32-13.21c0.78,1.01,1.56,2.02,2.35,3.04c-3.5-4.58-6.43-9.55-8.69-14.86c0.5,1.19,1.01,2.39,1.51,3.58
				c-1.99-4.77-3.41-9.76-4.11-14.88c0.18,1.33,0.36,2.66,0.54,3.99c-0.58-4.46-0.61-8.95-0.02-13.41
				c-0.18,1.33-0.36,2.66-0.54,3.99c0.51-3.63,1.43-7.16,2.84-10.55c-0.5,1.19-1.01,2.39-1.51,3.58c1.48-3.48,3.4-6.74,5.7-9.74
				c-0.78,1.01-1.56,2.02-2.35,3.04c2.4-3.08,5.15-5.84,8.23-8.23c-1.01,0.78-2.02,1.56-3.04,2.35c2.88-2.2,5.98-4.04,9.31-5.47
				c-1.19,0.5-2.39,1.01-3.58,1.51c3.07-1.29,6.27-2.2,9.58-2.65c-1.33,0.18-2.66,0.36-3.99,0.54c2.85-0.36,5.71-0.38,8.57-0.02
				c-1.33-0.18-2.66-0.36-3.99-0.54c1.04,0.14,2.07,0.33,3.09,0.56c3.9,0.89,8.05,0.54,11.56-1.51c3.11-1.82,6.08-5.39,6.89-8.96
				c0.87-3.84,0.69-8.15-1.51-11.56C499.4,117.45,496.33,114.63,492.5,113.76L492.5,113.76z"/>
		</g>
	</g>
	<g>
		<g>
			<path d="M802.33,383.12c14.82,46.06,25.94,93.28,33.13,141.12c0.43,2.87,0.85,5.74,1.25,8.62c0.2,1.44,0.4,2.87,0.59,4.31
				c-0.43-3.23,0.19,1.52,0.22,1.77c0.8,6.24,1.54,12.48,2.21,18.74c1.29,12.02,2.33,24.07,3.13,36.14
				c0.74,11.13,1.67,22.4,0.9,33.56c-0.09,1.36-0.22,2.71-0.37,4.06c0.39-3.49-0.19,0.92-0.28,1.37c-0.51,2.65-1.18,5.28-2.04,7.84
				c-0.24,0.7-1.22,4.87-0.32,1.08c-0.24,1.01-1.01,2.15-1.5,3.07c-1.23,2.33-2.62,4.57-4.14,6.72c-0.45,0.64-2.17,3.76-0.38,0.57
				c-0.52,0.92-1.49,1.81-2.19,2.61c-1.5,1.72-3.07,3.39-4.68,5.01c-3.55,3.57-7.31,6.92-11.11,10.21
				c-7.16,6.19-14.49,12.2-21.07,19.02c-12.31,12.74-22.54,27.56-30.9,43.15c-16.65,31.03-26.9,64.95-39.17,97.81
				c-1.69,4.53-3.42,9.04-5.21,13.53c-0.88,2.2-1.64,4.56-2.73,6.67c1.87-3.66,0.25-0.6-0.09,0.19c-0.54,1.25-1.08,2.5-1.64,3.75
				c-3.83,8.62-8,17.09-12.72,25.26c-2.33,4.03-4.78,7.98-7.39,11.83c-1.3,1.92-2.63,3.81-4.01,5.68c-0.55,0.75-1.11,1.74-1.79,2.38
				c3.03-2.86-0.06,0.03-0.73,0.86c-5.93,7.25-12.52,13.91-19.74,19.88c8.36,4.86,16.71,9.73,25.07,14.59
				c3.37-9.25,6.88-18.46,10.54-27.6c1.66-4.16,3.36-8.3,5.08-12.43c-0.05,0.13,1.65-3.93,0.8-1.92c-0.84,2,0.87-2.05,0.82-1.92
				c1.05-2.47,2.12-4.94,3.2-7.4c7.62-17.43,15.77-34.63,24.43-51.57c17.43-34.08,36.92-67.1,58.36-98.8
				c6.02-8.9,12.19-17.7,18.51-26.39c3.03-4.16,6.09-8.3,9.19-12.41c1.62-2.15,3.24-4.28,4.87-6.42c0.42-0.55,2.23-2.9,0.52-0.69
				c1.1-1.42,2.2-2.83,3.3-4.24c-7.85-6.06-15.71-12.12-23.56-18.18c-29.88,58.68-59.34,117.59-89.67,176.03
				c-6.49,12.51-13.24,24.91-20.91,36.74c-1.82,2.81-3.69,5.58-5.62,8.31c-0.96,1.36-1.94,2.71-2.93,4.05c-0.5,0.67-1,1.33-1.5,2
				c-1.06,1.43,1.45-1.79-0.33,0.41c-4.44,5.49-9.07,10.79-14.12,15.72c-2.38,2.32-4.84,4.57-7.37,6.72
				c-1.27,1.08-2.57,2.12-3.87,3.16c0.43-0.34,2.35-1.74,0.09-0.09c-0.83,0.61-1.65,1.22-2.49,1.81c-5.48,3.9-11.25,7.41-17.2,10.54
				c-2.88,1.52-5.81,2.95-8.78,4.29c-0.86,0.39-5.16,2.2-2.03,0.93c-1.7,0.69-3.41,1.39-5.13,2.04c-6.34,2.43-12.8,4.54-19.33,6.39
				c-13.44,3.82-27.15,6.59-40.92,8.88c-6.8,1.13-13.62,2.14-20.45,3.1c-3.29,0.46-6.58,0.92-9.88,1.36
				c3.6-0.47-1.38,0.18-2.38,0.32c-2.18,0.29-4.36,0.58-6.55,0.86c-28.92,3.76-58.13,6.91-87.33,5.52
				c-3.48-0.17-6.96-0.39-10.43-0.7c-1.73-0.15-3.46-0.32-5.18-0.51c-0.86-0.09-1.72-0.2-2.58-0.3c-4.31-0.49,3.13,0.5-1.16-0.15
				c-7.03-1.06-14.01-2.39-20.9-4.17c-6.89-1.79-13.62-4.04-20.26-6.62c-2.68-1.04-0.56-0.21-0.02,0.02
				c-0.8-0.34-1.59-0.69-2.39-1.05c-1.59-0.72-3.17-1.46-4.74-2.23c-3.58-1.76-7.09-3.67-10.53-5.69
				c-6.33-3.73-12.26-7.99-18.22-12.28c-1.89-1.36,1.69,1.35-0.14-0.09c-0.7-0.55-1.4-1.1-2.1-1.66c-1.39-1.11-2.77-2.24-4.14-3.38
				c-2.92-2.42-5.78-4.9-8.61-7.43c-10.4-9.28-20.38-19.04-30.08-29.05c-9.54-9.84-18.77-19.98-27.68-30.4
				c-4.39-5.13-8.7-10.32-12.93-15.58c-2.05-2.55-4.08-5.12-6.1-7.69c-0.5-0.64-1.01-1.29-1.51-1.94c1.84,2.37,0.47,0.61,0.1,0.12
				c-1.24-1.63-2.48-3.25-3.71-4.89c-16.36-21.75-31.4-44.48-45.05-68.02c-13.65-23.54-25.91-47.9-36.7-72.88
				c-0.65-1.5-1.29-3.01-1.93-4.52c1.28,3.03-0.51-1.24-0.86-2.08c-1.33-3.22-2.63-6.44-3.91-9.68c-2.48-6.28-4.87-12.6-7.17-18.95
				c-4.66-12.89-8.94-25.92-12.82-39.07c-7.71-26.09-13.85-52.64-18.36-79.48c-1.12-6.66-2.11-13.33-3.05-20.02
				c-0.31-2.25,0.33,2.59,0.05,0.34c-0.1-0.81-0.21-1.62-0.31-2.43c-0.21-1.62-0.41-3.25-0.6-4.87c-0.41-3.45-0.8-6.91-1.16-10.37
				c-0.71-6.9-1.57-13.87-1.73-20.81c-0.02-1.02-0.47-4.06,0.15-4.91c-0.26,0.36-0.22,3.37,0.06,0.42c0.07-0.76,1.07-2.56-0.33,0.22
				c0.15-0.3,1.01-2.12,1.18-2.09c0.76,0.15-3.23,2.21-0.27,0.56c1.42-0.8,0.09-1.5-0.54,0.32c0.18-0.52,1.89-1.15,2.33-1.38
				c0.51-0.27,2.66-0.99,0.71-0.38c-2,0.63,0.32-0.04,0.81-0.2c1.41-0.46,2.84-0.84,4.28-1.18c1.35-0.32,2.71-0.6,4.08-0.86
				c0.68-0.13,1.35-0.25,2.03-0.36c2.22-0.37,1.16-0.07-0.42,0.01c5.84-0.29,11.52-0.96,17.4-0.69c2.71,0.12,5.46,0.67,8.17,0.7
				c-0.36,0-3.6-0.56-0.94-0.11c0.67,0.11,1.35,0.21,2.02,0.33c1.52,0.26,3.03,0.56,4.53,0.88c5.53,1.19,10.97,2.81,16.27,4.81
				c1.03,0.39,5.06,1.58,1.2,0.41c1.28,0.39,2.55,1.12,3.77,1.69c2.65,1.24,5.25,2.59,7.8,4.02c2.4,1.35,4.76,2.78,7.06,4.29
				c1.15,0.76,2.29,1.53,3.42,2.33c0.56,0.4,1.12,0.8,1.68,1.21c1.63,1.2,1.05,0.95-0.15-0.17c4.29,3.99,8.91,7.48,12.97,11.76
				c1.89,1.99,3.7,4.05,5.44,6.17c0.4,0.49,0.83,1.2,1.29,1.6c-0.28-0.25-2.02-2.73-0.47-0.59c0.9,1.25,1.81,2.49,2.67,3.76
				c3.17,4.66,5.97,9.57,8.34,14.69c0.14,0.3,0.83,1.44,0.84,1.87c-0.08-1.94-0.89-2.21-0.32-0.74c0.5,1.28,1,2.55,1.45,3.85
				c1.04,2.95,1.94,5.95,2.7,8.98c1.53,6.09,2.5,12.28,3.43,18.49c0.33,2.18-0.35-2.75-0.07-0.56c0.1,0.76,0.2,1.53,0.3,2.29
				c0.19,1.53,0.38,3.06,0.57,4.59c0.4,3.25,0.79,6.49,1.21,9.74c1.72,13.13,3.58,26.33,8.63,38.67
				c5.94,14.5,15.09,26.44,28.25,35.14c12,7.93,26.31,12.25,40.23,15.39c16.28,3.67,32.76,6.34,49.3,8.5
				c32.13,4.19,64.63,5.47,96.99,3.76c16.68-0.88,33.26-2.65,49.8-4.96c7.8-1.09,12.75-11.44,10.48-18.45
				c-2.77-8.56-10.09-11.64-18.45-10.48c-3.04,0.42-1,0.14-0.36,0.06c-0.97,0.13-1.93,0.25-2.9,0.38c-1.93,0.24-3.87,0.48-5.8,0.7
				c-4.36,0.5-8.72,0.95-13.09,1.35c-8.25,0.74-16.52,1.3-24.79,1.65c-16.55,0.71-33.13,0.65-49.68-0.18
				c-8.27-0.42-16.53-1.03-24.78-1.83c-3.88-0.38-7.75-0.8-11.62-1.26c-1.21-0.14-2.42-0.29-3.63-0.45
				c-0.38-0.05-3.39-0.44-1.63-0.21c1.77,0.23-1.25-0.17-1.63-0.23c-1.21-0.17-2.41-0.34-3.62-0.52
				c-15.46-2.29-31.04-4.96-46.12-9.1c-3.14-0.86-6.26-1.82-9.33-2.9c-0.95-0.34-1.9-0.69-2.85-1.06c-0.44-0.17-2.84-1.16-1.01-0.38
				c1.82,0.78-0.54-0.26-0.97-0.46c-0.91-0.42-1.81-0.86-2.7-1.31c-2.85-1.46-5.49-3.18-8.19-4.9c-3.19-2.04,1.46,1.37-0.29-0.17
				c-0.6-0.53-1.22-1.02-1.82-1.55c-1.33-1.18-2.6-2.42-3.8-3.73c-0.5-0.55-0.97-1.12-1.47-1.66c-2.08-2.29,0.41,0.33,0.29,0.46
				c0.04-0.05-2.29-3.3-2.46-3.57c-1.57-2.47-3.87-5.67-4.53-8.56c0.84,3.65-0.08-0.34-0.48-1.45c-0.49-1.37-0.94-2.75-1.36-4.15
				c-0.96-3.18-1.75-6.41-2.43-9.67c-0.62-2.95-1.14-5.92-1.61-8.89c-0.27-1.69-0.5-3.39-0.75-5.09c-0.31-2.18,0.35,2.76,0.08,0.57
				c-0.12-0.95-0.24-1.91-0.36-2.86c-0.93-7.44-1.8-14.9-2.89-22.32c-1.94-13.25-5.24-25.73-10.89-37.9
				c-21.05-45.37-73.33-76.22-123.24-72.46c-14.1,1.06-31.3,3.53-41.05,14.93c-11.36,13.3-7.97,31.49-6.28,47.45
				c3.02,28.59,7.69,57.02,14.2,85.03c12.81,55.05,32.56,108.53,58.13,158.92c25.58,50.4,57.4,97.61,94.34,140.39
				c18.52,21.45,38.33,42.1,59.78,60.66c24.15,20.89,51,37.31,82.23,45.06c29.78,7.38,60.89,7.81,91.32,5.49
				c30.15-2.3,60.39-6.4,90.2-11.39c28.55-4.78,56.96-11.92,82.73-25.46c26.82-14.1,47.71-35.75,64.37-60.78
				c16.76-25.2,29.59-52.96,43.29-79.87c15.49-30.42,30.97-60.83,46.46-91.25c7.52-14.76,15.03-29.52,22.55-44.28
				c3.42-6.72,2.25-14.63-3.86-19.35c-5.32-4.11-15.09-4.72-19.7,1.17c-48.57,62.07-89.72,129.61-121.71,201.68
				c-9.24,20.82-17.82,41.95-25.62,63.35c-2.17,5.95,1.39,14.03,6.89,16.94c6.31,3.33,12.82,2.09,18.18-2.35
				c27.95-23.12,44.85-55.7,58.16-88.78c6.54-16.26,12.22-32.86,18.15-49.34c3-8.33,6.06-16.64,9.33-24.86
				c0.77-1.92,1.54-3.84,2.33-5.76c0.66-1.6,1.13-2.44,0.08-0.23c0.51-1.08,0.95-2.21,1.42-3.31c1.71-3.92,3.48-7.8,5.34-11.65
				c3.75-7.76,7.84-15.36,12.42-22.66c2.22-3.55,4.56-7.04,7.02-10.43c0.59-0.81,1.2-1.62,1.79-2.43c1.66-2.26-1.65,2.04,0.11-0.15
				c1.37-1.7,2.74-3.39,4.16-5.05c12.39-14.39,28.36-24.92,41.13-38.88c7.94-8.67,14.31-18.39,17.96-29.63
				c3.84-11.82,4.12-24.72,3.6-37.03c-1.01-24.31-3.27-48.6-6.39-72.73c-6.39-49.34-16.47-98.09-30.78-145.76
				c-1.74-5.79-3.54-11.56-5.39-17.32c-2.4-7.46-10.51-13.05-18.45-10.48C805.34,367.09,799.75,375.12,802.33,383.12L802.33,383.12z
				"/>
		</g>
	</g>
	<g>
		<g>
			<path d="M525.48,252.74c7.56,3.9,15.67,7.01,24.03,8.67c8.41,1.67,17.06,2.46,25.61,1.73c2.07,0.08,3.99-0.35,5.78-1.29
				c1.86-0.6,3.47-1.64,4.83-3.1c2.6-2.6,4.56-6.87,4.39-10.61c-0.17-3.88-1.45-7.9-4.39-10.61c-2.79-2.56-6.68-4.73-10.61-4.39
				c-5.61,0.47-11.23,0.33-16.81-0.4c1.33,0.18,2.66,0.36,3.99,0.54c-6.75-0.92-13.34-2.71-19.63-5.33c1.19,0.5,2.39,1.01,3.58,1.51
				c-1.91-0.81-3.78-1.68-5.62-2.63c-3.57-1.84-7.6-2.6-11.56-1.51c-3.48,0.96-7.25,3.65-8.96,6.89c-1.84,3.48-2.76,7.7-1.51,11.56
				C519.75,247.38,522.01,250.95,525.48,252.74L525.48,252.74z"/>
		</g>
	</g>
</g>
</svg>
