<?xml version="1.0" encoding="utf-8"?>
<!-- Generator: Adobe Illustrator 19.2.0, SVG Export Plug-In . SVG Version: 6.00 Build 0)  -->
<svg version="1.1" id="Layer_1" xmlns="http://www.w3.org/2000/svg" xmlns:xlink="http://www.w3.org/1999/xlink" x="0px" y="0px"
	 width="2116.7px" height="1000px" viewBox="0 0 2116.7 1000" style="enable-background:new 0 0 2116.7 1000;" xml:space="preserve"
	>
<g id="Layer_3">
	<path id="Mind_2_" d="M2114.9,657.6c-20.2-39.7-77,56.3-130.4-74.6c-20.6-50.5-16.2-176.5-10-234.6c5.1-46.9-38.7-46.7-44.8-3.8
		c-4.5,32-9.1,92.6-4,154.8c-154.8,8.8-174.2,155-227.4,155.9c-43.6,0.7-48.3-158.2-122.9-156.3c-44.4,1.1-81.1,49.6-97.9,84.7
		c2-18.1,4-36.5,1.7-57.7c-2-18-8.1-24.7-20.5-24.8c-18.4-0.1-35.7,37.1-38.9,43.2c-17.6,33.6-41,106.6-93.1,109.1
		c-55.7,2.8-61.6-113-66.2-135.9c-3.3-16.7-11.8-22.1-23-21.8c-14.7,0.3-23.1,15.9-29.2,36.5c-7.8,27.4-38.7,127.6-91,125.7
		c-76.6-2.8-42.3-254.4-144.8-250.7c-37.9,1.4-62,41.9-70.2,71.1c-11.7-66.9-54-70.5-66.1-70.5c-32.6-0.2-56.4,28.1-73.6,76
		c5.5-42.4-25.6-280.4-256.4-285.6c-35.6-0.7-72.8,3.2-111.3,13.5c7.9-40.4,16.6-81,26.5-121.4c9.9-41.1,10-54.6-1.5-59.7
		C399.1,21.4,387,42,379.8,76c-7.5,34.7-18.1,87.7-28.6,150.3c-15.9,6.2-31.9,13.5-48,22c-45.8-90.9-92.8-177.9-126.1-221.2
		C160.4,5.5,144.7-6.2,126.4,3.4C89.7,22.5,139,138.9,177.2,204.3c-37.4-28.7-76.4-39.8-104.8-21.4c-41.9,27.4-18,111.4,37.1,199.4
		c-15.7,10.9-24.7,22.2-22.6,33.4c2.4,13,12.7,18.4,22.6,19.8c-12.2,21.3-22.3,43-30.8,64.4C29.5,531-7.6,565.7,1.3,596.5
		c6,20.3,24.6,28.2,49.6,28.3c-1.4,41.3,7.3,74.7,25.9,92.6c52.9,50.9,154.2,34.3,249.4-12.5c16.7,132.7,57.9,232.4,108.3,228
		c59.2-5.3,54.4-146.5,19.5-298.8c79,14,146.8,2.2,149.5-46.9c1.8-32.1-26.3-61.1-62.4-84.4c9-26.7,8.4-52.2-4.7-74.2
		c-8.6-14.5-19.6-25.4-32.7-33.3c27.4-26.9,43-52.9,36.6-74.8c-13.2-44.6-91.4-40-159.4-27.7c2.1-13.4,4.4-26.8,6.9-40.2
		c50-16.8,83.6-17.1,120.5-15.2c233,12.5,221.2,259.1,221.3,423.8c0,46,34.9,51.6,39.4-2.4c3-35.2,23.6-212.5,67.9-207
		c45.1,5.6,38.9,190.2,38.1,217.4c-1,35.6,37.2,39.9,38.4-0.9C913.9,651.6,924,457.8,974,455c49.8-2.8,23.6,244.2,139,244.4
		c74.5,0.1,108.7-73.8,115.5-100.8c13.9,69.3,54.7,98.9,95.4,100.5c52.9,1.9,97.7-58.1,110.6-90.5c0.7,28-2.3,89.1,23.4,90.9
		c19.4,1.3,32.1-41.3,49.8-78.5c17.6-37.1,40.8-75.2,62.8-74.9c42.4,0.5,41.8,160,128.1,151.5c30.1-2.9,52.3-23.9,60.6-33.1
		c22.3,71.3,152.8,16.6,190.2-51.4c18,46.1,47.5,80.2,94.6,84.8C2087.3,702.5,2125.5,678.6,2114.9,657.6 M54.2,589.4
		c-9.4,0.7-15.5-0.9-16.7-5.5c-1.9-7,7.4-16.8,23.4-28.5C58.1,567.1,55.9,578.4,54.2,589.4 M328.9,387.8c-0.1,1.6-0.3,3.2-0.5,4.7
		c-11.7,3-23.2,6.3-34.8,9.8c-1.8-15.9-5.5-31.9-10.4-47.5c7.7-2,17.1-4.2,27.7-6.8C317.1,361.3,323.1,374.5,328.9,387.8
		 M357.8,626.8c-0.4-7-0.7-14-0.9-21.2c12.3,5,24.7,9.6,37.3,13.6c-11.4,8.3-23.1,16.2-35.3,23.7
		C358.5,637.7,358.1,632.3,357.8,626.8 M255.7,414.9c-12.8,4.8-32.4,12.6-55.1,22.5c-8.7-10.6-17.1-21.3-25.1-32.3
		c5.9-8,11.8-15.8,18.1-23.3c14.7-5.8,32-11.6,52.1-17.2C251,381.2,254.5,398,255.7,414.9 M241.3,461.5c3.9-1.8,8-3.5,12-5.4
		c-2,9.7-5.2,19.1-9.5,28.3c-5.5-5.4-11-10.9-16.4-16.6C232.1,465.6,236.7,463.5,241.3,461.5 M358.1,498.5c4.5-2.5,9-5.3,13.5-8
		c12,31.2,22.6,61.3,31.3,89.5c-15.3-5.3-31-11.6-46.7-19C356.4,540.9,357,519.9,358.1,498.5 M318.5,541.2
		c-5.9-3.4-11.6-7.1-17.3-10.9c5.8-3,11.8-6.4,18-9.7C318.9,527.4,318.6,534.3,318.5,541.2 M440.7,581
		c-8.8-32.4-18.6-64.5-29.4-95.4c24.5,7.3,53.8,20.9,79.9,36.2C479.4,541.3,461.9,561.4,440.7,581 M391.7,433.1
		c-2.2-5.6-4.4-11-6.8-16.3c12.8-1.9,25-3.1,36.6-3.2C412.1,420.2,402.1,426.7,391.7,433.1 M321.4,474.7c-14.4,8.2-28,15.7-39.8,22
		c7.8-18.2,12-37.3,13.3-56.7c9.9-3.4,20-6.8,30-9.7C323.5,445.1,322.4,460,321.4,474.7 M294.4,312.6c-7.3,1.8-15.7,4-24.9,6.7
		c-0.9-2.1-1.9-4.2-2.9-6.4c6.9-5,14-9.9,21.3-14.4C290,303.2,292.2,307.9,294.4,312.6L294.4,312.6z M154.6,59.9
		c6.1-2.9,59.6,88.8,117.6,206.4c-3.7,2.3-16.7,10.9-20.4,13.4C167.2,104.6,147.9,63,154.6,59.9 M97.8,218.5
		c24-18.2,82.3,24.7,120.1,86.8c-17.7,14.5-33.8,30.3-48.7,46.9c-8.1,3.2-15.8,6.6-23.1,9.9C104.5,295.6,78.1,233.3,97.8,218.5
		 M162.4,454.7c-8.5,4-16.9,8.2-25.5,12.5c4.5-8.7,9.4-17.4,14.5-26C155.1,445.7,158.7,450.3,162.4,454.7 M111.8,524.6
		c23.6-12.8,50.8-26.3,77.9-39.2c10.2,10.9,20.7,21.3,31.6,31.4c-10.4,10.9-23.2,20.9-39.1,29.7c-27.4,12-59,24.6-85.9,33.2
		C99.9,562.1,105,543.6,111.8,524.6 M112.9,694.2c-16.1-13.3-23-40.1-21.5-74.3c50.6-10.9,109.3-37.3,141.5-54.2
		c4.6-2.4,14.9-7.6,29-14.8c5.5,4.2,11,8.4,16.6,12.3c12.3,8.8,25.7,16.9,39.7,24.3c0.4,26.3,1.6,52,3.7,76.9
		C240.4,707.4,154.3,728.4,112.9,694.2 M430.7,887.8c-18,4.1-53.2-82-67.8-202.8c19.8-11.6,39.1-24.3,57.1-37.8
		C445.5,778.3,452.2,883,430.7,887.8 M561.9,585.3c-0.8,15.7-36.2,21.1-85.8,13.4c18.5-18.7,34.2-37.8,46.2-56.9
		C546,558.7,562.5,575.3,561.9,585.3 M506.7,460.1c1.7,7.4,1.7,15.2,0.2,23.5c-27.7-13.8-54.4-24.6-74.5-31.3
		c15.3-11.7,27.6-19.7,40.9-30.4C490.3,429.1,502.3,441.4,506.7,460.1 M493,332.1c9.2,11-3.6,28.7-27.6,49.1
		c-28.3-5.7-60.9-3.8-95.2,2.4l-1.6-3.4c1.8-15.1,3.9-30.4,6.2-45.7C427.5,324.2,481.3,318.1,493,332.1 M339.8,301.4
		c-3,0.7-6,1.4-8.7,2.1c-3.7-7.6-7.5-15-11.2-22.5c8.6-4.1,16.8-8,24.5-11.4C342.8,280,341.3,290.7,339.8,301.4 M1795.5,645
		c-10.6-32.3,56.1-107,133.3-107.2C1947.8,598.4,1812.6,697.2,1795.5,645"/>
	<g id="for_better_mental_health">
		<path d="M1258.5,414.3c14.7,0.4,26.1-9.2,26.5-21.7c0.4-12.5-10.2-24.2-24.8-24.7c-14.6-0.4-26.1,11.7-26.5,24.3
			C1233.3,404.7,1243.9,413.9,1258.5,414.3"/>
		<path d="M759.1,783.7c0,3.1-1.4,4.9-4.1,5.3h-9c-7.4,0-11,4.4-11,13.3c0,0.9,0,2.2,0.1,4c0.1,1.8,0.2,3.1,0.2,4h12.9
			c2.5,0.3,3.7,2,3.7,5c0,2.8-1.2,4.2-3.7,4.2h-12.9l0.1,49.7c0,2.9-1.9,4.4-5.7,4.4c-3.7,0-5.6-1.5-5.6-4.4v-49.6h-5.4
			c-2,0-3-1.3-3-4c0-3.5,1-5.3,3-5.3h5.5v-3.8v-3.8c0-7,1-12.3,3.1-15.9c3.1-5.4,8.6-8.1,16.4-8.1H755
			C757.7,779,759.1,780.7,759.1,783.7"/>
		<path d="M808.2,837.8c0-7-1.5-12.6-4.4-16.9c-3.4-5.3-8.4-7.8-14.9-7.8c-6.8,0-11.8,2.6-15.1,8c-2.8,4.4-4.2,10.2-4.2,17.2
			c0,7.2,1.4,12.9,4.2,17.2c3.4,5.3,8.5,8,15.1,8c6.8,0,11.8-2.7,15.1-8.1C806.8,850.6,808.2,844.9,808.2,837.8 M819.6,837.2
			c0,15.3-4.9,25.8-14.9,31.3c-4.8,2.7-10.2,4-15.9,4c-10.2,0-18-3.2-23.3-9.8c-5-6.1-7.6-14.2-7.6-24.5c0-12.2,3.4-21.2,10.2-27.1
			c5.7-4.9,12.6-7.4,20.7-7.4c10,0,17.6,3.1,23.1,9.4C817,819.2,819.6,827.1,819.6,837.2"/>
		<path d="M875.2,809.8c0,1.6-0.6,3-1.9,4.3c-1.2,1.3-2.6,2-4.2,2l-1.5-0.6c-1.1-1.8-3.4-2.7-6.8-2.7c-6.1,0-10.7,2.7-14,8.3
			c-2.5,4.2-3.7,9.7-3.7,16.4l0.1,1.7l0.1,1.7v29.1c-0.2,1.9-2.2,2.9-6.1,2.9c-3.4,0-5.2-1-5.2-2.9V811v-2v-0.6
			c0-2.1,2.1-3.2,6.3-3.2c3.6,0,5.5,1.1,5.5,3.3v4.1c4.7-6,10.7-8.9,18-8.9c6,0,9.8,0.7,11.4,2.1C874.6,807,875.2,808.3,875.2,809.8
			"/>
		<path d="M971.8,838.1c0-6-1-11.1-2.9-15.3c-2.5-5.5-6.4-8.7-11.5-9.6h-2.2h-17.9l0.3,24.4c0.1,9.4,0.7,15.1,2,17.1
			c3.5,5.8,8.3,8.7,14.2,8.7c6.2,0,10.9-2.8,14-8.5C970.5,850.2,971.8,844.6,971.8,838.1 M983.2,837.2c0,9.6-2.3,17.6-6.9,24.1
			c-5.3,7.5-12.4,11.2-21.6,11.2c-7.8,0-13.9-3.2-18.2-9.7v7.1c-0.3,1.8-2,2.6-5.4,2.6s-5-0.9-5-2.6v-86.4c0-2.2,1.9-3.3,5.8-3.3
			c3.6,0,5.5,1.1,5.5,3.3v20.5h14.5h3.5c9.2,0,16.2,3.4,21.2,10.2C981,820.1,983.2,827.7,983.2,837.2"/>
		<path d="M1041.3,829.6c-0.4-4.4-1.6-7.9-3.6-10.3c-3.5-4.3-8.2-6.5-13.8-6.5c-5.5,0-9.9,1.8-13.3,5.5c-3.2,3.4-5,8-5.5,13.5
			L1041.3,829.6z M1052.7,837.1l-0.1,0.9l-0.1,0.9l-47.7,2.8c0.4,6.3,2.1,11.3,5.4,15.1c3.5,4.2,8.4,6.5,14.4,6.5
			c8.2,0,13.7-3.8,16.4-11.6c1-1.8,3-2.8,6-2.8c3.8,0,5.8,1.1,5.8,3.4l-0.1,0.8c-1.7,6.4-5.3,11.3-10.4,14.6
			c-4.8,3.1-10.7,4.7-17.6,4.7c-10.2,0-17.9-3.1-23.4-9.5c-5.3-6-7.9-14.1-7.9-24.3c0-10.3,2.5-18.4,7.6-24.6
			c5.5-6.9,13.2-10.2,23.1-10.2c8.9,0,16,3,21.5,9c2.6,2.8,4.4,6,5.6,9.5C1051.6,824.6,1052.2,829.5,1052.7,837.1"/>
		<path d="M1093.9,811.7c0,3.1-1,4.6-2.9,4.6h-10.6v52.1c0,2.4-1.8,3.6-5.4,3.6c-3.8,0-5.8-1.2-5.8-3.6v-52.1h-4.4
			c-1.8,0-2.7-1.4-2.7-4.4c0-3.2,0.9-4.9,2.7-4.9h4.4v-18.1c0-2.4,1.8-3.7,5.5-3.7c3.7,0,5.7,1,5.7,3.2V807h10.6
			C1092.9,807.1,1093.9,808.7,1093.9,811.7"/>
		<path d="M1129.1,811.7c0,3.1-1,4.6-2.9,4.6h-10.6v52.1c0,2.4-1.8,3.6-5.4,3.6c-3.8,0-5.8-1.2-5.8-3.6v-52.1h-4.4
			c-1.8,0-2.7-1.4-2.7-4.4c0-3.2,0.9-4.9,2.7-4.9h4.4v-18.1c0-2.4,1.8-3.7,5.5-3.7c3.7,0,5.7,1,5.7,3.2V807h10.6
			C1128.1,807.1,1129.1,808.7,1129.1,811.7"/>
		<path d="M1182.3,829.6c-0.4-4.4-1.6-7.9-3.6-10.3c-3.5-4.3-8.2-6.5-13.8-6.5c-5.5,0-9.9,1.8-13.3,5.5c-3.3,3.4-5.2,8-5.5,13.5
			L1182.3,829.6z M1193.6,837.1l-0.1,0.9l-0.1,0.9l-47.7,2.8c0.4,6.3,2.1,11.3,5.4,15.1c3.5,4.2,8.4,6.5,14.4,6.5
			c8.2,0,13.7-3.8,16.4-11.6c1-1.8,3-2.8,6-2.8c3.8,0,5.8,1.1,5.8,3.4l-0.1,0.8c-1.7,6.4-5.3,11.3-10.4,14.6
			c-4.8,3.1-10.7,4.7-17.6,4.7c-10.2,0-17.9-3.1-23.4-9.5c-5.3-6-7.9-14.1-7.9-24.3c0-10.3,2.5-18.4,7.6-24.6
			c5.5-6.9,13.2-10.2,23.1-10.2c8.8,0,16,3,21.5,9c2.6,2.8,4.4,6,5.6,9.5C1192.5,824.6,1193.1,829.5,1193.6,837.1"/>
		<path d="M1250.9,809.8c0,1.6-0.6,3-1.9,4.3c-1.3,1.3-2.7,2-4.2,2l-1.5-0.6c-1.2-1.8-3.4-2.7-6.8-2.7c-6.1,0-10.7,2.7-14,8.3
			c-2.5,4.2-3.7,9.7-3.7,16.4l0.1,1.7l0.1,1.7v29.1c-0.2,1.9-2.2,2.9-6.1,2.9c-3.4,0-5.2-1-5.2-2.9V811v-2v-0.6
			c0-2.1,2.1-3.2,6.3-3.2c3.6,0,5.5,1.1,5.5,3.3v4.1c4.7-6,10.7-8.9,18-8.9c6,0,9.8,0.7,11.4,2.1
			C1250.2,807,1250.9,808.3,1250.9,809.8"/>
		<path d="M1391.5,839.2L1391.5,839.2v29.4c0,2.3-1.8,3.5-5.5,3.5c-3.8,0-5.8-1.2-5.8-3.5v-30.5c0-10-2.4-16.8-7.3-20.5
			c-1.7-1.3-4-2-6.9-2c-4.6,0-8.5,2.7-11.4,8.2c-1.3,2.4-2.1,6.2-2.3,11.2v0.4v0.7V870c-0.2,1.9-2.2,2.9-6.1,2.9
			c-3.4,0-5.2-0.9-5.2-2.8l-0.1-1v-30.6v-1.7v-1.7c-0.1-5-1.4-9.6-3.7-13.7c-2.7-4.7-6.4-7.6-10.9-8.4h-2.2h-13.8v57.1
			c-0.3,1.8-2,2.6-5.4,2.6c-3.4,0-5.1-0.9-5.1-2.6v-62.8c0-2.1,1.9-3.2,5.8-3.3l14.9-0.3c0.5-0.1,1.7-0.2,3.5-0.2
			c9.9,0,17.2,3.9,22.2,11.9c1.9-2.8,4.2-5.2,7.2-7c4.3-2.7,8.4-4.1,12.1-4.1c8.1,0,14.5,3.6,19.2,10.9
			C1389.5,821.5,1391.5,829.4,1391.5,839.2"/>
		<path d="M1449.5,829.6c-0.4-4.4-1.6-7.9-3.6-10.3c-3.5-4.3-8.2-6.5-13.8-6.5c-5.5,0-9.9,1.8-13.3,5.5c-3.3,3.4-5.2,8-5.5,13.5
			L1449.5,829.6z M1460.9,837.1l-0.1,0.9l-0.1,0.9l-47.7,2.8c0.4,6.3,2.1,11.3,5.4,15.1c3.5,4.2,8.4,6.5,14.4,6.5
			c8.2,0,13.7-3.8,16.4-11.6c1-1.8,3-2.8,6-2.8c3.8,0,5.8,1.1,5.8,3.4l-0.1,0.8c-1.7,6.4-5.3,11.3-10.4,14.6
			c-4.8,3.1-10.7,4.7-17.6,4.7c-10.2,0-17.9-3.1-23.4-9.5c-5.3-6-7.9-14.1-7.9-24.3c0-10.3,2.5-18.4,7.6-24.6
			c5.5-6.9,13.2-10.2,23.1-10.2c8.8,0,16,3,21.5,9c2.6,2.8,4.4,6,5.6,9.5C1459.8,824.6,1460.4,829.5,1460.9,837.1"/>
		<path d="M1531.2,870c-0.2,1.9-2.2,2.9-6.1,2.9c-3.4,0-5.2-1-5.2-2.9v-33c0-5.5-1.1-10.4-3.3-14.8c-2.6-5.3-6.5-8.4-11.3-9.2h-2.1
			h-18.7v57.1c-0.3,1.8-2,2.6-5.4,2.6c-3.3,0-5.1-0.9-5.1-2.6v-62.8c0-2.2,1.9-3.3,5.8-3.3l19.9-0.2c0.5-0.1,1.7-0.2,3.5-0.2
			c9.2,0,16.2,3.4,21.1,10.2c4.4,6.1,6.8,13.8,6.8,23.2L1531.2,870L1531.2,870L1531.2,870z"/>
		<path d="M1572.6,811.7c0,3.1-1,4.6-2.9,4.6h-10.6v52.1c0,2.4-1.8,3.6-5.4,3.6c-3.8,0-5.8-1.2-5.8-3.6v-52.1h-4.4
			c-1.8,0-2.7-1.4-2.7-4.4c0-3.2,0.9-4.9,2.7-4.9h4.4v-18.1c0-2.4,1.8-3.7,5.5-3.7c3.7,0,5.7,1,5.7,3.2V807h10.6
			C1571.6,807.1,1572.6,808.7,1572.6,811.7"/>
		<path d="M1625.7,813.2h-17.8h-2.1c-5.2,0.9-9,4.1-11.5,9.6c-1.9,4.2-2.9,9.4-2.9,15.3c0,6.7,1.3,12.2,3.9,16.8
			c3.2,5.7,7.9,8.5,14,8.5c6,0,10.7-2.9,14.2-8.7c1.2-2,1.9-7.8,2-17.1L1625.7,813.2z M1636.9,870.3c0,1.8-1.7,2.6-5,2.6
			c-3.3,0-5.1-0.9-5.4-2.6v-7.7c-4.4,6.5-10.5,9.8-18.2,9.8c-9.3,0-16.4-3.7-21.6-11.2c-4.5-6.6-6.9-14.6-6.9-24.2
			c0-9.5,2.2-17.2,6.8-23.2c4.9-6.8,12.1-10.2,21.1-10.2c1.8,0,3,0.1,3.5,0.1l19.9,0.3c3.8,0,5.8,1.1,5.8,3.3L1636.9,870.3
			L1636.9,870.3z"/>
		<path d="M1662.7,867.9c0,2.8-1.8,4.2-5.4,4.2c-3.8,0-5.9-1.4-5.9-4.2V792c0-2.2,1-4.6,2.8-7.3c2-2.8,4-4.2,6.2-4.2
			c1.4,0,2.1,1.1,2.1,3.4v83.9L1662.7,867.9L1662.7,867.9z"/>
		<path d="M1779.2,869.5c-0.2,1.9-2.2,2.9-6.1,2.9c-3.4,0-5.2-1-5.2-2.9v-32.4c0-5.5-1.1-10.4-3.3-14.8c-2.6-5.3-6.5-8.4-11.3-9.2
			h-2.1h-17.9v56.5c-0.3,1.8-2.3,2.7-6.2,2.7c-3.3,0-5.1-0.9-5.1-2.6v-86.4c0-2.2,1.9-3.3,5.8-3.3c3.6,0,5.5,1.1,5.5,3.3V804h14.5
			h3.5c9.2,0,16.2,3.4,21.1,10.2c4.4,6.1,6.7,13.8,6.7,23.2L1779.2,869.5L1779.2,869.5z"/>
		<path d="M1837.4,829.6c-0.4-4.4-1.6-7.9-3.6-10.3c-3.5-4.3-8.2-6.5-13.8-6.5c-5.5,0-9.9,1.8-13.3,5.5c-3.2,3.4-5,8-5.5,13.5
			L1837.4,829.6z M1848.7,837.1l-0.1,0.9l-0.1,0.9l-47.7,2.8c0.4,6.3,2.1,11.3,5.4,15.1c3.5,4.2,8.4,6.5,14.4,6.5
			c8.2,0,13.7-3.8,16.4-11.6c1-1.8,3-2.8,6-2.8c3.8,0,5.8,1.1,5.8,3.4l-0.1,0.8c-1.7,6.4-5.3,11.3-10.4,14.6
			c-4.8,3.1-10.7,4.7-17.6,4.7c-10.2,0-17.9-3.1-23.4-9.5c-5.3-6-7.9-14.1-7.9-24.3c0-10.3,2.5-18.4,7.6-24.6
			c5.5-6.9,13.2-10.2,23.1-10.2c8.8,0,16,3,21.5,9c2.6,2.8,4.4,6,5.6,9.5C1847.6,824.6,1848.2,829.5,1848.7,837.1"/>
		<path d="M1907.8,813.2H1890h-2.1c-5.2,0.9-9,4.1-11.5,9.6c-1.9,4.2-2.9,9.4-2.9,15.3c0,6.7,1.3,12.2,3.9,16.8
			c3.2,5.7,7.9,8.5,14.1,8.5c6,0,10.7-2.9,14.2-8.7c1.2-2,1.9-7.8,1.9-17.1L1907.8,813.2z M1919.1,870.3c0,1.8-1.7,2.6-5,2.6
			c-3.3,0-5-0.9-5.4-2.6v-7.7c-4.4,6.5-10.6,9.8-18.3,9.8c-9.2,0-16.4-3.7-21.6-11.2c-4.5-6.6-6.9-14.6-6.9-24.2
			c0-9.5,2.2-17.2,6.8-23.2c4.9-6.8,12-10.2,21.1-10.2c1.8,0,3,0.1,3.5,0.1l19.9,0.3c3.8,0,5.8,1.1,5.8,3.3v62.9L1919.1,870.3
			L1919.1,870.3z"/>
		<path d="M1944.8,867.9c0,2.8-1.8,4.2-5.4,4.2c-3.9,0-5.9-1.4-5.9-4.2V792c0-2.2,0.9-4.6,2.8-7.3c2-2.8,4-4.2,6.3-4.2
			c1.4,0,2.1,1.1,2.1,3.4L1944.8,867.9L1944.8,867.9z"/>
		<path d="M1988.6,811.7c0,3.1-1,4.6-2.9,4.6h-10.6v52.1c0,2.4-1.8,3.6-5.4,3.6c-3.8,0-5.8-1.2-5.8-3.6v-52.1h-4.4
			c-1.8,0-2.7-1.4-2.7-4.4c0-3.2,0.9-4.9,2.7-4.9h4.4v-18.1c0-2.4,1.8-3.7,5.5-3.7c3.7,0,5.7,1,5.7,3.2V807h10.6
			C1987.7,807.1,1988.6,808.7,1988.6,811.7"/>
		<path d="M2054.1,869.5c-0.2,1.9-2.2,2.9-6.1,2.9c-3.4,0-5.2-1-5.2-2.9v-32.4c0-5.5-1.1-10.4-3.3-14.8c-2.6-5.3-6.5-8.4-11.3-9.2
			h-2.1h-17.9v56.5c-0.3,1.8-2.3,2.7-6.3,2.7c-3.3,0-5.1-0.9-5.1-2.6v-86.4c0-2.2,1.9-3.3,5.8-3.3c3.6,0,5.5,1.1,5.5,3.3V804h14.5
			h3.5c9.2,0,16.2,3.4,21.1,10.2c4.4,6.1,6.7,13.8,6.7,23.2v32.2L2054.1,869.5L2054.1,869.5z"/>
	</g>
	<g id="o_blaid_gwell_2_">
		<path d="M594.2,943.1c0,14.5-4.6,24.2-14,29.4c-4.6,2.5-9.6,3.8-15,3.8c-9.7,0-16.9-3.1-21.9-9.3c-4.7-5.7-7.1-13.3-7.1-23.1
			c0-11.5,3.2-19.9,9.6-25.5c5.4-4.6,11.8-6.9,19.5-6.9c9.4,0,16.6,2.9,21.7,8.9C591.8,926.1,594.2,933.6,594.2,943.1z M583.5,943.7
			c0-6.5-1.4-11.8-4.1-15.9c-3.2-4.9-7.9-7.4-14.1-7.4c-6.4,0-11.1,2.5-14.2,7.5c-2.7,4.1-4,9.6-4,16.2s1.3,12.1,4,16.2
			c3.2,4.9,8,7.5,14.2,7.5c6.4,0,11.1-2.5,14.2-7.7C582.1,955.7,583.5,950.3,583.5,943.7z"/>
		<path d="M700,943.1c0,9.1-2.1,16.6-6.5,22.7c-4.9,7-11.7,10.5-20.3,10.5c-7.4,0-13.1-3-17.2-9.1v6.6c-0.2,1.7-1.9,2.5-5,2.5
			c-3.1,0-4.7-0.8-4.7-2.5v-81.3c0-2.1,1.8-3.1,5.5-3.1c3.3,0,5,1,5,3.1v19.4h13.7c0.5,0,1.6,0,3.3,0c8.7,0,15.3,3.2,19.9,9.6
			C697.9,927,700,934.2,700,943.1z M689.2,943.9c0-5.7-0.9-10.4-2.7-14.4c-2.4-5.2-6-8.2-10.8-9.1c-0.3,0-1,0-2,0h-16.8l0.3,22.9
			c0.1,8.9,0.7,14.2,1.8,16.1c3.3,5.5,7.8,8.2,13.4,8.2c5.9,0,10.2-2.7,13.2-8C687.9,955.3,689.2,950.1,689.2,943.9z"/>
		<path d="M723,972c0,2.6-1.7,3.9-5,3.9c-3.6,0-5.5-1.3-5.5-3.9v-71.4c0-2.1,0.9-4.4,2.7-6.9c1.9-2.6,3.8-3.9,5.9-3.9
			c1.3,0,2,1.1,2,3.2V972L723,972L723,972z"/>
		<path d="M791.6,974.2c0,1.7-1.6,2.5-4.7,2.5c-3.1,0-4.7-0.8-5-2.5v-7.2c-4.1,6.2-9.9,9.2-17.2,9.2c-8.7,0-15.4-3.5-20.3-10.5
			c-4.2-6.2-6.5-13.8-6.5-22.8c0-9,2.1-16.2,6.4-21.8c4.6-6.4,11.3-9.6,19.9-9.6c1.7,0,2.8,0.1,3.3,0.1l18.7,0.3
			c3.6,0,5.5,1.1,5.5,3.1L791.6,974.2L791.6,974.2z M781,920.5h-16.8c-1.2,0-1.9,0-2,0c-4.8,0.8-8.5,3.8-10.8,9.1
			c-1.8,4-2.7,8.8-2.7,14.4c0,6.3,1.2,11.5,3.6,15.8c3,5.4,7.5,8,13.2,8c5.7,0,10.1-2.7,13.4-8.2c1.2-1.9,1.8-7.3,1.9-16.1
			L781,920.5z"/>
		<path d="M817,894.9c0,1.8-0.6,3.3-1.9,4.6c-1.2,1.3-2.7,1.9-4.5,1.9s-3.3-0.6-4.5-1.9c-1.2-1.3-1.8-2.8-1.8-4.6s0.6-3.3,1.8-4.5
			c1.2-1.3,2.7-1.9,4.5-1.9s3.3,0.6,4.5,1.9C816.4,891.5,817,893.1,817,894.9z M816.1,973.1c-0.2,1.8-2.1,2.7-5.7,2.7
			c-3.2,0-4.8-0.9-4.8-2.7v-57.2c0-2.2,1.7-3.3,5.2-3.3c3.6,0,5.4,1.1,5.4,3.3L816.1,973.1L816.1,973.1z"/>
		<path d="M885.6,973.7c0,1.7-1.6,2.5-4.7,2.5s-4.7-0.8-5-2.5v-6.6c-4.1,6.1-9.9,9.1-17.2,9.1c-8.7,0-15.4-3.5-20.3-10.5
			c-4.2-6.2-6.5-13.7-6.5-22.7c0-8.9,2.1-16.2,6.4-21.8c4.6-6.4,11.3-9.6,19.9-9.6c1.7,0,2.8,0,3.3,0h13.7v-19.2
			c0-2.1,1.7-3.1,5-3.1c3.6,0,5.5,1,5.5,3.1V973.7L885.6,973.7z M875.1,920.5h-16.8c-1.2,0-1.9,0-2,0c-4.8,0.8-8.5,3.8-10.8,9
			c-1.8,4-2.7,8.8-2.7,14.4c0,6.3,1.2,11.5,3.6,15.8c3,5.4,7.5,8,13.2,8c5.7,0,10.1-2.7,13.4-8.1c1.2-1.9,1.8-7.3,1.9-16.1
			L875.1,920.5z"/>
		<path d="M989.1,974.2c0,0.6-0.2,1.1-0.5,1.4c-0.3,3.3-0.8,6.1-1.4,8c-3.4,11-12.6,16.4-27.4,16.4c-12,0-19.7-3.3-23.3-9.9
			c-0.3-0.4-0.4-0.8-0.4-1.3c0-1.3,0.7-2.4,2.2-3.3c1.3-0.8,2.6-1.2,3.9-1.2c1.4,0,2.5,0.5,3.3,1.4c1.4,1.6,2.2,2.5,2.4,2.6
			c2.6,1.9,6.6,2.9,11.9,2.9c9.9,0,15.8-3.7,17.8-11.1c0.5-1.9,0.7-5.8,0.7-11.7c-4,5.2-9.4,7.7-16.1,7.7c-8.7,0-15.4-3.5-20.3-10.5
			c-4.3-6.2-6.5-13.8-6.5-22.8c0-9,2.1-16.2,6.4-21.8c4.6-6.4,11.3-9.6,19.9-9.6c1.7,0,2.8,0.1,3.3,0.1l18.7,0.3
			c3.6,0,5.5,1.1,5.5,3.1L989.1,974.2L989.1,974.2L989.1,974.2z M978.5,920.5h-16.8c-1.2,0-1.9,0-2,0c-4.8,0.8-8.4,3.8-10.8,9.1
			c-1.8,4-2.7,8.8-2.7,14.4c0,6.3,1.2,11.5,3.6,15.8c3,5.4,7.5,8,13.2,8c5.7,0,10.1-2.7,13.4-8.2c1.2-1.9,1.8-7.3,1.8-16.1
			L978.5,920.5z"/>
		<path d="M1087.3,954.3c0,6.7-2.1,11.8-6.5,15.5c-4,3.5-9.5,5.4-16.2,5.4c-4.2,0-8.2-1.1-11.8-3.2c-3.9-2.3-6.5-5.5-7.4-9.4
			c-1.4,3.9-3.7,7-7,9.3c-3.2,2.2-7,3.4-11.1,3.4c-16.3,0-24.3-9.7-24.2-29.1l0.2-31.9c0-2.6,1.6-3.9,4.7-3.9c3.8,0,5.8,1.3,5.8,3.9
			V944c0,7.5,0.5,12.5,1.5,15.1c1.8,4.6,5.7,7.1,11.5,7.1c4,0,7.3-1.3,9.8-4c2.4-2.5,3.5-6,3.5-10v-37.8c-0.2-1.3,0.4-2.3,1.8-3.1
			c1.2-0.7,2.4-1,3.8-1c3.2,0,4.9,1.4,4.9,4.2v35.4c0,11,4.6,16.5,14,16.5c8.2,0,12.2-5,12.2-15.2v-36.7c-0.2-1.3,0.3-2.4,1.6-3.1
			c1-0.6,2.3-0.9,3.7-0.9c3.3,0,5.1,1.4,5.1,4L1087.3,954.3L1087.3,954.3z"/>
		<path d="M1154.3,943c0,0.2,0,0.5-0.1,0.9c-0.1,0.4-0.1,0.7-0.1,0.9l-44.8,2.7c0.4,5.9,2,10.6,5.1,14.2c3.3,4,7.8,6.1,13.5,6.1
			c7.7,0,12.9-3.6,15.4-10.9c1-1.7,2.8-2.6,5.6-2.6c3.6,0,5.5,1.1,5.5,3.2c0,0.2,0,0.5-0.1,0.7c-1.6,6.1-4.9,10.6-9.8,13.7
			c-4.5,2.9-10.1,4.4-16.5,4.4c-9.6,0-16.9-3-22-9c-4.9-5.7-7.5-13.2-7.5-22.8c0-9.7,2.4-17.4,7.2-23.2c5.2-6.5,12.4-9.7,21.8-9.7
			c8.3,0,15,2.8,20.3,8.5c2.4,2.6,4.1,5.7,5.2,9C1153.3,931.2,1153.9,935.9,1154.3,943z M1143.6,936c-0.4-4.2-1.5-7.5-3.4-9.7
			c-3.3-4-7.7-6.1-13-6.1c-5.2,0-9.3,1.7-12.5,5.2c-3.1,3.2-4.7,7.5-5.2,12.7L1143.6,936z"/>
		<path d="M1178.3,972c0,2.6-1.7,3.9-5,3.9c-3.6,0-5.5-1.3-5.5-3.9v-71.4c0-2.1,0.9-4.4,2.7-6.9c1.9-2.6,3.8-3.9,5.9-3.9
			c1.3,0,2,1.1,2,3.2L1178.3,972L1178.3,972L1178.3,972z"/>
		<path d="M1204.8,972c0,2.6-1.7,3.9-5.1,3.9c-3.6,0-5.5-1.3-5.5-3.9v-71.4c0-2.1,0.9-4.4,2.7-6.9c1.9-2.6,3.8-3.9,5.9-3.9
			c1.3,0,2,1.1,2,3.2L1204.8,972L1204.8,972L1204.8,972z"/>
		<path d="M1272.4,894.9c0,1.8-0.6,3.3-1.9,4.6c-1.2,1.3-2.7,1.9-4.5,1.9s-3.3-0.6-4.5-1.9c-1.2-1.3-1.8-2.8-1.8-4.6
			s0.6-3.3,1.8-4.5c1.2-1.3,2.7-1.9,4.5-1.9s3.3,0.6,4.5,1.9C1271.8,891.5,1272.4,893.1,1272.4,894.9z M1271.6,973.1
			c-0.2,1.8-2.1,2.7-5.7,2.7c-3.2,0-4.8-0.9-4.8-2.7v-57.2c0-2.2,1.7-3.3,5.2-3.3c3.6,0,5.4,1.1,5.4,3.3L1271.6,973.1L1271.6,973.1z
			"/>
		<path d="M1340.1,943c0,0.2,0,0.5-0.1,0.9c-0.1,0.4-0.1,0.7-0.1,0.9l-44.8,2.7c0.4,5.9,2,10.6,5,14.2c3.3,4,7.8,6.1,13.5,6.1
			c7.7,0,12.9-3.6,15.4-10.9c1-1.7,2.8-2.6,5.6-2.6c3.6,0,5.5,1.1,5.5,3.2c0,0.2,0,0.5-0.1,0.7c-1.6,6.1-4.9,10.6-9.8,13.7
			c-4.5,2.9-10.1,4.4-16.5,4.4c-9.6,0-16.9-3-22-9c-4.9-5.7-7.5-13.2-7.5-22.8c0-9.7,2.4-17.4,7.2-23.2c5.2-6.5,12.4-9.7,21.8-9.7
			c8.3,0,15,2.8,20.3,8.5c2.4,2.6,4.1,5.7,5.2,9C1339.1,931.2,1339.6,935.9,1340.1,943z M1329.5,936c-0.4-4.2-1.5-7.5-3.4-9.7
			c-3.3-4-7.7-6.1-13-6.1c-5.2,0-9.3,1.7-12.5,5.2c-3.1,3.2-4.7,7.5-5.2,12.7L1329.5,936z"/>
		<path d="M1402.7,960.1c0,0.6-0.2,1.2-0.6,1.6c-4.5,9.7-12.4,14.5-23.3,14.5c-9.3,0-16.4-3.1-21.3-9.4c-4.5-5.7-6.9-13.3-6.9-22.7
			c0-14.3,4.5-23.8,13.5-28.8c4.5-2.5,9.5-3.7,14.7-3.7c9.9,0,17,3.5,21.4,10.6c0.1,0.2,0.1,0.3,0.1,0.5c0,1.4-0.8,2.6-2.3,3.8
			c-1.6,1.2-3,1.8-4.4,1.8c-0.9,0-1.6-0.4-2-1.1c-2.4-4.7-6.5-7.1-12.3-7.1c-11.9,0-17.8,7.9-17.8,23.6c0,15.8,5.8,23.7,17.2,23.7
			c7.5,0,12.3-3.5,14.5-10.7c0.8-1.3,1.9-2,3.4-2c1.5,0,2.8,0.5,4.1,1.4C1402,957.5,1402.7,958.7,1402.7,960.1z"/>
		<path d="M1467.1,973.5c-0.2,1.8-2.1,2.7-5.7,2.7c-3.2,0-4.8-0.9-4.8-2.7v-30.5c0-5.2-1.1-9.8-3.1-13.9c-2.5-4.9-6.1-7.9-10.7-8.7
			c-0.3,0-1,0-2,0h-16.8v53.2c-0.2,1.7-2.2,2.6-5.9,2.6c-3.1,0-4.7-0.8-4.7-2.5v-81.3c0-2.1,1.8-3.1,5.5-3.1c3.4,0,5.2,1,5.2,3.1
			v19.3h13.6c0.5,0,1.6,0,3.3,0c8.7,0,15.3,3.2,19.9,9.6c4.2,5.7,6.4,13,6.4,21.8v30.4L1467.1,973.5L1467.1,973.5z"/>
		<path d="M1530.4,966.5c0,7.7-0.6,13.4-1.7,17.1c-3.4,10.9-12.6,16.4-27.4,16.4c-11.9,0-19.7-3.3-23.3-9.9
			c-0.3-0.4-0.5-0.8-0.5-1.3c0-1.2,0.8-2.3,2.4-3.2c1.4-0.8,2.7-1.2,4-1.2s2.4,0.5,3.1,1.3c1.4,1.5,2.1,2.4,2.3,2.5
			c2.5,1.9,6.5,2.9,11.8,2.9c9.9,0,15.8-3.6,17.7-11.1c0.2-0.9,0.4-2.1,0.5-3.7l-12.5,0.2c-0.5,0.1-1.6,0.1-3.3,0.1
			c-8.7,0-15.3-3.2-19.9-9.6c-4.2-5.7-6.4-13-6.4-21.8v-31c0.2-1.8,2.1-2.7,5.7-2.7c3.2,0,4.8,0.9,4.8,2.7v31c0,5.2,1,9.8,3.1,13.9
			c2.5,4.9,6.1,7.9,10.7,8.7c0.3,0,0.9,0,2,0h16v-1.1c0.3-3.1,0.5-7.1,0.5-11.7v-40.9c0.2-1.7,1.9-2.5,5-2.5c3.2,0,4.7,0.8,4.7,2.5
			v0.8c0.3,0.5,0.4,1,0.4,1.6v50L1530.4,966.5L1530.4,966.5z"/>
		<path d="M1599.7,973.7c0,1.7-1.6,2.5-4.7,2.5c-3.1,0-4.7-0.8-5.1-2.5v-6.6c-4.1,6.1-9.9,9.1-17.2,9.1c-8.7,0-15.4-3.5-20.3-10.5
			c-4.2-6.2-6.5-13.7-6.5-22.7c0-8.9,2.1-16.2,6.4-21.8c4.6-6.4,11.3-9.6,19.9-9.6c1.7,0,2.8,0,3.3,0h13.7v-19.2
			c0-2.1,1.7-3.1,5-3.1c3.6,0,5.5,1,5.5,3.1L1599.7,973.7L1599.7,973.7z M1589.2,920.5h-16.8c-1.2,0-1.9,0-2,0
			c-4.8,0.8-8.5,3.8-10.8,9c-1.8,4-2.7,8.8-2.7,14.4c0,6.3,1.2,11.5,3.6,15.8c3,5.4,7.5,8,13.2,8c5.7,0,10.1-2.7,13.4-8.1
			c1.2-1.9,1.8-7.3,1.9-16.1L1589.2,920.5z"/>
		<path d="M1736.8,945L1736.8,945v27.7c0,2.2-1.7,3.3-5.2,3.3c-3.6,0-5.4-1.1-5.4-3.3V944c0-9.4-2.3-15.8-6.9-19.3
			c-1.6-1.2-3.7-1.9-6.5-1.9c-4.4,0-8,2.5-10.8,7.7c-1.2,2.3-2,5.9-2.1,10.5c0,0.1,0,0.2,0,0.4c0,0.2,0,0.4,0,0.6v32.1
			c-0.2,1.8-2.1,2.7-5.7,2.7c-3.2,0-4.8-0.9-4.8-2.7c-0.1-0.3-0.1-0.6-0.1-0.9v-28.8c0,0.3,0-0.2,0-1.6c0-0.5,0-1,0-1.6
			c-0.1-4.7-1.3-9.1-3.5-12.9c-2.5-4.4-6-7.1-10.2-7.9c-0.3,0-1,0-2,0h-13v53.8c-0.2,1.7-1.9,2.5-5,2.5c-3.1,0-4.7-0.8-4.7-2.5V915
			c0-2,1.8-3,5.5-3.1l14-0.2c0.5-0.1,1.6-0.2,3.3-0.2c9.3,0,16.2,3.7,20.9,11.2c1.8-2.6,4-4.8,6.8-6.6c4-2.5,7.9-3.8,11.4-3.8
			c7.7,0,13.7,3.4,18.1,10.2C1734.9,928.3,1736.8,935.7,1736.8,945z"/>
		<path d="M1802,943c0,0.2,0,0.5-0.1,0.9c-0.1,0.4-0.1,0.7-0.1,0.9l-44.8,2.7c0.4,5.9,2,10.6,5.1,14.2c3.3,4,7.8,6.1,13.5,6.1
			c7.7,0,12.9-3.6,15.4-10.9c1-1.7,2.8-2.6,5.6-2.6c3.6,0,5.5,1.1,5.5,3.2c0,0.2,0,0.5-0.1,0.7c-1.6,6.1-4.9,10.6-9.8,13.7
			c-4.5,2.9-10.1,4.4-16.5,4.4c-9.6,0-16.9-3-22-9c-4.9-5.7-7.5-13.2-7.5-22.8c0-9.7,2.4-17.4,7.2-23.2c5.2-6.5,12.4-9.7,21.8-9.7
			c8.3,0,15,2.8,20.3,8.5c2.4,2.6,4.1,5.7,5.2,9C1800.9,931.2,1801.5,935.9,1802,943z M1791.4,936c-0.4-4.2-1.5-7.5-3.4-9.7
			c-3.3-4-7.7-6.1-13-6.1c-5.2,0-9.3,1.7-12.5,5.2c-3.1,3.2-4.7,7.5-5.2,12.7L1791.4,936z"/>
		<path d="M1869.3,973.7c0,1.7-1.6,2.5-4.7,2.5s-4.7-0.8-5-2.5v-6.6c-4.1,6.1-9.9,9.1-17.2,9.1c-8.7,0-15.4-3.5-20.3-10.5
			c-4.2-6.2-6.5-13.7-6.5-22.7c0-8.9,2.1-16.2,6.4-21.8c4.6-6.4,11.3-9.6,19.9-9.6c1.7,0,2.8,0,3.3,0h13.7v-19.2
			c0-2.1,1.7-3.1,5.1-3.1c3.6,0,5.5,1,5.5,3.1L1869.3,973.7L1869.3,973.7z M1858.8,920.5H1842c-1.2,0-1.9,0-2,0
			c-4.8,0.8-8.5,3.8-10.8,9c-1.8,4-2.7,8.8-2.7,14.4c0,6.3,1.2,11.5,3.6,15.8c3,5.4,7.5,8,13.2,8c5.7,0,10.1-2.7,13.4-8.1
			c1.2-1.9,1.8-7.3,1.9-16.1L1858.8,920.5z"/>
		<path d="M1935.7,973.7c0,1.7-1.6,2.5-4.7,2.5c-3.1,0-4.7-0.8-5-2.5v-6.6c-4.1,6.1-9.9,9.1-17.2,9.1c-8.7,0-15.4-3.5-20.3-10.5
			c-4.2-6.2-6.5-13.7-6.5-22.7c0-8.9,2.1-16.2,6.4-21.8c4.6-6.4,11.3-9.6,19.9-9.6c1.7,0,2.8,0,3.3,0h13.7v-19.2
			c0-2.1,1.7-3.1,5-3.1c3.6,0,5.5,1,5.5,3.1L1935.7,973.7L1935.7,973.7z M1925.2,920.5h-16.8c-1.2,0-1.9,0-2,0
			c-4.8,0.8-8.5,3.8-10.8,9c-1.8,4-2.7,8.8-2.7,14.4c0,6.3,1.2,11.5,3.6,15.8c3,5.4,7.5,8,13.2,8c5.7,0,10.1-2.7,13.4-8.1
			c1.2-1.9,1.8-7.3,1.9-16.1L1925.2,920.5z"/>
		<path d="M2031.1,954.3c0,6.7-2.1,11.8-6.5,15.5c-4,3.5-9.5,5.4-16.2,5.4c-4.2,0-8.2-1.1-11.8-3.2c-3.9-2.3-6.5-5.5-7.4-9.4
			c-1.4,3.9-3.7,7-7,9.3c-3.2,2.2-7,3.4-11.1,3.4c-16.3,0-24.3-9.7-24.2-29.1l0.2-31.9c0-2.6,1.6-3.9,4.7-3.9c3.8,0,5.8,1.3,5.8,3.9
			V944c0,7.5,0.5,12.5,1.5,15.1c1.8,4.6,5.7,7.1,11.5,7.1c4,0,7.3-1.3,9.8-4c2.4-2.5,3.5-6,3.5-10v-37.8c-0.2-1.3,0.4-2.3,1.8-3.1
			c1.2-0.7,2.4-1,3.8-1c3.2,0,4.9,1.4,4.9,4.2v35.4c0,11,4.6,16.5,14,16.5c8.2,0,12.2-5,12.2-15.2v-36.7c-0.2-1.3,0.3-2.4,1.6-3.1
			c1-0.6,2.3-0.9,3.7-0.9c3.3,0,5.1,1.4,5.1,4L2031.1,954.3L2031.1,954.3z"/>
		<path d="M2055.7,972c0,2.6-1.7,3.9-5,3.9c-3.6,0-5.5-1.3-5.5-3.9v-71.4c0-2.1,0.9-4.4,2.7-6.9c1.9-2.6,3.8-3.9,5.9-3.9
			c1.3,0,2,1.1,2,3.2V972L2055.7,972L2055.7,972z"/>
	</g>
</g>
</svg>
