<?xml version="1.0" encoding="utf-8"?>
<!-- Generator: Adobe Illustrator 19.2.0, SVG Export Plug-In . SVG Version: 6.00 Build 0)  -->
<svg version="1.1" id="Layer_1" xmlns="http://www.w3.org/2000/svg" xmlns:xlink="http://www.w3.org/1999/xlink" x="0px" y="0px"
	 width="1003px" height="1000px" viewBox="0 0 1003 1000" style="enable-background:new 0 0 1003 1000;" xml:space="preserve">
<path d="M988.3,904c-22.3-15.3-52.2-25.1-79.4-34.8c23.7-10.4,48.1-20.9,68.2-36.2c11.8-9.1,23-22.3,17.4-38.3
	c-6.3-18.8-28.6-23.7-45.3-27.9c-0.7,0-1.4,0-2.8-0.7l0,0c13.2-0.7,13.2-21.6,0-20.9c-32,2.1-64.1,1.4-95.4-2.1
	c-9.1-2.1-17.4-3.5-27.2-3.5c-0.7,0-0.7,0-0.7,0c3.5-4.9,4.2-11.8-2.8-14.6c-2.1-0.7-4.2-1.4-6.3-2.8c0-1.4,0.7-2.8,0.7-4.9
	c2.8-1.4,6.3-2.8,9.1-4.2c10.4-4.9,4.2-18.8-5.6-19.5c-2.8,0-4.9-0.7-7.7-0.7c0-2.1,0-4.2-0.7-5.6c7.7-2.1,15.3-3.5,23-4.9
	c4.9-0.7,7-4.2,7.7-8.4c4.9-5.6,2.1-16.7-7.7-18.1c-23.7-2.8-46.7-1.4-69.6,2.8c-5.6,0.7-11.1,2.1-16.7,3.5c-1.4,0-2.1,0.7-3.5,1.4
	c-0.7,0-1.4,0-2.1,0.7c-1.4,0.7-2.8,1.4-4.2,2.1c-21.6,1.4-42.5,7-62.7,16c-1.4-0.7-2.1-1.4-3.5-2.1c-1.4-2.1-2.8-3.5-5.6-4.9
	c-1.4-2.1-4.2-4.2-8.4-4.2c-80.1-2.1-158.8-10.4-237.5-25.1c0-2.1,0-4.2-0.7-7c48.7,11.8,98.2,15.3,149,11.1h0.7c3.5,0,6.3,0,9.7,0
	c25.1,0,46-2.1,56.4-17.4c2.8,1.4,5.6,0.7,8.4-1.4c2.8-2.1,5.6-4.2,8.4-7c4.2,1.4,9.1,1.4,11.8-1.4c18.1-18.8,38.3-40.4,41.8-67.5
	c2.8-20.9-4.9-43.2-7-63.4c-2.1-22.3-0.7-44.6,0.7-67.5c4.2-90.5,2.8-180.4-7-270.9c-0.7-4.2-2.8-7-5.6-8.4
	c3.5-6.3-1.4-15.3-9.1-15.3c-57.8,0-114.9,0-172.7-0.7c4.2-29.2,7.7-66.2-8.4-89.8c-9.7-14.6-23-18.1-37.6-18.1
	C427.7-0.6,356-4.8,333,5c-5.6,4.9-12.5,9.7-18.1,16.7c-5.6,1.4-10.4,2.1-14.6,2.8c-5.6,0.7-7.7,4.9-7.7,9.1c-2.8,1.4-5.6,3.5-6.3,7
	c-2.8,19.5-4.2,39-2.8,58.5c0,3.5,2.8,7,5.6,8.4c0,2.8,0,5.6,0,8.4c-7,0-11.8,8.4-9.7,13.9c-3.5-1.4-7-2.8-10.4-4.2
	c-2.8-4.2-7.7-7-13.2-2.8c-7,4.9-14.6,9.7-22.3,13.9c-2.1-0.7-4.9,0-7,1.4c-19.5,13.2-40.4,24.4-62,34.1c-2.1,0.7-3.5,2.8-4.9,4.2
	h-0.7c-4.9,0.7-8.4,2.8-9.1,6.3c-5.6-0.7-11.8,2.8-11.1,9.7c0.7,18.8,1.4,37.6,2.1,56.4c-1.4,1.4-2.8,4.2-2.8,7
	c2.1,82.9,4.2,165,5.6,247.9c-27.9-2.8-55-6.3-82.9-9.1c-3.5-0.7-6.3,1.4-8.4,3.5c-5.6-0.7-11.8-2.1-17.4-2.8
	c-7-1.4-13.2,2.8-13.2,9.7c0,9.7-0.7,19.5-0.7,29.2c-0.7,1.4-1.4,2.8-1.4,4.9c-2.1,18.1-3.5,35.5-4.2,53.6
	c-4.2,37.6-9.1,73.8-15.3,110c-1.4,9.7,9.1,15.3,16,11.8c4.2,4.2,11.1,3.5,15.3-0.7c0.7,2.1,0.7,4.2,1.4,6.3
	c1.4,4.2,5.6,7.7,9.7,7.7c5.6,0,11.8,0,17.4,0c50.8,25.8,112.1,32,168.5,34.1c46.7,1.4,106.5,4.9,151.1-13.9
	c0.7-0.7,2.1-0.7,2.8-1.4c10.4-2.8,20.2-11.1,26.5-24.4c5.6-11.8,9.1-25.8,11.1-41.1c32.7,4.9,64.8,9.1,97.5,13.9
	c44.6,7,92.6,20.2,139.3,22.3c2.8,7,7,13.2,11.8,18.8c-18.8,2.8-35.5,8.4-46.7,19.5c-21.6,22.3-2.1,46,21.6,53.6
	c11.1,3.5,49.4,16,22.3,25.1c-13.2,4.9-32.7,2.8-46.7,2.8c-29.2,0.7-59.2-0.7-88.4,0c-45.3,0.7-104.5,0.7-142.8,29.2
	c-24.4,18.1-35.5,51.5-7.7,72.4c34.8,26.5,100.3,22.3,140.7,23c64.1,0.7,129.5-3.5,191.5,13.9c27.2,7.7,53.6,20.9,82.2,23.7
	c20.2,2.1,41.1-1.4,60.6-6.3c35.5-7.7,71-19.5,105.2-32.7c13.9-5.6,35.5-11.1,41.1-27.9C1006.4,919.3,998.7,910.2,988.3,904z
	 M317,739.6c-1.4-1.4-2.8-2.1-4.9-2.8c-63.4-16.7-127.4-27.2-192.9-29.9c-23-4.2-46.7-7.7-70.3-8.4l0,0c-4.2-20.2-7-41.1-6.3-62
	c0.7-6.3,1.4-12.5,2.1-18.8c0.7-5.6,0.7-11.8,1.4-18.1c1.4-9.7,4.2-18.8,7-27.9c9.1-18.8,16.7-14.6,29.9-27.9
	c3.5-3.5,7-9.1,8.4-14.6c22.3,4.2,45.3,7.7,67.5,11.8c32.7,5.6,67.5,15.3,101,10.4l0,0l0,0c0.7,0,2.1,0,2.8,0
	c6.3-1.4,7.7-5.6,7.7-9.7c2.1,0,3.5,0.7,5.6,0.7c17.4,2.1,36.2,2.8,53.6,6.3c-11.1,23-16,55.7-18.1,71.7
	c-4.2,38.3,1.4,89.8,32.7,117l0,0C335.8,737.5,326.7,738.9,317,739.6z M255,148.4c1.4,6.3,2.8,11.8,4.2,18.1
	c-10.4,4.9-30.6,7.7-50.8,9.1C223.7,167.2,239.7,158.2,255,148.4z M654.7,151.2c-1.4,1.4-3.5,3.5-4.9,4.9c-4.9,2.8-9.1,7-12.5,13.2
	c-1.4,2.8-1.4,5.6-0.7,7.7c-7,11.1-9.7,25.1-10.4,39.7c-7-5.6-16.7-7.7-27.2-9.1c-24.4-3.5-49.4,1.4-73.8,1.4
	c-27.2,0-53.6-6.3-80.8-11.1c-50.8-9.1-103.1-8.4-155.3-7.7c-0.7,0-2.1,0-2.8,0c0-11.8,0-23,0-34.8c2.1,0.7,4.2,1.4,6.3,1.4
	c2.8,3.5,7.7,4.2,11.8,2.8c23.7,4.9,48.1,6.3,73.8,3.5c3.5-0.7,6.3-2.1,7.7-4.2c32.7,4.2,65.5,5.6,98.9,4.9c4.2,0,7.7-2.8,9.7-6.3
	c4.2,0,7.7-2.8,9.1-7c0.7,0,1.4,0,2.8,0l0,0C555.8,151.2,605.3,151.2,654.7,151.2z M684.7,557.2c-0.7,3.5-2.1,6.3-2.8,9.1
	c-9.7,8.4-17.4,16.7-23.7,26.5c-2.1,2.1-4.2,4.2-7,6.3c0-0.7,0-0.7,0-1.4c2.8-64.1-0.7-128.8-4.2-192.9c-0.7-18.1-2.1-36.9-2.8-55
	c0-17.4,0-34.1,0-51.5c0-31.3-11.8-112.1,27.2-124c1.4-0.7,2.8-1.4,3.5-2.1c7,70.3,9.1,141.4,7,211.7c-1.4,35.5-5.6,71.7-2.8,107.9
	C681.9,514,689.5,535.6,684.7,557.2z M466,87.1c-4.9,9.7-18.8,17.4-31.3,20.9c-30.6,8.4-60.6,7.7-86.4-11.8
	c-10.4-8.4-20.9,9.7-10.4,18.1c23.7,18.1,52.2,22.3,81.5,18.1c16-2.1,39.7-6.3,55-17.4c0,4.9,0,10.4,0,15.3c0,0,0,0-0.7,0
	c-7.7,0-11.1,7-9.7,13.2c-52.2,0-103.1-7-153.2-20.9c0-15.3,0-31.3,2.8-46C347.6,81.6,381,87.1,415.2,92c3.5,0.7,7-0.7,9.1-2.8
	c8.4,0.7,16,0.7,24.4,0.7C454.2,89.2,460.4,88.5,466,87.1z M408.9,29.3c-5.6,6.3-3.5,17.4,7,17.4c3.5,0,7,0,11.1-0.7
	c7.7,0,14.6,2.1,21.6,5.6c1.4,2.1,2.1,4.9,3.5,7c0.7,2.8,2.8,4.2,4.9,5.6c-13.2,3.5-31.3,3.5-50.8,2.8C379,58.6,352.5,50.2,326,41.9
	c0.7-0.7,0.7-1.4,1.4-2.1C351.8,34.2,383.1,26.5,408.9,29.3z M41.9,519.6c2.8,0.7,4.9,0.7,7.7,1.4c-3.5,5.6-6.3,11.8-8.4,18.1
	C41.9,532.1,41.9,525.8,41.9,519.6z M392.2,613.6c-5.6,3.5-6.3,13.2,0,17.4c0,2.1,0,3.5-0.7,5.6c0,1.4,0,2.1-0.7,3.5
	c-6.3-1.4-12.5-2.8-18.8-4.2c-7.7-2.1-12.5,4.9-12.5,11.8c-1.4,0-2.1,0-3.5,0c-2.1,0-4.2,0-5.6,0.7c-5.6-13.2-6.3-27.9-6.3-41.8
	c0-3.5,9.1-48.1,6.3-49.4c2.8,1.4,6.3,1.4,8.4,0.7c10.4,6.3,19.5,14.6,26.5,27.2c1.4,2.1,2.1,4.2,2.8,6.3
	C391.5,598.3,392.2,605.9,392.2,613.6z M709.7,715.3c2.1,0,3.5,0,4.9-0.7c2.8,1.4,5.6,2.8,8.4,4.9c-4.9-1.4-9.1-2.8-13.9-4.2
	C709,715.3,709,715.3,709.7,715.3z M624.1,463.9c0,34.1-2.1,68.9-1.4,103.1c0.7,27.2,9.1,61.3-29.9,62c-5.6,0-11.8,0-17.4,0.7
	c-1.4-0.7-2.8-0.7-4.2-0.7c-4.2,0.7-8.4,0.7-11.8,0.7c-46.7,0-94-2.1-139.3-13.2c-1.4-7-2.8-13.9-4.9-20.2
	C408.9,553,388,514,358.1,521c-4.9,1.4-9.7,4.2-13.9,7.7c-16-4.2-33.4-6.3-52.2-7.7c-41.8-4.9-84.3-9.1-126-13.9
	c0.7-101-0.7-202-5.6-302.9c1.4,1.4,3.5,2.8,6.3,2.8c50.1,5.6,99.6,7.7,150.4,6.3c3.5,0,6.3-1.4,7.7-3.5c34.8,0,68.9,0.7,103.1,5.6
	c36.9,5.6,72.4,14.6,110,13.2c18.8-0.7,50.1-7.7,67.5,0c15.3,7.7,12.5,20.9,13.9,36.2c2.1,26.5,3.5,52.9,5.6,79.4
	C624.1,384.5,624.1,424.2,624.1,463.9z M346.9,703.4c-5.6-7-8.4-18.8-10.4-27.2c-0.7-2.1-1.4-4.9-1.4-7c1.4,0.7,2.1,0.7,3.5,1.4
	c9.1,17.4,23.7,32,41.8,29.2c7-0.7,13.2-4.2,18.1-9.7c-0.7,6.3-2.1,11.8-4.9,14.6C387.3,712.5,353.2,711.1,346.9,703.4z
	 M972.3,926.3c-1.4,11.1-9.1,16-23,15.3c-13.9,5.6-28.6,10.4-42.5,15.3C879,966,849,975,820.5,977.8c-32.7,2.8-59.2-9.7-89.1-19.5
	c-49.4-15.3-101-17.4-151.8-18.1c-25.1,0-50.8,0-75.9-0.7c-25.1-0.7-72.4,2.8-94-11.1c-43.9-28.6-4.9-50.1,14.6-57.1
	c15.3-5.6,31.3-8.4,47.4-10.4c28.6-4.2,57.8-4.2,86.4-3.5c29.2,0,59.2,1.4,88.4-0.7c13.9-0.7,33.4,0,45.3-7.7
	c20.9-13.2,12.5-36.9-4.9-48.7c-8.4-5.6-18.8-4.9-27.2-9.1c-2.8-0.7-5.6-1.4-9.1-2.1c-7.7-18.1-4.2-27.9,9.7-27.9
	c10.4-4.2,23.7-5.6,37.6-6.3c26.5,11.1,59.9,13.9,85,4.9c4.2,1.4,8.4,2.1,11.8,3.5c2.8,0.7,5.6,0.7,7.7-0.7
	c17.4,6.3,34.1,12.5,51.5,18.8c4.9,2.1,9.1-0.7,11.8-4.9c13.9,0.7,28.6,2.1,42.5,4.9c8.4,1.4,16.7,2.8,25.1,4.9
	c16,3.5,23.7,1.4,27.9,19.5c4.2,17.4,2.8,13.9-10.4,20.9c-7,3.5-14.6,7.7-22.3,11.1c-16.7,8.4-33.4,16.7-49.4,25.1
	c-6.3,3.5-7,15.3,0,18.1c25.1,10.4,62,19.5,84.3,36.2C973.7,915.1,977.1,918.6,972.3,926.3z"/>
</svg>
