<?xml version="1.0" encoding="utf-8"?>
<!-- Generator: Adobe Illustrator 19.2.0, SVG Export Plug-In . SVG Version: 6.00 Build 0)  -->
<svg version="1.1" id="Layer_1" xmlns="http://www.w3.org/2000/svg" xmlns:xlink="http://www.w3.org/1999/xlink" x="0px" y="0px"
	 width="1579px" height="1000px" viewBox="0 0 1579 1000" style="enable-background:new 0 0 1579 1000;" xml:space="preserve">
<g>
	<path d="M1577.1,672.6c4.7-55.6-42.4-116-77.3-156.6c-77.3-90.5-94.3-212.2-150-315c-53.8-97.1-140.5-182-254.6-199
		C1014.1-9.3,898.1,25.6,899,124.7c0,17.9,28.3,17.9,28.3,0c-0.9-81.1,99-103.7,163.2-94.3c61.3,8.5,117.9,40.6,161.3,84.9
		c86.8,87.7,113.2,204.7,160.3,315c21.7,50,52.8,87.7,86.8,128.3c19.8,23.6,38.7,49,45.3,78.3c-1.9-1.9-4.7-2.8-6.6-3.8
		c-34-21.7-94.3-36.8-127.3-16c0-1.9-0.9-3.8-0.9-4.7c-10.4-53.8-28.3-105.6-50-155.6c-22.6-50.9-50-102.8-84.9-146.2
		c-13.2-17-29.2-33-47.2-45.3c-23.6-16-45.3-17-46.2-51.9c0-5.7-4.7-12.3-10.4-13.2c-17.9-2.8-29.2-5.7-31.1-25.5
		c0-5.7-3.8-12.3-10.4-13.2c-15.1-1.9-30.2-3.8-45.3-2.8c0-2.8,0-4.7-0.9-7.5c-0.9-7.5-5.7-14.1-14.1-14.1c-6.6,0-13.2,0-19.8,0
		c-19.8-34-101.9-10.4-185.8,27.4c-6.6-1.9-14.1-1.9-23.6,1.9c-5.7,2.8-9.4,7.5-9.4,13.2c-83,38.7-161.3,85.8-180.1,98.1
		c-61.3,42.4-117.9,90.5-160.3,152.8c-26.4,38.7-49,79.2-74.5,116.9c-1.9,0-3.8,0-5.7,0c-13.2,0-17,15.1-11.3,23.6
		c-17.9,23.6-36.8,46.2-60.4,67c-63.2,50.9-133.9,97.1-196.2,154.7c-32.1,30.2-62.2,61.3-91.5,94.3c-9.4,10.4-18.9,19.8-25.5,31.1
		c-15.1-5.7-28.3,15.1-14.1,23.6c-11.3,11.3-15.1,24.5-3.8,41.5c18.9,27.4,56.6,15.1,83,9.4c70.7-16,140.5-34,211.3-50
		c22.6-5.7,45.3-10.4,68.8-15.1c9.4,13.2,17,26.4,37.7,27.4c19.8,0.9,38.7-12.3,49-27.4c3.8-4.7,5.7-10.4,7.5-17
		c79.2-12.3,158.4-20.7,240.5-24.5c21.7-0.9,44.3-1.9,67-2.8c6.6,4.7,15.1,7.5,25.5,6.6c10.4-0.9,14.1-3.8,19.8-8.5
		c17-0.9,34-0.9,51.9-1.9c0.9,6.6,0,15.1,1.9,19.8c13.2,29.2,50.9,24.5,67.9,0.9c4.7-6.6,6.6-15.1,7.5-23.6
		c60.4-2.8,119.8-7.5,179.2-15.1c101.9-13.2,202.8-50,264.1-133c0.9,17.9,0.9,34,20.7,45.3c10.4,5.7,20.7,6.6,29.2,2.8
		c31.1,14.1,69.8,2.8,86.8-29.2c6.6-2.8,13.2-7.5,19.8-12.3c7.5-5.7,13.2-12.3,17.9-18.9c6.6-5.7,11.3-12.3,14.1-18.9
		C1579,687.7,1579,680.1,1577.1,672.6z M1543.2,678.3c-1.9,6.6-4.7,13.2-8.5,18.9c-0.9,0.9-1.9,1.9-2.8,1.9
		c-3.8-24.5-20.7-45.3-41.5-58.5c15.1,4.7,34,13.2,44.3,24.5C1538.4,669.8,1542.2,674.5,1543.2,678.3z M613.3,830.1
		c0-0.9,0-2.8-0.9-3.8c2.8-10.4,5.7-20.7,7.5-31.1c13.2-7.5,26.4-11.3,41.5-11.3c8.5-1.9,12.3,0.9,21.7-2.8
		c5.7-1.9,10.4-5.7,14.1-9.4c5.7,4.7,13.2,7.5,20.7,9.4c6.6,0.9,12.3-0.9,17,4.7c3.8,4.7,3.8,11.3,4.7,17
		c0.9,7.5,5.7,10.4,11.3,10.4c0,0.9-0.9,1.9-0.9,2.8C703.8,818.8,658.5,823.5,613.3,830.1z M386,892.3c4.7-0.9,8.5-0.9,13.2-1.9
		C394.5,891.4,390.7,892.3,386,892.3C386.9,892.3,386,892.3,386,892.3z M532.1,828.2c-4.7-3.8-9.4-7.5-15.1-8.5
		c-2.8-0.9-5.7-0.9-8.5-1.9c27.4-10.4,51.9-29.2,78.3-46.2c15.1-9.4,31.1-18.9,48.1-22.6c11.3-1.9,25.5-0.9,37.7-2.8
		c-3.8,4.7-10.4,7.5-18.9,9.4c-4.7-0.9-9.4-0.9-14.1,0c-31.1,11.3-53.8,27.4-59.4,55.6c-1.9,2.8-2.8,6.6-0.9,10.4c0,1.9,0,3.8,0,6.6
		c-0.9,2.8-1.9,4.7-3.8,6.6c-11.3,1.9-22.6,3.8-33,4.7C539.7,835.8,535.9,832,532.1,828.2z M675.5,551.9
		c-5.7-4.7-12.3-9.4-17.9-14.1c51.9-5.7,70.7,23.6,96.2,63.2c9.4,14.1,18.9,21.7,35.8,18.9s30.2-17,37.7-31.1
		c14.1-26.4-0.9-44.3,44.3-58.5c13.2-3.8,29.2-0.9,42.4-4.7c9.4-2.8,17.9-8.5,26.4-12.3c31.1-13.2,52.8-5.7,83.9-4.7
		c17,0.9,34.9-3.8,47.2-17c34-39.6-28.3-60.4-47.2-83.9c-19.8-23.6-0.9-21.7,11.3-38.7c2.8-3.8,5.7-8.5,7.5-13.2
		c23.6,23.6,57.5,34.9,84.9,52.8c4.7,2.8,9.4,6.6,14.1,11.3c8.5,25.5,23.6,45.3,40.6,67c2.8,3.8,6.6,8.5,9.4,12.3
		c8.5,15.1,17,29.2,28.3,41.5c10.4,10.4,18.9,20.7,27.4,32.1l0,0c34,44.3,52.8,92.4,47.2,151.8c-1.9-0.9-3.8-0.9-5.7,0
		c-10.4,0.9-21.7,2.8-32.1,3.8c-22.6-23.6-54.7-34.9-88.7-26.4c-0.9,0-0.9,0-1.9,0.9c-39.6,1.9-79.2,3.8-119.8,5.7
		c-7.5-8.5-14.1-16-26.4-18.9c-8.5-1.9-16,0-24.5,0.9c-28.3,4.7-49,8.5-78.3,0.9c-30.2-7.5-59.4-22.6-90.5-28.3
		c-26.4-4.7-53.8-4.7-77.3,3.8c-2.8,0-5.7,0-8.5,0c-4.7,0-8.5,0.9-13.2,0.9c-4.7-33-30.2-79.2-60.4-92.4c1.9-0.9,3.8-1.9,4.7-2.8
		C680.2,567,681.2,556.6,675.5,551.9z M959.4,243.5c0.9-1.9,1.9-3.8,3.8-4.7c8.5,5.7,12.3,14.1,17,25.5c-3.8-0.9-6.6-1.9-10.4-2.8
		C954.7,265.2,951.8,259.5,959.4,243.5z M1066.9,335c1.9,0.9,4.7,0.9,6.6,1.9c16,3.8,34.9,6.6,47.2,18.9c6.6,6.6,9.4,13.2,12.3,21.7
		C1110.3,364.2,1085.8,353.8,1066.9,335z M530.3,869.7L530.3,869.7c-4.7,0.9-11.3,1.9-17,2.8C518.9,871.6,524.6,870.7,530.3,869.7z
		 M764.2,804.6c1.9-2.8,2.8-6.6,1.9-10.4c-2.8-16-8.5-34-25.5-39.6c-10.4-3.8-20.7,0-29.2-8.5c-0.9-0.9-1.9-2.8-2.8-3.8
		c0.9-9.4,1.9-19.8,7.5-28.3c0-0.9,0.9-0.9,0.9-0.9c4.7,5.7,13.2,6.6,18.9,0c8.5-10.4,17.9-17,28.3-20.7
		c29.2-0.9,62.2,4.7,80.2,10.4c32.1,9.4,54.7,29.2,89.6,31.1c34,1.9,68.8,1.9,104.7,0.9c16,13.2,26.4,22.6,53.8,20.7
		c34-1.9,69.8-24.5,101.9-27.4h0.9c0.9,6.6,0.9,12.3,1.9,18.9c0.9,6.6,5.7,15.1,14.1,14.1c12.3-1.9,24.5-2.8,36.8-4.7
		c1.9,2.8,3.8,5.7,5.7,8.5c0,0,0,0,0,0.9c-27.4,15.1-55.6,28.3-85.8,37.7c-65.1,20.7-133,18.9-200.9,13.2
		c-34.9-2.8-68.8-3.8-102.8-4.7c-7.5-3.8-16-5.7-25.5-5.7c-6.6,0.9-12.3,1.9-17.9,5.7c-14.1,0-29.2,0.9-43.4,0.9
		C774.5,808.4,769.8,805.6,764.2,804.6z M800.9,842.4c-6.6,5.7-13.2,2.8-17.9-3.8c5.7,0,12.3,0,17.9-0.9
		C800,841.4,800,843.3,800.9,842.4z M834.9,851.8c-0.9,0-1.9,0-1.9,0C833.9,851.8,833.9,850.8,834.9,851.8z M1319.6,757.5
		c-21.7,17-45.3,31.1-70.7,42.4C1273.4,786.7,1297,772.6,1319.6,757.5z M1499.8,717.9c-8.5,4.7-17.9,8.5-27.4,10.4
		c-7.5-0.9-16-3.8-24.5-9.4c-10.4-6.6-23.6-22.6-29.2-38.7c0-0.9,0.9-1.9,0.9-1.9c0.9-4.7,0.9-11.3,0-17c4.7-1.9,11.3-3.8,17.9-4.7
		c23.6-4.7,61.3,17.9,64.1,42.4C1501.7,704.7,1500.7,711.3,1499.8,717.9z M1025.4,148.2c0.9,7.5,5.7,14.1,14.1,14.1
		c5.7,0,10.4,0,16,0c0,2.8,0,5.7,0.9,8.5c0,7.5,5.7,15.1,14.1,14.1c15.1-0.9,28.3-1.9,42.4,0c3.8,22.6,15.1,32.1,40.6,37.7
		c1.9,23.6,10.4,36.8,34,50c51.9,29.2,82.1,72.6,111.3,123.5c29.2,50,51.9,102.8,68.8,158.4c8.5,27.4,17,57.5,19.8,85.8
		c0,2.8,0,4.7,0.9,7.5c-11.3,11.3-15.1,23.6-15.1,35.8c-8.5,9.4-21.7,17.9-34,25.5c10.4-42.4-13.2-83.9-40.6-121.7
		c-2.8-4.7-4.7-9.4-7.5-13.2c-9.4-15.1-21.7-28.3-34.9-41.5c-13.2-17-27.4-33-40.6-50.9c-12.3-24.5-19.8-50.9-37.7-72.6
		c-2.8-2.8-5.7-6.6-8.5-9.4c-6.6-25.5-9.4-51.9-31.1-69.8c-22.6-18.9-50.9-19.8-78.3-28.3c-6.6-1.9-12.3-3.8-17-6.6
		c-10.4-21.7-18.9-41.5-35.8-60.4c-3.8-3.8-7.5-7.5-12.3-11.3c-1.9-1.9-2.8-4.7-4.7-6.6c-5.7-5.7-11.3-9.4-17.9-11.3
		c-0.9-0.9-1.9-0.9-2.8-1.9c-5.7-28.3-30.2-33-57.5-32.1C966,155.8,1024.5,136.9,1025.4,148.2z M597.2,350.1
		c47.2-40.6,99-75.4,153.7-105.6c-0.9,5.7,0.9,13.2,6.6,16c10.4,5.7,19.8,13.2,30.2,19.8c10.4,16,21.7,36.8,34,51.9
		c0,5.7-0.9,11.3-1.9,16c-2.8,12.3-8.5,21.7-17,30.2c-37.7,17-83.9,24.5-119.8,27.4c-10.4,0.9-15.1,10.4-13.2,17.9
		c-41.5,3.8-82.1-1.9-121.7-18.9c-0.9-0.9-2.8-0.9-3.8-0.9C560.4,385,578.4,367,597.2,350.1z M528.4,425.5c0.9,1.9,2.8,3.8,5.7,4.7
		c46.2,20.7,94.3,28.3,145.2,22.6c45.3-5.7,116.9-18.9,150-54.7c0.9-0.9,1.9-1.9,2.8-3.8c19.8-8.5,40.6-19.8,48.1-35.8
		c16-34.9-22.6-75.4-58.5-101.9c-8.5-8.5-17.9-15.1-29.2-18.9c-3.8-1.9-7.5-3.8-11.3-5.7c-1.9-0.9-3.8-0.9-5.7-0.9
		c16-7.5,31.1-16,47.2-22.6c1.9-0.9,7.5-2.8,16-6.6c0.9,5.7,5.7,10.4,13.2,9.4c6.6-0.9,14.1-2.8,20.7-4.7
		c10.4,10.4,21.7,21.7,29.2,23.6c8.5,2.8,17,0.9,25.5,0.9c0,0.9,0,1.9,0,3.8c0,11.3-12.3,15.1-8.5,30.2
		c2.8,11.3,12.3,17.9,22.6,21.7c6.6,1.9,14.1,0.9,19.8,1.9c5.7,0,11.3,0,17-0.9c8.5,23.6,16,48.1,24.5,71.7
		c-5.7,15.1-25.5,15.1-23.6,35.8c0.9,10.4,8.5,17,15.1,23.6c6.6,6.6,20.7,11.3,26.4,19.8c14.1,4.7,16,13.2,3.8,23.6
		c-1.9,16-10.4,18.9-22.6,11.3c-18.9-0.9-32.1-5.7-50.9,0.9c-8.5,2.8-16,8.5-24.5,12.3c-20.7,10.4-33,10.4-54.7,13.2
		c-16,1.9-30.2,3.8-43.4,15.1c-13.2,11.3-12.3,24.5-20.7,38.7c-7.5,12.3-12.3,36.8-33,24.5c-3.8-1.9-11.3-21.7-13.2-23.6
		c-21.7-29.2-57.5-47.2-93.4-47.2c-14.1,0-27.4,2.8-40.6,6.6c-5.7-2.8-12.3-2.8-17,1.9c-0.9,0.9-0.9,0.9-1.9,1.9
		c-6.6,0.9-14.1,1.9-20.7,2.8c-36.8,0.9-70.7-9.4-101.9-29.2c-0.9-0.9-1.9-0.9-2.8-1.9C498.2,467.9,512.3,446.3,528.4,425.5z
		 M577.4,653.7c-0.9-1.9-0.9-3.8-1.9-6.6c-0.9-2.8-1.9-5.7-3.8-8.5c1.9,1.9,2.8,3.8,3.8,5.7C577.4,648.1,577.4,650.9,577.4,653.7z
		 M345.4,664.1c31.1-25.5,56.6-55.6,80.2-87.7c1.9,1.9,3.8,3.8,6.6,4.7c28.3,9.4,86.8,27.4,103.7,55.6c0.9,17,1.9,34,1.9,50.9
		c-5.7,1.9-10.4,2.8-15.1,3.8c-59.4,17-119.8,31.1-181.1,41.5c1.9-5.7,0.9-11.3-6.6-15.1c-12.3-5.7-24.5-12.3-37.7-17
		C314.3,689.6,330.3,677.3,345.4,664.1z M114.3,858.4c22.6-23.6,46.2-46.2,70.7-67.9c25.5-22.6,52.8-43.4,80.2-64.1
		c1.9,12.3,11.3,21.7,22.6,28.3c0.9,7.5,5.7,14.1,14.1,14.1c11.3,0,22.6,0,34-0.9c27.4,5.7,57.5,13.2,83.9,8.5
		c20.7-3.8,42.4-13.2,62.2-23.6c6.6-0.9,13.2-1.9,19.8-3.8c35.8-6.6,107.5-10.4,117.9-56.6c3.8-16-0.9-33-9.4-48.1
		c-3.8-27.4-34-48.1-55.6-62.2c-33-21.7-69.8-33-107.5-37.7c7.5-10.4,14.1-21.7,21.7-32.1c0.9,0.9,1.9,1.9,3.8,2.8
		c50.9,31.1,95.3,33,147.1,26.4c12.3,9.4,23.6,18.9,35.8,28.3c-5.7,0-11.3,0.9-17,3.8c-16,7.5-1.9,32.1,14.1,24.5
		c15.1-6.6,41.5,46.2,44.3,53.8c3.8,11.3,2.8,19.8,0,28.3c-1.9,1.9-2.8,2.8-3.8,4.7c-1.9,1.9-2.8,3.8-3.8,5.7
		c-6.6,0-13.2,4.7-13.2,13.2c0,1.9,0,4.7,0,6.6c-3.8,1.9-10.4,3.8-20.7,6.6c-7.5,1.9-17.9,0.9-26.4,2.8
		c-58.5,12.3-102.8,83.9-165,73.6c-17.9-2.8-25.5,24.5-7.5,27.4c8.5,0.9,16,1.9,24.5,0.9c-3.8,1.9-6.6,4.7-10.4,6.6
		c-7.5,6.6-13.2,15.1-17,23.6c-32.1,4.7-63.2,9.4-95.3,14.1c-17-3.8-36.8,1.9-56.6,8.5c-29.2,4.7-58.5,8.5-86.8,13.2
		c-5.7,0.9-16,1.9-29.2,3.8c-15.1-2.8-31.1-5.7-46.2-1.9c-11.3,2.8-20.7,7.5-30.2,13.2c-17,2.8-34,7.5-49,12.3
		C76.6,894.2,101.1,872.5,114.3,858.4z M210.5,933.8c-30.2,7.5-61.3,14.1-91.5,21.7c-14.1,3.8-31.1,10.4-46.2,11.3
		c-12.3,4.7-22.6,1.9-33-10.4l0,0c2.8-0.9,4.7-1.9,7.5-2.8c15.1,1.9,31.1,0.9,46.2-5.7c8.5-3.8,16-8.5,23.6-14.1
		c21.7-4.7,43.4-9.4,65.1-13.2c12.3,2.8,24.5,5.7,36.8,6.6c37.7,1.9,82.1-29.2,116.9-23.6C294.5,914,252,924.4,210.5,933.8z
		 M412.4,918.8c5.7-0.9,11.3-1.9,17-2.8C424.6,918.8,419,919.7,412.4,918.8z M607.6,863.1c0.9-1.9,1.9-3.8,2.8-5.7
		c46.2-6.6,93.4-12.3,139.6-16c0.9,4.7,1.9,9.4,2.8,14.1c-10.4,0-20.7,0.9-31.1,1.9C684,858.4,645.3,860.3,607.6,863.1z"/>
	<path d="M868.8,662.2c4.7,4.7,11.3,8.5,19.8,11.3c11.3,3.8,20.7-9.4,17-18.9c67.9,25.5,139.6,30.2,212.2,14.1
		c7.5-1.9,10.4-8.5,10.4-15.1c25.5-2.8,56.6-7.5,79.2-17.9c0.9,0,1.9-0.9,2.8-0.9c3.8-0.9,6.6-2.8,7.5-4.7
		c13.2-7.5,21.7-17.9,23.6-31.1c4.7-37.7-65.1-57.5-110.3-67c-72.6-22.6-154.7-24.5-225.4,6.6c-3.8,1.9-6.6,2.8-10.4,4.7
		c-4.7,1.9-9.4,2.8-14.1,4.7c-30.2,12.3-44.3,32.1-37.7,52.8c-5.7,2.8-10.4,9.4-7.5,16C844.3,636.8,853.7,651.9,868.8,662.2z
		 M1199.9,586.8c11.3,2.8,10.4,8.5-2.8,18.9c-5.7,2.8-12.3,5.7-17.9,8.5c-18.9,4.7-37.7,8.5-56.6,13.2c-6.6,0.9-13.2,0.9-19.8,1.9
		c-1.9-1.9-4.7-2.8-8.5-2.8c-47.2-0.9-95.3,0-143.4-2.8c-16-0.9-50-0.9-61.3-14.1c-0.9-0.9-0.9-0.9-1.9-1.9
		c-5.7-8.5-1.9-19.8,17.9-36.8c0.9,0,0.9-0.9,1.9-0.9c10.4-3.8,21.7-5.7,26.4-7.5c43.4-11.3,88.7-15.1,133.9-11.3
		c24.5,1.9,48.1,6.6,71.7,13.2C1152.7,567.9,1193.3,575.5,1199.9,586.8z"/>
</g>
</svg>
