<?xml version="1.0" encoding="utf-8"?>
<!-- Generator: Adobe Illustrator 19.2.0, SVG Export Plug-In . SVG Version: 6.00 Build 0)  -->
<svg version="1.1" id="Layer_1" xmlns="http://www.w3.org/2000/svg" xmlns:xlink="http://www.w3.org/1999/xlink" x="0px" y="0px"
	 width="1147.1px" height="1000px" viewBox="0 0 1147.1 1000" style="enable-background:new 0 0 1147.1 1000;" xml:space="preserve"
	>
<g>
	<path d="M1140.6,725.5c-12-90.9-62.6-167.2-78-255.5c-9.4-51.4,25.7-164.6-40.3-192.9c-52.3-22.3-86.6,50.6-108,106.3
		c-6-12-12-24-18.9-36c-10.3-19.7-21.4-43.7-38.6-59.2c-24-20.6-63.5-12-66,23.2c-0.9,16.3,24.9,16.3,25.7,0
		c12-10.3,21.4-9.4,29.2,1.7c4.3,5.1,7.7,11.1,11.1,16.3c6.9,11.1,12.9,23.2,19.7,35.2c2.6,4.3,4.3,9.4,6.9,13.7
		c-12.9-19.7-29.2-36-48.9-42c-18.9-6-37.7,2.6-46.3,17.1l0,0c0.9-13.7,1.7-27.4,3.4-41.2c4.3-43.7,15.4-96-4.3-138.1
		c-6.9-13.7-15.4-18-27.4-17.1c-51.4-20.6-114-6.9-167.2,0.9c-1.7-24-5.1-48-9.4-70.3c-17.2-66-86.6-114.9-150.1-70.3
		c-0.9,0.9-1.7,0.9-2.6,1.7c-42-24-83.2-10.3-117.5,24.9C272,84.9,282.3,146.7,284,199.8c-54.9,8.6-110.6,17.1-165.5,25.7
		c-5.1,0.9-7.7,3.4-8.6,6.9c-6,0-12.9,4.3-13.7,12c-26.6,235-58.3,468.2-96,700.6c-1.7,12.9,12.9,19.7,20.6,14.6
		c8.6,0,18,0.9,26.6,1.7c25.7,2.6,51.4,8.6,76.3,12c18.9,4.3,37.7,9.4,55.7,15.4c0.9,0,1.7,0,2.6,0.9c1.7,14.6,24.9,13.7,25.7-1.7
		c0-0.9,0-1.7,0-2.6c42,2.6,105.5,18,140.6-6c6.9,8.6,16.3,14.6,29.2,13.7c11.1-0.9,21.4-7.7,31.7-10.3c19.7-5.1,41.2-5.1,60.9-6.9
		c76.3-4.3,155.2-15.4,229-33.4c1.7,0.9,2.6,2.6,4.3,3.4c65.2,49.7,131.2,33.4,206.7,37.7c66,3.4,150.1,21.4,200.7-36.9
		C1156.9,891.8,1149.2,789.8,1140.6,725.5z M1029.1,634.6c0,2.6,3.4,18.9-2.6,16.3c-6-2.6-4.3-14.6-3.4-18.9
		c0.9-3.4,2.6-6.9,5.1-9.4C1029.1,627.7,1029.1,632,1029.1,634.6z M1012,740.9c0.9,10.3,2.6,27.4,0,29.2c-3.4-6.9-8.6-9.4-16.3-6.9
		c-7.7,0-15.4-0.9-22.3-0.9c-21.4-0.9-42.9-1.7-64.3-2.6c1.7-4.3,2.6-9.4,4.3-13.7c2.6-1.7,4.3-2.6,7.7-2.6c1.7,0,2.6,0.9,3.4,0.9
		c14.6,2.6,28.3,0.9,42.9-2.6C981.1,740.1,998.3,738.3,1012,740.9z M937.4,632.9c-3.4-1.7-6-5.1-7.7-8.6
		c13.7-15.4,22.3-32.6,30-52.3c0.9-0.9,0.9-2.6,0.9-3.4c0,0,0-0.9,0-1.7V566c0-0.9,0-0.9,0-1.7c0-6.9,0-14.6-0.9-21.4
		c12,18,25.7,34.3,42,48.9C984.5,606.3,950.2,641.4,937.4,632.9z M927.1,475.1L927.1,475.1L927.1,475.1L927.1,475.1z M901.4,554
		c-4.3-10.3,6.9-38.6,18.9-64.3v0.9c6.9,24.9,11.1,49.7,13.7,75.5c-5.1,12-10.3,23.2-17.1,33.4c-1.7-6.9-4.3-12.9-6-18
		c-2.6-6-6-12-8.6-16.3C903.1,560,903.1,557.4,901.4,554z M947.7,454.5c-0.9-4.3-3.4-6.9-6-7.7c1.7-4.3,3.4-6.9,4.3-9.4
		c5.1-12.9,21.4-71.2,36-75.5c11.1-3.4,9.4,82.3,10.3,91.8c0.9,27.4,2.6,55.7,10.3,82.3c3.4,10.3,8.6,19.7,12,30
		c0.9,2.6,1.7,5.1,2.6,6.9C982.8,540.3,959.7,500,947.7,454.5z M976,319c5.1,0.9,10.3,1.7,16.3,3.4c-6,0.9-12.9,3.4-18.9,9.4
		c-6.9,6-12.9,13.7-18,21.4C960.5,338.7,967.4,325,976,319z M901.4,416.8L901.4,416.8c-0.9-0.9-0.9-1.7-1.7-3.4
		C900.5,414.2,900.5,415.9,901.4,416.8z M807,373c-0.9-4.3,5.1-10.3,7.7-12c5.1-2.6,12-0.9,16.3,1.7c8.6,4.3,15.4,12.9,21.4,20.6
		c12,15.4,21.4,31.7,26.6,50.6c1.7,6,6,8.6,11.1,9.4c-7.7,18-15.4,36-22.3,53.2c-4.3,10.3-7.7,30-15.4,38.6
		c-21.4,24-35.2-22.3-35.2-42c-1.7-35.2-7.7-68.6-17.1-102C806.2,388.5,811.3,380.8,807,373z M782.2,500c0-24.9,0-48.9,0.9-73.7
		c1.7,6,2.6,12.9,4.3,19.7c2.6,17.1,2.6,36.9,3.4,54.9C787.3,499.1,784.7,499.1,782.2,500z M709.3,173.2c-12.9,6-24.9,13.7-38.6,18
		c-24,7.7-49.7,6.9-74.6,8.6c-1.7,0-3.4,0.9-5.1,1.7c0-6,0-11.1,0-17.1C627.8,179.2,670.7,169.8,709.3,173.2z M211.9,247
		c-0.9,0-1.7,0-2.6,0.9c-9.4-2.6-18.9-4.3-27.4-6c69.5-11.1,138.9-21.4,208.4-31.7c0.9,0,1.7,0,2.6-0.9c0,4.3,0,8.6,0.9,12.9
		c-0.9,0-1.7,0-2.6,0C331.1,232.4,272,241.8,211.9,247z M394.6,79.8c-1.7,7.7-2.6,15.4-2.6,24c-1.7,27.4-1.7,54.9-0.9,83.2
		c-2.6-0.9-5.1-1.7-8.6-1.7c-15.4,1.7-30,4.3-45.4,6.9C336.3,145.8,332.8,72.1,394.6,79.8z M421.2,301.9c10.3-5.1,29.2-2.6,40.3-4.3
		c24.9-2.6,50.6-6,75.5-10.3c12-1.7,21.4-2.6,29.2-5.1c26.6,20.6,29.2,36.9,7.7,49.7c-6.9,10.3-16.3,14.6-28.3,12
		c-12.9,3.4-28.3,2.6-41.2,4.3c-13.7,1.7-27.4,2.6-41.2,4.3c-8.6,0.9-42,8.6-49.7,5.1C386.9,345.6,401.4,312.2,421.2,301.9z
		 M446.9,219.5c0-6-0.9-11.1-0.9-17.1c26.6-3.4,53.2-7.7,79.7-11.1c0,6.9,0,13.7,0,20.6C499.2,214.4,472.6,217,446.9,219.5
		L446.9,219.5z M526.6,165.5c-19.7,2.6-39.4,5.1-60,8.6c0.9-19.7,0-40.3-1.7-60c0-4.3-1.7-6.9-4.3-8.6c1.7-3.4,4.3-6.9,6.9-10.3
		c24.9-28.3,54,5.1,58.3,33.4C528.4,139.8,527.5,152.7,526.6,165.5z M448.6,245.3c24.9-2.6,50.6-5.1,75.5-7.7c0,8.6-0.9,18-0.9,26.6
		c-15.4,2.6-30,4.3-45.4,6c-7.7,0.9-16.3,0.9-26.6,0.9C450.3,263.3,449.5,254.7,448.6,245.3z M521.5,36.9
		c34.3,21.4,36.9,67.7,40.3,103.8c2.6,26.6,12.9,76.3,3.4,101.2c-0.9,4.3-1.7,8.6-2.6,12.9h-0.9c-5.1,0-9.4,1.7-11.1,6
		c-0.9,0-0.9,0-1.7,0c4.3-50.6,10.3-108,0.9-156.9c-5.1-30-27.4-57.5-60.9-51.4c-86.6,14.6-69.5,152.6-64.3,221.2
		c-0.9,0-2.6,0-3.4,0c-4.3-60.9-14.6-133.8-1.7-192.1C429.7,36,481.2,11.2,521.5,36.9z M318.3,79.8c19.7-36,57.5-56.6,93.5-41.2
		c-3.4,5.1-6.9,11.1-9.4,17.1c-29.2-4.3-57.5,5.1-74.6,30c-21.4,30-16.3,74.6-15.4,110.6c-0.9,0-1.7,0-2.6,0
		C308,158.7,300.3,111.5,318.3,79.8z M119.3,267.6c16.3,4.3,30,6,47.2,4.3c4.3,0,6.9-2.6,9.4-5.1c5.1,0.9,11.1,1.7,16.3,2.6
		c0,140.6-0.9,280.4-0.9,421c-1.7,84.9-4.3,168.9-7.7,253.8c-19.7-2.6-39.4-5.1-60-7.7c1.7-150.1,9.4-300.1,25.7-450.2
		c1.7-16.3-24-16.3-25.7,0c-15.4,148.3-24,296.7-24.9,445.9c-22.3-3.4-44.6-8.6-66-14.6c-0.9,0-0.9,0-1.7,0
		C65.3,701.5,94.5,484.5,119.3,267.6z M362,951c-4.3-9.4-17.1-6.9-22.3,0c-18,26.6-87.5,12.9-126.9,8.6c0-3.4-0.9-6.9-3.4-9.4
		c0.9-31.7,2.6-63.5,3.4-96c1.7-1.7,3.4-5.1,3.4-8.6c17.1-191.2,14.6-383.3,10.3-574.5c56.6-6,112.3-14.6,168.1-23.2
		c0.9,10.3,0.9,20.6,1.7,31.7c-9.4,4.3-17.1,10.3-20.6,19.7c-8.6,21.4-6.9,71.2,18.9,82.3c19.7,8.6,48.9-0.9,69.5-2.6
		c33.4-3.4,66-6,99.5-9.4c34.3-3.4,46.3-10.3,48.9-46.3c1.7-24.9-5.1-48-23.2-59.2c0.9-3.4,1.7-7.7,2.6-12.9
		c0.9-8.6,0.9-16.3,0.9-24.9c1.7,0.9,3.4,0.9,5.1,0.9c33.4-2.6,64.3-2.6,96-15.4c18.9-7.7,37.7-21.4,58.3-24.9
		c1.7,0,3.4-0.9,4.3-0.9c2.6,0.9,5.1,2.6,7.7,4.3c0.9,0,1.7,0.9,1.7,0.9c0.9,3.4,1.7,9.4,3.4,18c9.4,46.3-3.4,99.5-6.9,146.6
		c-3.4,56.6-6,114-4.3,171.5c0,4.3,1.7,7.7,4.3,9.4c-16.3,28.3-37.7,52.3-67.7,67.7c-17.1,8.6-22.3,12-29.2,29.2
		c1.7-4.3,0.9,9.4,1.7,11.1c-1.7,0.9-10.3,6.9-12,8.6c-3.4,4.3-6.9,5.1-9.4,9.4c-16.3,29.2-20.6,76.3-20.6,109.8
		c-0.9,55.7,17.1,108.9,53.2,150.1c-58.3,12.9-118.3,21.4-178.4,26.6C482.1,948.4,369.7,967.3,362,951z M1097.7,920.1
		c-20.6,31.7-63.5,42-98.6,42c-31.7,0-63.5-5.1-96-6.9c-33.4-0.9-66.9,5.1-100.3,1.7c-75.5-6.9-136.3-67.7-150.1-141.5
		c-7.7-38.6-4.3-78.9,6.9-115.8c3.4-12.9,5.1-23.2,12.9-31.7c4.3-5.1,12-7.7,17.1-12c3.4-2.6,5.1-8.6,3.4-12.9
		c-6-14.6,42-36.9,52.3-48c19.7-19.7,34.3-42.9,46.3-66.9c0.9,4.3,1.7,8.6,3.4,12.9c1.7,6,6,12.9,10.3,18.9
		c-0.9,0.9-1.7,1.7-1.7,2.6c-12.9,25.7-23.2,52.3-33.4,78.9c-2.6,6.9-5.1,12.9-6.9,19.7c-6.9,20.6-12.9,42-18,63.5
		c-0.9,4.3,0,7.7,1.7,10.3c0,14.6,22.3,19.7,24.9,4.3c4.3-21.4,7.7-43.7,13.7-65.2c2.6-7.7,5.1-16.3,7.7-24
		c10.3-26.6,29.2-46.3,42-71.2c8.6,0.9,17.1-0.9,24.9-7.7c2.6-2.6,5.1-5.1,6.9-8.6c27.4,23.2,42,105.5,84,104.6
		c-0.9,15.4-0.9,30.9-1.7,47.2c-9.4,0-19.7,0-29.2,0.9c-1.7,0-3.4-0.9-5.1-0.9c-7.7-1.7-14.6-5.1-22.3-1.7
		c-15.4,6.9-20.6,32.6-24.9,46.3c-0.9,2.6-0.9,6,0,7.7c-0.9,6.9,3.4,14.6,12,15.4c1.7,0,4.3,0,6,0c1.7,0.9,3.4,0.9,5.1,0
		c22.3,0.9,44.6,1.7,67.7,3.4c18,0.9,45.4,7.7,62.6,1.7c21.4-7.7,16.3-45.4,12-62.6c-0.9-4.3-5.1-7.7-8.6-8.6
		c-15.4-4.3-33.4-1.7-49.7-1.7c0.9-18.9,1.7-36.9,2.6-55.7c2.6-1.7,4.3-3.4,6.9-5.1c4.3-3.4,7.7-7.7,10.3-12
		c1.7,20.6,18.9,41.2,41.2,33.4c22.3-7.7,18-35.2,15.4-53.2c-0.9-9.4-0.9-20.6-8.6-26.6c8.6-27.4-19.7-71.2-23.2-93.5
		c-4.3-29.2-4.3-59.2-5.1-89.2c-0.9-21.4,5.1-54-3.4-74.6c-2.6-6.9-6.9-12-11.1-13.7c0.9,0,1.7,0,1.7,0c21.4-5.1,31.7,0.9,30,18
		c2.6,8.6,1.7,18.9,1.7,27.4c0,19.7-2.6,39.4-2.6,59.2c0,57.5,22.3,108.9,43.7,161.2c27.4,66.9,42.9,136.3,42.9,208.4
		C1119.2,837.8,1119.2,886.7,1097.7,920.1z"/>
	<path d="M645,551.4c4.3,7.7,8.6,14.6,13.7,21.4c4.3,6,14.6,9.4,20.6,2.6c2.6-3.4,5.1-6.9,7.7-9.4c6,3.4,12,6.9,18,10.3
		c14.6,8.6,27.4-13.7,12.9-22.3c-9.4-5.1-18-10.3-27.4-15.4c-4.3-2.6-12-2.6-15.4,1.7c-1.7,1.7-2.6,3.4-4.3,5.1
		c-7.7-12.9-12.9-27.4-16.3-43.7c-3.4-14.6-24.9-10.3-24.9,3.4c2.6,17.1-5.1,28.3-24,35.2c-10.3,21.4-21.4,25.7-34.3,12
		c-6-4.3-13.7-0.9-18,4.3c0,0-8.6,0-16.3,1.7c2.6-24.9,10.3-48.9,25.7-70.3c7.7-11.1-6.9-23.2-18-18c-45.4,24-53.2,70.3-52.3,116.6
		c-5.1-0.9-9.4-0.9-15.4-0.9c-12,0.9-31.7,11.1-42.9,5.1c-7.7-4.3-16.3,0-18.9,7.7c-3.4,0-7.7,0-11.1,0c-7.7-8.6-22.3-1.7-22.3,9.4
		c-0.9-2.6-0.9-5.1-1.7-6.9c-0.9-11.1-18-18.9-24-6.9c-0.9,1.7-1.7,2.6-3.4,4.3c-5.1,0-10.3,2.6-12,6.9
		c-13.7-24.9-26.6-49.7-40.3-73.7c-6-12-23.2-5.1-24,6.9c-1.7,33.4-4.3,66.9-6,99.5c-0.9,16.3,24.9,16.3,25.7,0
		c0.9-18,2.6-36,3.4-54c11.1,20.6,22.3,41.2,33.4,61.7c3.4,6.9,14.6,8.6,20.6,2.6c6.9-7.7,10.3-14.6,12-23.2
		c11.1,12,28.3,14.6,36.9,3.4c10.3,2.6,22.3-1.7,30-10.3c23.2,5.1,43.7-10.3,69.5-1.7c3.4,0.9,6.9,0.9,9.4-0.9
		c1.7,16.3,4.3,32.6,7.7,48.9c2.6,14.6,24.9,10.3,24.9-3.4c0-19.7-6.9-68.6,6-78c5.1-3.4,8.6-3.4,12-4.3
		C603.8,601.1,631.3,583.1,645,551.4z"/>
</g>
</svg>
