<?xml version="1.0" encoding="utf-8"?>
<svg version="1.1" xmlns="http://www.w3.org/2000/svg" viewBox="0 0 1000 1000">
	<path d="M500,90.1c133.5,0,149.3,0.5,202,2.9c48.7,2.2,75.2,10.4,92.8,17.2c23.3,9.1,40,19.9,57.5,37.4 c17.5,17.5,28.3,34.2,37.4,57.5c6.8,17.6,15,44.1,17.2,92.8c2.4,52.7,2.9,68.5,2.9,202c0,133.5-0.5,149.3-2.9,202 c-2.2,48.8-10.4,75.2-17.2,92.8c-9.1,23.3-19.9,40-37.4,57.5c-17.5,17.5-34.2,28.3-57.5,37.4c-17.6,6.8-44.1,15-92.8,17.2 c-52.7,2.4-68.5,2.9-202,2.9c-133.5,0-149.3-0.5-202-2.9c-48.7-2.2-75.2-10.4-92.8-17.2c-23.3-9.1-40-19.9-57.5-37.4 c-17.5-17.5-28.3-34.2-37.4-57.5c-6.8-17.6-15-44.1-17.2-92.8c-2.4-52.7-2.9-68.5-2.9-202c0-133.5,0.5-149.3,2.9-202 c2.2-48.7,10.4-75.2,17.2-92.8c9.1-23.3,19.9-40,37.4-57.5c17.5-17.5,34.2-28.3,57.5-37.4c17.6-6.8,44.1-15,92.8-17.2 C350.7,90.6,366.5,90.1,500,90.1 M500,0C364.2,0,347.2,0.6,293.8,3c-53.2,2.4-89.6,10.9-121.4,23.2C139.6,39,111.7,56.1,83.9,83.9 c-27.8,27.8-44.9,55.7-57.7,88.6C13.9,204.3,5.4,240.6,3,293.9C0.6,347.2,0,364.2,0,500c0,135.8,0.6,152.8,3,206.1 c2.4,53.2,10.9,89.6,23.2,121.4c12.8,32.9,29.9,60.8,57.7,88.6c27.8,27.8,55.7,44.9,88.6,57.7c31.8,12.4,68.1,20.8,121.4,23.2 c53.3,2.4,70.4,3,206.1,3c135.8,0,152.8-0.6,206.1-3c53.2-2.4,89.6-10.9,121.4-23.2c32.9-12.8,60.8-29.9,88.6-57.7 c27.8-27.8,44.9-55.7,57.7-88.6c12.4-31.8,20.8-68.2,23.2-121.4c2.4-53.3,3-70.4,3-206.1c0-135.8-0.6-152.8-3-206.1 c-2.4-53.2-10.9-89.6-23.2-121.4c-12.8-32.9-29.9-60.8-57.7-88.6c-27.8-27.8-55.7-44.9-88.6-57.7C795.7,13.9,759.4,5.4,706.1,3 C652.8,0.6,635.8,0,500,0"/>
	<path d="M500,243.2c-141.8,0-256.8,115-256.8,256.8c0,141.8,115,256.8,256.8,256.8c141.8,0,256.8-115,256.8-256.8 C756.8,358.2,641.8,243.2,500,243.2 M500,666.7c-92,0-166.7-74.6-166.7-166.7c0-92,74.6-166.7,166.7-166.7 c92,0,166.7,74.6,166.7,166.7C666.7,592,592,666.7,500,666.7"/>
	<path d="M826.9,233.1c0,33.1-26.9,60-60,60c-33.1,0-60-26.9-60-60c0-33.1,26.9-60,60-60 C800,173.1,826.9,200,826.9,233.1"/>
</svg>
