<?xml version="1.0" encoding="utf-8"?>
<svg version="1.1" xmlns="http://www.w3.org/2000/svg" viewBox="0 0 1000 1000">
<path d="M0,0v1000h1000V0H0z M879.7,657.4c-1.8,40.6-8.3,68.4-17.7,92.7c-9.8,25.1-22.8,46.4-44.1,67.7
	c-21.2,21.2-42.6,34.3-67.7,44.1c-24.3,9.4-52.1,15.9-92.7,17.7c-40.7,1.8-53.7,2.3-157.4,2.3c-103.7,0-116.7-0.5-157.4-2.3
	c-40.7-1.8-68.4-8.3-92.7-17.7c-25.1-9.8-46.4-22.8-67.7-44.1c-21.2-21.2-34.3-42.6-44.1-67.7c-9.4-24.3-15.9-52.1-17.7-92.7
	c-1.8-40.7-2.3-53.7-2.3-157.4s0.5-116.7,2.3-157.4c1.8-40.7,8.3-68.4,17.7-92.7c9.8-25.1,22.8-46.4,44.1-67.7
	c21.2-21.2,42.6-34.3,67.6-44.1c24.3-9.4,52.1-15.9,92.7-17.7c40.8-1.8,53.8-2.3,157.5-2.3s116.7,0.5,157.4,2.3
	c40.7,1.8,68.4,8.3,92.7,17.7c25.1,9.8,46.4,22.8,67.7,44.1c21.2,21.2,34.3,42.6,44.1,67.7c9.4,24.3,15.9,52.1,17.7,92.7
	c1.8,40.7,2.3,53.7,2.3,157.4C882,603.7,881.5,616.7,879.7,657.4z"/>
<path d="M810.8,345.6c-1.7-37.2-7.9-57.4-13.1-70.9c-7-17.8-15.2-30.6-28.6-43.9c-13.4-13.4-26.1-21.6-43.9-28.6
	c-13.4-5.2-33.7-11.5-70.9-13.1c-40.3-1.8-52.3-2.2-154.3-2.2s-114.1,0.4-154.3,2.2c-37.2,1.7-57.4,7.9-70.9,13.1
	c-17.8,7-30.6,15.2-43.9,28.6c-13.4,13.4-21.6,26.1-28.6,43.9c-5.2,13.4-11.5,33.7-13.1,70.9c-1.8,40.3-2.2,52.3-2.2,154.3
	s0.4,114.1,2.2,154.3c1.7,37.2,7.9,57.4,13.1,70.9c7,17.8,15.2,30.6,28.6,43.9c13.4,13.4,26.1,21.6,43.9,28.6
	c13.4,5.2,33.7,11.5,70.9,13.1c40.3,1.8,52.3,2.2,154.3,2.2s114.1-0.4,154.3-2.2c37.2-1.7,57.4-7.9,70.9-13.1
	c17.8-7,30.6-15.2,43.9-28.6c13.4-13.4,21.6-26.1,28.6-43.9c5.2-13.4,11.5-33.6,13.1-70.9c1.8-40.3,2.2-52.3,2.2-154.3
	S812.7,385.9,810.8,345.6z M500,627.3c-70.3,0-127.3-57-127.3-127.3c0-70.3,57-127.3,127.3-127.3c70.3,0,127.3,57,127.3,127.3
	C627.3,570.3,570.3,627.3,500,627.3z M703.9,341.9c-25.3,0-45.8-20.5-45.8-45.8s20.6-45.8,45.8-45.8c25.3,0,45.8,20.6,45.8,45.8
	S729.2,341.9,703.9,341.9z"/>
</svg>
