<?xml version="1.0" encoding="utf-8"?>
<!-- Generator: Adobe Illustrator 23.1.0, SVG Export Plug-In . SVG Version: 6.00 Build 0)  -->
<svg version="1.1" id="Layer_1" xmlns="http://www.w3.org/2000/svg" xmlns:xlink="http://www.w3.org/1999/xlink" x="0px" y="0px"
	 viewBox="0 0 1451.3 1000" style="enable-background:new 0 0 1451.3 1000;" xml:space="preserve">
<path d="M185.8,956.9c-0.4,3,3.9,11.8,4.5,12.5c14.1,17,66.5,22.3,72.6-6.8c5.1-23.9-28-57.2-45.4-51.1
	c-3.2,11.2-8.1,20.6-13.6,29.5C198.1,947,187,948.9,185.8,956.9 M250.4,904.8c2.8,5.6,6.9,9.7,12.5,12.5c0.4-5.4-2.4-8.2,0-12.5
	C260.6,903,252.8,903,250.4,904.8 M277.7,905.9c-4,30.3,40.9,62.2,66.9,60.1c9.2-0.7,20.9-10.3,21.6-19.3
	c2.3-31.2-62.4-48.7-88.5-42V905.9z M134.7,888.9c-20.8,1.7-58.4,7.5-61.3,26.1c-4.6,29.7,74.1,44.7,95.3,27.2
	c3.9-21.1,19.3-30.6,29.5-45.4C180.5,890.5,159.9,886.8,134.7,888.9 M472.9,909.3c5.7-29.8-27.5-39.6-51.1-47.6
	C430.8,885.5,450.2,899.1,472.9,909.3 M173.3,851.4c-3.7,8.1-17.6,11.7-18.1,19.3c13.8-0.2,23.9,3.4,36.3,4.5
	C188,864.6,181.7,857,173.3,851.4 M31.4,823c-4.7,4.4-11.1,14.9-9.1,23.9c3.2,14.3,35.4,19.2,56.7,20.4c37.1,2.1,66.3-8.1,78.3-30.6
	C135.1,817.9,61.9,794.6,31.4,823 M134.7,802.6c12.1,5.3,19.7,15.1,32.9,19.3c3.1-5.3,9.1-18.3,3.4-25
	C161.6,801.5,146.2,800.1,134.7,802.6 M951.7,727.7c-2.5,5-5.1,9.5-3.4,15.9c4.2,15.3,72.6,32.8,85.1,17
	C998,757.9,975.9,741.7,951.7,727.7 M124.5,731.1c-21.1-8.9-77.7-10.2-77.2,17c0.3,13.3,22.5,22.8,36.3,27.2
	c28.1,9.1,62,12.6,85.1,2.3C160.4,757.4,146.8,740.5,124.5,731.1 M1030.1,706.2c-19.3-7.8-44.9,2.5-62.4,9.1
	c17.7,16,46.1,32.1,78.3,26.1c3.4-4.1,7.2-8,7.9-14.8C1045.3,721.8,1040.3,710.3,1030.1,706.2 M839.4,709.5
	c-2.5,43.3,63.9,55.6,85.1,26.1c0.6-8.5,4.6-13.5,6.8-20.4c-3.2-5.2-9.3-7-9.1-13.6c0.2-5.5,5.6-5.4,6.8-11.4
	C896.2,685.8,853.1,687.6,839.4,709.5 M422.9,735.6c5.8-11.6,11.8-23,19.3-32.9c-6-7.6-13-14.3-19.3-21.6
	C416.2,693.8,416.8,722.9,422.9,735.6 M1032.3,666.4c-1,5.6,7.6,19.8,10.2,22.7c2.6,3,9.5,5.6,15.9,11.4c4.9,4.4,8.9,11.1,13.6,13.6
	c10.4,5.5,27.4,6.9,37.4,3.4c32.7-11.3,17.2-59.6-5.7-68.1c-9.4-3.5-19.9-2.5-30.7-1.1C1057.3,650.3,1034.2,655.3,1032.3,666.4
	 M144.9,647.2c-9.5-0.6-30,2.2-31.8,11.3c-3.2,16.8,27.1,23.5,39.7,27.2c20.3,6.1,35.9,9.6,55.6,10.2
	C197.8,673.4,176.7,649.1,144.9,647.2 M733.9,674.4c0.7,23.4,35.2,39.2,59,37.5c30.2-2.1,47-39,37.4-61.3
	c-6.5-15.1-32.2-22.1-55.6-17C758.6,638,733.4,657.3,733.9,674.4 M457,630.1c-6.6,13.1-11.7,27.6-12.5,46.5c2.1,2.4,6.5,2.6,7.9,5.7
	c18.6-13.9,29.3-35.7,43.1-54.5C483.2,629.1,471.5,631.1,457,630.1 M309.5,644.9c6.9-0.7,11.2-3.9,15.9-6.8
	c-2.8-7.4-11-9.4-15.9-14.8C306.6,629.2,309.2,638.4,309.5,644.9 M539.8,622.2c9.9,0.7,24.5,2.7,34,0
	C566.2,617.4,546.8,614.9,539.8,622.2 M1016.4,631.2c8.1,63.4-112.9,45.3-119.1,2.3c-13.4,5.4-29,13.8-48.8,9.1
	c1.2,9,4.4,16.1,6.8,23.8c40-13,89.8-2.2,98.7,32.9c18.7-6.3,37.2-12.7,61.3-13.6c-17.6-35,17.1-44.8,39.7-53.3
	c-7.8-1.6-15.3-3.7-23.8-4.5c-3.7-7.6-9.9-12.8-20.4-13.6C1011.6,622.8,1015.6,624.5,1016.4,631.2 M419.5,616.5
	c-14.6,19.7-36,36.4-72.6,30.7c-12.5,8.3-24.4,17.2-43.1,19.3c-12.2,27.2-35.3,43.3-69.2,48.8c-0.9,23.7-4.3,38.3-15.9,53.3
	c-5.8,7.5-22.3,14.3-25,22.7c-1.6,5,0.5,11.2,0,15.9c-1.2,11.2-6.6,19.5-9.1,30.6c13.1,9.1,19.9,42.1,34,48.8
	c13.2,6.3,27.5-3.1,46.5-2.3c23.2-36,73.7-50.9,131.6-45.4c-3.8-30.3,5.7-55.8,14.7-79.4c-11.3-29.3-23.6-70.4-5.7-99.9
	c8.8-14.4,25.9-18.1,27.2-35.2C431.1,619.7,423.6,612.1,419.5,616.5 M1058.4,602.9c-7.5,1.6-12.4,5.7-20.4,6.8
	c4.5,6.9,17.1,5.6,26.1,7.9C1063.5,611.4,1059.7,608.4,1058.4,602.9 M915.4,632.4c8.1,26.3,81.1,37.8,81.7,3.4
	c0.3-15.2-17.4-24-29.5-29.5c-5-2.3-7-5.1-10.2-5.7c-3.8-0.6-8.6,0.8-11.3,1.1C923.1,604.4,908.9,611.4,915.4,632.4 M464.9,612
	c11.4,0.4,21.2-0.8,26.1-6.8c-4.5-9.1-5.9-21.4-13.6-27.2C472.8,588.9,467.3,598.8,464.9,612 M750.9,600.6
	c13.2,1.9,31.9,4.4,43.1,4.5c-5.9-10.6-6.5-27.1-5.7-38.6C775.9,578,761.1,587,750.9,600.6 M242.5,567.7c-25.2-9.7-40.4,7.1-34,31.8
	c7.4,28.6,46.5,46.3,78.3,48.8C296.4,612.1,268.4,577.6,242.5,567.7 M1080,585.9c-8.2,37.3,39.6,49.1,66.9,36.3
	c8.6-4,26.2-17,27.3-28.4c2.4-27.1-38.1-33.4-59-30.6C1096.5,565.6,1082.4,574.9,1080,585.9 M807.6,579.1
	c-1.5,13.6,5.1,27.8,11.3,35.2c23.6,27.8,80.9,12.8,81.7-21.5c0.5-20.4-28.9-42.4-39.7-43.1C834.1,547.7,810.1,557.9,807.6,579.1
	 M1035.7,591.6c12.7-2.5,26.9-20.9,25-36.3c-2.9-23.6-63.3-32.4-79.4-13.6C976.2,570.9,1011.6,596.2,1035.7,591.6 M1405.7,531.4
	c-32.4,24.9-55.8,58.1-86.2,85.1c-30.4,27-53.6,60.1-85.1,87.4c-29.3,25.4-62.6,49.2-91.9,79.4c-12.9,13.3-28.7,26.9-44.3,42
	c-14,13.7-31.9,32.5-48.8,37.5c-43.7,12.8-84.7-4-124.8-11.3c-12.9-2.4-24.9-3.9-36.3-6.8c-11.4-2.9-21-7.6-31.8-11.4
	c-43.9-15.2-88.9-26.3-130.5-42c-86.7-32.8-175.3-54.7-263.3-81.7c-14.2,13.1-22.8,31.7-30.7,51.1c12.9,21.1,38.6,25.4,62.4,30.6
	c24.3,5.3,49.8,13.3,74.9,19.3c26.2,6.2,53.7,9,80.6,13.6c26,4.4,50.5,13.5,74.9,19.3c72,17,154.2,34.9,219,63.5
	c17.9,7.9,46.3,28.5,65.8,28.4c14.8-0.1,37.7-17,52.2-26.1c17.4-10.9,32.2-22.7,45.4-32.9c30.9-23.9,60.1-48,87.4-70.4
	c40.5-33.2,91.4-65.7,135-101c13.4-10.8,36.6-24.2,43.1-36.3c4.1-7.6,6-21.1,10.2-32.9c10.6-29.4,23.7-77.4,25-106.7
	C1407.9,530.6,1406,530.2,1405.7,531.4 M955.2,518.9c-10.9-3.4-21.5-7.3-35.2-8C926,518.8,944.6,526.1,955.2,518.9 M407.1,509.8
	c-4.5-0.8-3.5,1.5-4.5,3.4c-10,17.4-0.2,54.4,13.6,64.7C425.6,558.2,424,519.6,407.1,509.8 M309.5,499.6
	c-11.1-0.4-17,18.3-18.2,28.3c-4.8,43,20.6,79.8,47.7,94.2C367.4,590.8,355,501.2,309.5,499.6 M891.6,490.6
	c-16.8,23.3,13,33.6,15.9,55.6c-1,4.3-8.3,2.3-11.3,4.5c12,8.8,17.8,23.8,23.8,38.6c13.5-5.4,38.2-7.8,52.2-5.6
	c-3-11.5-16.2-22.4-12.5-44.3c-23.4,4.4-68.7-10.5-67-29.5c2.5-27.7,61.5-9.2,77.2-5.7C984.6,451.5,910,464.9,891.6,490.6
	 M967.6,438.3c6.6,4.1,19.6,15.9,26.1,17c3.4,0.6,8-2.2,11.3-2.3c6.8-0.2,11.9,4.4,15.9,0c-26.5-14.3-58.3-23.4-70.4-52.2
	C929.5,420.6,950.7,427.9,967.6,438.3 M731.6,771.9c40.7,14.8,84.4,26.2,127.1,42c19.6,7.2,41.7,13.7,66.9,18.2
	c23.2,4.1,47.2,14.3,69.2,15.9c51.4,3.6,70.7-22.7,96.5-46.5c32.1-29.7,57-56.7,89.7-82.8c16.4-13.2,33.1-25.9,47.7-39.7
	c29.8-28.3,55.8-58.1,85.1-87.3c13.7-13.7,27.4-30,42-44.3c15.4-15,33.6-26.9,45.4-42c12.8-16.4,25.3-51,23.8-76
	c-1-17-31-30.2-42-35.2c-24.8,43.6-78,69.6-115.7,99.9c-3.9,3.1-11.2,8.8-9.1,11.4c4.2-3.9,16.2-2.8,19.3,1.1
	c-12.9,20.6-32,29.8-54.5,29.5c-16.3-0.2-31.7,0.6-48.8-3.4c-15.1-3.5-27.8-11.7-39.7-18.2c-11.1-6-25.2-17.9-36.3-21.6
	c-10.2-3.3-24.2-4.5-37.4-9.1c-12.5-4.3-25.3-9.6-35.2-11.3c-16.6-3-26.6,7.7-40.9-1.1c2,12.6,9.9,23.3,5.7,38.6
	c37.8,0.7,80.3,8.4,89.6,44.3c39.5-16.2,99.5-8.3,112.3,25c15,38.8-35.8,60.1-67,68.1c7.3,15.4,21.3,22.8,22.7,42
	c2.5,32.8-29.3,54.6-69.2,46.5c-1.3,12.6-12.2,14.8-18.2,21.6c-5.5,6.2-6,13.9-11.3,18.2c-32.1,25.9-91.3-1.2-119.1-18.2
	c-36,28.8-100.7,4.7-112.4-31.8c-44.3,15.7-116.1-16.5-105.5-60.1c5.6-23,27.7-33.1,47.7-44.3c-9.3-3.5-20.4-5.3-29.5-9.1
	c-30.5,22.9-77.4,29.9-127.1,30.6c-9.7,10.2-30.7,15.4-48.8,15.9c-19.5,0.6-32.7-8.7-45.4-15.9c-13.4,14.6-22.8,33.2-35.2,48.8
	C560.8,717.5,646.7,741.3,731.6,771.9 M1283.1,373.7c-68.8-23.5-131.9-76.1-230.4-63.6c-17.4,10.2-32.5,20.8-48.8,35.2
	c-12.7,11.2-36.4,26.7-32.9,51.1c2.9,20.5,34.2,32.1,55.6,42c11.2,5.2,21.4,11.5,31.8,17c10.1,5.4,21.2,13.9,31.8,17
	c9.4,2.7,19.8,0.9,28.4,3.4c16.5,4.8,30.3,16.1,45.4,21.6c17.8,6.5,34.4,10,51.1,17c42.9-43.3,102.3-70.2,141.8-116.9
	C1331.1,389.5,1307.1,381.9,1283.1,373.7 M1300.1,360c3.6-2.2-2.3-2.3-2.3-2.3c-59.2-35.2-127.8-60.9-195.2-86.2
	c-6.3,6.6-14.9,10.8-19.3,19.3C1179.4,290.1,1225.6,339.3,1300.1,360 M1022.1,267c-28.5,15.8-55.5,45.7-77.2,72.6
	c-21.9,27.3-49.5,51.2-73.8,76c-24.2,24.8-39.7,61.1-59,87.4c14,4,22,20.8,11.3,34c15.3-3.7,33.2-4.7,51.1-5.7
	c-2.3-9.5-10.7-21.3-9.1-34c3.4-26.2,48.6-46.9,84-45.4c-10.3-12.5-34.5-20.8-26.1-47.7c3.6-11.5,18.6-19.5,27.2-29.5
	c21.5-24.9,35.4-64.8,60.2-78.3c10.9-5.9,26.3-4.8,36.3-7.9c-6.2-6.7-9.5-16.2-17-21.6C1027.6,267.3,1022.8,266.6,1022.1,267
	 M1356.9,323.7c-45.4-22.2-83.3-44.7-133.9-59c-32.9-9.2-77.3-30.1-98.7-6.8c52.6,19.7,103.3,43.4,153.2,68.1
	c50.3,24.9,105.3,40.1,150.9,71.5C1427.7,352,1390.4,340.1,1356.9,323.7 M927.9,32.1c-35.9,20.8-78.8,66.6-112.3,104.4
	c-16.7,18.9-31.7,39.4-48.8,57.9c-17,18.4-37,34.2-53.3,53.3c-33.8,39.6-65.6,76.1-95.3,118c-29.4,41.4-68.3,79.1-87.4,126
	c-1.8,4.4-4.3,13-4.5,18.2c-1.6,29.1,23.2,39.8,25,61.3c19.3-0.6,36.7,5.2,55.6,3.4c14.7-1.4,30-8.8,45.4-13.6
	c7.8-2.5,16.7-2.9,22.7-5.7c10.9-5.2,20.3-20,30.6-32.9c28.7-35.9,59.3-71.8,85.1-105.5c18.1-23.7,39.3-45.5,57.9-69.2
	c18.6-23.7,33.5-51.3,53.3-73.8c12.7-14.4,28.8-27.8,43.1-40.8c14.8-13.5,30.2-26.7,44.2-39.7c29.3-27,61.8-51.9,74.9-94.2
	C1031.8,63.6,981.5,46.2,927.9,32.1 M823.5,72.9c-22,22-43.2,44.4-63.5,65.8c-10.3,10.9-23,21.2-31.8,32.9
	c-3.3,4.4-4.5,10.4-7.9,14.8c-7.3,9.1-17.7,15.4-25,23.8c-23.4,27.2-40,60.5-55.6,91.9c33.6-42.1,69.9-81.3,107.8-119.2
	c37.9-37.8,66.6-84.6,107.8-119.1c1.5-3.5-3.4-6.3,0-8c3.3-0.1,7.4,0.6,9.1-1.1c3.9-4.8,11-8.7,17-13.6c5.1-4.1,13.5-10.1,12.5-13.6
	C857.5,30,843.7,52.8,823.5,72.9 M1042.5,48c-30.9-12.9-60.8-32.4-96.4-27.2c2,4.6,8,5.2,12.5,6.8c5.4,1.9,11,3.9,17,5.7
	c31.2,8.9,66.4,28.4,87.4,45.4c5.7,4.6,14.8,13.6,15.9,20.4c3.7,23.1-23.6,51.9-38.6,66.9c-37.6,37.8-73.1,67.5-110.1,102.1
	c-19.4,18.1-33.4,37.2-47.7,59c-27.6,42-60.6,74.3-94.2,118c-23,30-47.2,59.4-70.4,88.5c-20,25.2-28.3,32.8-61.3,44.3
	c-13.6,4.7-27.8,10.6-40.8,12.5c-27.1,4-76.9-14.4-81.7,12.5c19.2-3.5,35.6-3.5,49.9,3.4c9.4,4.5,12.5,14.1,19.3,15.9
	c8.5,2.2,24.6-1.4,35.2-2.3c37.6-3.1,61.9-15,82.8-29.5c32-22.3,57.8-46.3,81.7-69.2c-5.9-5.3-14-10-14.7-18.2
	c-1.2-14.3,27.6-50.3,39.7-69.2c16.5-25.8,30.7-37.9,51.1-57.9c45-44.2,67.7-83.1,106.7-112.4c6.6-4.9,16-10.7,22.7-13.6
	c25.1-10.9,42.3,4.6,51.1,18.2c19.3-24.7,53.8-45.8,61.3-82.8c8-39.6-8.7-70.6-15.9-106.7C1088.4,69.5,1066.2,57.9,1042.5,48
	 M1127.6,227.3c33.7-1.2,69,8.9,103.3,19.3c48.9,14.8,90.5,37,132.8,59c38.3,20,81.8,37.3,87.4,87.4c1.4,12.6-3,27.5-3.4,38.6
	c-0.2,4.1,1.4,9.2,1.1,15.9c-0.7,20.4-6.4,43.7-10.2,65.8c-3.5,20.3-9.5,40.3-13.6,61.3c-3.9,19.6-8.2,40.9-14.7,60.1
	c-6.1,18-13.2,41.6-21.6,53.3c-8.7,12.2-29.4,24.2-43.1,35.2c-43.4,34.7-91.1,63.7-133.9,98.7c-28.2,23.1-56.4,45.8-86.3,69.2
	c-13.4,10.5-28.9,22.4-45.4,32.9c-22.7,14.4-47.6,35.2-74.9,29.5c-22.4-4.6-45.2-19.2-66.9-28.3c-65.7-27.8-142.6-43.4-219-63.5
	c-25.2-6.7-49.5-13.8-76-18.2c-26.3-4.3-52.7-9.3-78.3-15.9c-50.1-13-102.8-17.1-140.7-47.7c-8.4,15.2-13.2,38.3-10.2,61.3
	c32,10.2,80,22.1,80.6,62.4c0.1,7.9-3,21.7-10.2,25c-18.8,8.5-41.1-15.9-49.9-25c-14.1-14.5-22.4-29.4-31.8-45.4
	c-44.3-6.2-92.2-0.2-112.3,25c34.5,6.8,86.1,18.8,93.1,54.4c5.6,28.9-13.9,44.7-38.6,45.4c-28.9,0.7-49.1-20.6-64.7-32.9
	c11.7,68.8-100.2,58.3-108.9,11.3c-26.2,7-56.7-2.3-78.3-9.1c-22.2-7-42.4-17.7-36.3-47.6c2.1-10.5,12.5-13.5,17-21.6
	c-37.3-1.3-66.2-10.9-71.5-44.3c5.4-33.9,33-45.7,69.2-48.8C60.4,782.3,44,779.2,36,768.6c-9.9-13.1-11.9-33.7,1.1-46.5
	c12.8-12.6,36.6-18.3,61.3-15.9c41.6,4.1,73.2,35.7,88.5,62.4c16.2-9.9,30.4-27.8,27.2-53.3c-27.8-7.6-78.5-9.1-103.3-26.1
	c-28.4-19.5-23.4-65.9,23.8-57.9c5.7-0.3,2.6-2.5,3.4-3.4c46.4,4,74.5,32.8,93.1,68.1c24.3-1.4,39.2-12.3,48.8-28.4
	c-26.1-6.4-56-15.3-73.8-36.3c-10.7-12.7-20.6-33-18.2-53.3c4.9-40.8,64.1-31.1,86.2-10.2c-9.5-37.2-5-92.3,44.3-85.1
	c51.2,7.5,68.3,96.3,43.1,145.3c23.2,3.6,35.7-13.4,44.3-28.4c-18.5-23.2-49.2-79.7-13.6-106.7c36.8-6.8,56.3,31.9,48.8,73.7
	c-2.5,13.7-15.7,29.6-1.1,36.3c13.5-13.4,16.7-74.1,49.9-65.8c11.2,11.5,6.9,38.5,17,51.1c6.4-3.6,21.6-9.1,21.6-20.4
	c0-6.8-10.2-13.9-14.7-21.5c-6.8-11.5-11.6-27.5-9.1-46.5c2.3-16.9,13.2-29.9,20.4-43.1c7.6-13.9,13.2-26.5,23.8-38.6
	c10.2-46.1,43.7-81.5,67-118c21.6-34,38.5-71.6,65.8-102.1c26.1-29.2,55.8-57.8,81.7-86.3c12.1-13.3,26.5-28.4,40.8-43.1
	c25.2-25.7,44-50.3,86.2-55.6c9.3-1.2,16.5,1.6,25,0c7.8-1.5,15.4-9.9,25-11.4C990-6,1016.3,16.9,1055,33.2
	c11.1,4.7,23,10,36.3,15.9c11.9,5.2,29.8,12,34,18.1c2.7,3.9,2.9,13.8,4.5,21.6c5.9,27.5,23.9,63.5,13.6,104.4
	C1140,207.3,1131.9,215.7,1127.6,227.3"/>
</svg>
